,patient_name,accession_number,sop_instance_uid,study_date,study_description,series_description,image_laterality,view_position,sopuid,is_tomo,frame_number,is_mass,xmin,xmax,ymin,ymax,min_gt_study_date,min_gt_accession_number
0,1027^^^^,1447,1.2.840.113681.3232311819.1404974405.5040.636,2014-05-26,MAM,SCREENING,WITH,TOMO,L,MLO,L,MLO,2017-05-29,1451,,,,
1,1027^^^^,1447,1.2.840.113681.3232311819.1404974405.5040.681,2014-05-26,MAM,SCREENING,WITH,TOMO,L,CC,L,CC,2017-05-29,1451,,,,
2,1027^^^^,1447,1.2.840.113681.3232311819.1404974405.5040.705,2014-05-26,MAM,SCREENING,WITH,TOMO,L,MLO,L,MLO,2017-05-29,1451,,,,
3,1027^^^^,1449,1.2.840.113681.3232293899.1436509615.5380.442,2015-05-20,MAM,SCREENING,WITH,TOMO,L,CC,L,CC,2017-05-29,1451,,,,
4,1027^^^^,1449,1.2.840.113681.3232293899.1436509615.5380.466,2015-05-20,MAM,SCREENING,WITH,TOMO,L,MLO,L,MLO,2017-05-29,1451,,,,
5,1027^^^^,1449,1.2.840.113681.3232293899.1436509615.5380.534,2015-05-20,MAM,SCREENING,WITH,TOMO,L,MLO,L,MLO,2017-05-29,1451,,,,
6,1027^^^^,1450,1.2.840.113681.3232311819.1468823565.4672.2479,2016-05-28,MAM,SCREENING,WITH,TOMO,L,CC,L,CC,2017-05-29,1451,,,,
7,1027^^^^,1450,1.2.840.113681.3232311819.1468823565.4672.2503,2016-05-28,MAM,SCREENING,WITH,TOMO,L,MLO,L,MLO,2017-05-29,1451,,,,
8,1027^^^^,1446,1.2.840.113619.2.66.2218493508.9594130625104857.59,2013-05-05,Mam,Screen/Wait,Digital,Mam,Screen/Wait,Digital,L,CC,2017-05-29,1451,,,,
9,1027^^^^,1446,1.2.840.113619.2.66.2218493508.9594130625105005.63,2013-05-05,Mam,Screen/Wait,Digital,Mam,Screen/Wait,Digital,L,MLO,2017-05-29,1451,,,,
10,1036^^^^,26776,1.2.840.113681.3232311819.1403160141.1760.1335,2014-07-28,MAM,SCREENING,WITH,TOMO,R,CC,R,CC,2015-07-28,33308,,,,
11,1036^^^^,26776,1.2.840.113681.3232311819.1403160141.1760.1359,2014-07-28,MAM,SCREENING,WITH,TOMO,R,MLO,R,MLO,2015-07-28,33308,,,,
12,1036^^^^,1465,1.2.840.113619.2.66.2218493508.1989130618092009.99,2013-07-27,Mam,Screen/Wait,Digital,Mam,Screen/Wait,Digital,R,CC,2015-07-28,33308,,,,
13,1036^^^^,1465,1.2.840.113619.2.66.2218493508.1989130618092340.111,2013-07-27,Mam,Screen/Wait,Digital,Mam,Screen/Wait,Digital,R,MLO,2015-07-28,33308,,,,
14,1038^^^^,1467,1.2.840.113681.3232311819.1370414708.4956.3663,2013-06-27,Mam,Screening,w/Tomo,L,CC,L,CC,2015-09-12,1469,,,,,
15,1038^^^^,1467,1.2.840.113681.3232311819.1370414708.4956.3674,2013-06-27,Mam,Screening,w/Tomo,L,MLO,L,MLO,2015-09-12,1469,,,,,
16,1038^^^^,1468,1.2.840.113681.3232293899.1405060212.5388.14812,2014-08-02,MAM,SCREENING,WITH,TOMO,L,CC,L,CC,2015-09-12,1469,,,,
17,1038^^^^,1468,1.2.840.113681.3232293899.1405060212.5388.14836,2014-08-02,MAM,SCREENING,WITH,TOMO,L,MLO,L,MLO,2015-09-12,1469,,,,
18,316^^^^,23746,1.2.840.113681.3232311819.1427352623.684.2890,2015-05-23,MAM,SCREENING,WITH,TOMO,L,CC,L,CC,2017-06-04,53614,,,,
19,316^^^^,23746,1.2.840.113681.3232311819.1427352623.684.2914,2015-05-23,MAM,SCREENING,WITH,TOMO,L,MLO,L,MLO,2017-06-04,53614,,,,
20,316^^^^,367,1.2.840.113681.3232311819.1393914937.2044.3826,2014-05-01,MAM,SCREENING,WITH,TOMO,L,CC,L,CC,2017-06-04,53614,,,,
21,316^^^^,367,1.2.840.113681.3232311819.1393914937.2044.3850,2014-05-01,MAM,SCREENING,WITH,TOMO,L,MLO,L,MLO,2017-06-04,53614,,,,
22,316^^^^,367,1.2.840.113681.3232311819.1393914937.2044.3874,2014-05-01,MAM,SCREENING,WITH,TOMO,L,MLO,L,MLO,2017-06-04,53614,,,,
23,316^^^^,53613,1.2.840.113681.3232293899.1459232480.5408.23073,2016-05-26,MAM,SCREENING,WITH,TOMO,L,CC,L,CC,2017-06-04,53614,,,,
24,316^^^^,53613,1.2.840.113681.3232293899.1459232480.5408.23097,2016-05-26,MAM,SCREENING,WITH,TOMO,L,MLO,L,MLO,2017-06-04,53614,,,,
25,316^^^^,366,1.2.840.113619.2.66.2218493508.1663130301160049.283,2013-04-28,Mam,Screening,Digital,Mam,Screening,Digital,L,CC,2017-06-04,53614,,,,
26,316^^^^,366,1.2.840.113619.2.66.2218493508.1663130301160133.287,2013-04-28,Mam,Screening,Digital,Mam,Screening,Digital,L,MLO,2017-06-04,53614,,,,
27,316^^^^,366,1.2.840.113619.2.66.2218493508.1663130301160333.295,2013-04-28,Mam,Screening,Digital,Mam,Screening,Digital,L,CC,2017-06-04,53614,,,,
28,330^^^^,386,1.2.840.113619.2.66.2218493508.1537130313083714.71,2013-01-27,Mam,Screen/Wait,Digital,Mam,Screen/Wait,Digital,R,CC,2014-02-18,23290,,,,
29,330^^^^,386,1.2.840.113619.2.66.2218493508.1537130313083958.83,2013-01-27,Mam,Screen/Wait,Digital,Mam,Screen/Wait,Digital,R,MLO,2014-02-18,23290,,,,
30,384^^^^,459,1.2.840.113681.3232311819.1363589235.5008.4669,2013-01-20,Mam,Screening,w/Tomo,L,CC,L,CC,2015-02-02,26892,,,,,
31,384^^^^,459,1.2.840.113681.3232311819.1363589235.5008.4680,2013-01-20,Mam,Screening,w/Tomo,L,MLO,L,MLO,2015-02-02,26892,,,,,
32,384^^^^,460,1.2.840.113681.3232293899.1395298157.5360.1617,2014-01-22,MAM,Screen,and,Wait,L,CC,L,CC,2015-02-02,26892,,,,
33,384^^^^,460,1.2.840.113681.3232293899.1395298157.5360.1629,2014-01-22,MAM,Screen,and,Wait,L,MLO,L,MLO,2015-02-02,26892,,,,
34,419^^^^,504,1.2.840.113681.3232311819.1362983038.3360.2715,2013-04-24,Mam,Screening,w/Tomo,L,CC,L,CC,2014-04-24,16615,,,,,
35,419^^^^,504,1.2.840.113681.3232311819.1362983038.3360.2726,2013-04-24,Mam,Screening,w/Tomo,L,MLO,L,MLO,2014-04-24,16615,,,,,
36,442^^^^,535,1.2.840.113681.3232311819.1363589235.5008.7706,2013-01-27,Mam,Screening,w/Tomo,R,CC,R,CC,2014-02-12,13376,,,,,
37,442^^^^,535,1.2.840.113681.3232311819.1363589235.5008.7739,2013-01-27,Mam,Screening,w/Tomo,R,MLO,R,MLO,2014-02-12,13376,,,,,
38,512^^^^,23760,1.2.840.113681.3232311819.1399271122.4536.890,2014-03-13,MAM,SCREENING,WITH,TOMO,R,CC,R,CC,2015-03-15,27393,,,,
39,512^^^^,23760,1.2.840.113681.3232311819.1399271122.4536.914,2014-03-13,MAM,SCREENING,WITH,TOMO,R,MLO,R,MLO,2015-03-15,27393,,,,
40,512^^^^,631,1.2.840.113681.3232311819.1367477187.244.3052,2013-03-10,MAM,SCREENING,W/TOMO,R,CC,R,CC,2015-03-15,27393,,,,,
41,512^^^^,631,1.2.840.113681.3232311819.1367477187.244.3085,2013-03-10,MAM,SCREENING,W/TOMO,R,MLO,R,MLO,2015-03-15,27393,,,,,
42,516^^^^,30060,1.2.840.113681.3232293899.1409034736.5392.13102,2014-10-23,MAM,SCREENING,WITH,TOMO,R,CC,R,CC,2015-12-03,33812,,,,
43,516^^^^,30060,1.2.840.113681.3232293899.1409034736.5392.13126,2014-10-23,MAM,SCREENING,WITH,TOMO,R,MLO,R,MLO,2015-12-03,33812,,,,
44,516^^^^,635,1.2.840.113681.3232311819.1372055164.3616.24975,2013-08-22,Mam,Screening,w/Tomo,R,CC,R,CC,2015-12-03,33812,,,,,
45,516^^^^,635,1.2.840.113681.3232311819.1372055164.3616.25008,2013-08-22,Mam,Screening,w/Tomo,R,MLO,R,MLO,2015-12-03,33812,,,,,
46,558^^^^,29992,1.2.840.113681.3232311819.1440484132.5060.1316,2015-10-02,MAM,SCREENING,L,CC,L,CC,2017-11-06,29993,,,,,,
47,558^^^^,29992,1.2.840.113681.3232311819.1440484132.5060.1328,2015-10-02,MAM,SCREENING,L,MLO,L,MLO,2017-11-06,29993,,,,,,
48,558^^^^,680,1.2.840.113681.3232311819.1387866997.4396.6496,2014-02-02,MAM,SCREENING,L,CC,L,CC,2017-11-06,29993,,,,,,
49,558^^^^,680,1.2.840.113681.3232311819.1387866997.4396.6506,2014-02-02,MAM,SCREENING,L,MLO,L,MLO,2017-11-06,29993,,,,,,
50,559^^^^,23858,1.2.840.113681.3232311819.1398321966.4264.7711,2014-06-05,MAM,Screen,and,Wait,L,CC,L,CC,2016-06-08,51364,,,,
51,559^^^^,23858,1.2.840.113681.3232311819.1398321966.4264.7723,2014-06-05,MAM,Screen,and,Wait,L,MLO,L,MLO,2016-06-08,51364,,,,
52,559^^^^,23859,1.2.840.113681.3232293899.1430145718.8096.10578,2015-06-08,MAM,SCREEN,AND,WAIT,L,CC,L,CC,2016-06-08,51364,,,,
53,559^^^^,23859,1.2.840.113681.3232293899.1430145718.8096.10623,2015-06-08,MAM,SCREEN,AND,WAIT,L,MLO,L,MLO,2016-06-08,51364,,,,
54,559^^^^,682,1.2.840.113619.2.66.2218493508.3012130424092309.131,2013-06-04,Mam,Screen/Wait,Digital,Mam,Screen/Wait,Digital,L,CC,2016-06-08,51364,,,,
55,559^^^^,682,1.2.840.113619.2.66.2218493508.3012130424092448.139,2013-06-04,Mam,Screen/Wait,Digital,Mam,Screen/Wait,Digital,L,MLO,2016-06-08,51364,,,,
56,627^^^^,25372,1.2.840.113681.3232293899.1401171425.5472.601,2014-03-31,MAM,SCREENING,WITH,TOMO,R,CC,R,CC,2016-09-19,60613,,,,
57,627^^^^,25372,1.2.840.113681.3232293899.1401171425.5472.625,2014-03-31,MAM,SCREENING,WITH,TOMO,R,MLO,R,MLO,2016-09-19,60613,,,,
58,627^^^^,31541,1.2.840.113681.3232311819.1437742095.9764.1630,2015-05-28,MAM,SCREENING,WITH,TOMO,R,CC,R,CC,2016-09-19,60613,,,,
59,627^^^^,31541,1.2.840.113681.3232311819.1437742095.9764.1654,2015-05-28,MAM,SCREENING,WITH,TOMO,R,MLO,R,MLO,2016-09-19,60613,,,,
60,627^^^^,763,1.2.840.113681.3232311819.1361168549.4124.912,2012-12-23,Mam,Screening,Digital,R,CC,R,CC,2016-09-19,60613,,,,,
61,627^^^^,763,1.2.840.113681.3232311819.1361168549.4124.945,2012-12-23,Mam,Screening,Digital,R,MLO,R,MLO,2016-09-19,60613,,,,,
62,636^^^^,23813,1.2.840.113681.3232293899.1401870207.5384.310,2014-05-17,MAM,SCREENING,WITH,TOMO,R,CC,R,CC,2015-05-17,23814,,,,
63,636^^^^,23813,1.2.840.113681.3232293899.1401870207.5384.334,2014-05-17,MAM,SCREENING,WITH,TOMO,R,MLO,R,MLO,2015-05-17,23814,,,,
64,636^^^^,773,1.2.840.113619.2.66.2218493508.1625130603081312.23,2013-05-16,Mam,Screen/Wait,Digital,Mam,Screen/Wait,Digital,R,CC,2015-05-17,23814,,,,
65,636^^^^,773,1.2.840.113619.2.66.2218493508.1625130603081711.35,2013-05-16,Mam,Screen/Wait,Digital,Mam,Screen/Wait,Digital,R,MLO,2015-05-17,23814,,,,
66,683^^^^,26784,1.2.840.113681.3232293899.1417503668.5544.2971,2014-12-22,MAM,SCREENING,WITH,TOMO,L,CC,L,CC,2016-02-24,42331,,,,
67,683^^^^,26784,1.2.840.113681.3232293899.1417503668.5544.2995,2014-12-22,MAM,SCREENING,WITH,TOMO,L,MLO,L,MLO,2016-02-24,42331,,,,
68,683^^^^,841,1.2.840.113681.3232311819.1382510122.4836.630,2013-11-12,MAM,SCREEN,AND,WAIT,L,CC,L,CC,2016-02-24,42331,,,,
69,683^^^^,841,1.2.840.113681.3232311819.1382510122.4836.640,2013-11-12,MAM,SCREEN,AND,WAIT,L,MLO,L,MLO,2016-02-24,42331,,,,
70,760^^^^,975,1.2.840.113681.3232311819.1360220274.4212.4648,2013-03-12,Mam,Screen/Wait,Digital,R,CC,R,CC,2014-04-08,976,,,,,
71,760^^^^,975,1.2.840.113681.3232311819.1360220274.4212.4653,2013-03-12,Mam,Screen/Wait,Digital,R,MLO,R,MLO,2014-04-08,976,,,,,
72,771^^^^,1000,1.2.840.113619.2.66.2218493508.2804130306101118.103,2013-01-12,Mam,Screen/Wait,Digital,Mam,Screen/Wait,Digital,L,CC,2015-02-06,34482,,,,
73,771^^^^,1000,1.2.840.113619.2.66.2218493508.2804130306101233.107,2013-01-12,Mam,Screen/Wait,Digital,Mam,Screen/Wait,Digital,L,MLO,2015-02-06,34482,,,,
74,771^^^^,1001,1.2.840.113681.3232311819.1394087697.4844.10336,2014-01-12,MAM,SCREEN,AND,WAIT,L,CC,L,CC,2015-02-06,34482,,,,
75,771^^^^,1001,1.2.840.113681.3232311819.1394087697.4844.10348,2014-01-12,MAM,SCREEN,AND,WAIT,L,MLO,L,MLO,2015-02-06,34482,,,,
76,835^^^^,1123,1.2.840.113619.2.66.2218493508.1540130709131950.279,2013-08-05,Mam,Screen/Wait,Digital,Mam,Screen/Wait,Digital,L,CC,2016-08-29,29309,,,,
77,835^^^^,1123,1.2.840.113619.2.66.2218493508.1540130709132100.283,2013-08-05,Mam,Screen/Wait,Digital,Mam,Screen/Wait,Digital,L,MLO,2016-08-29,29309,,,,
78,863^^^^,1169,1.2.840.113619.2.66.2218493508.1525130702083429.39,2013-08-23,Mam,Screen/Wait,w/Implt,Digital,Mam,Screen/Wait,w/Implt,Digita,L,CC,2014-08-24,1170.0,,
79,863^^^^,1169,1.2.840.113619.2.66.2218493508.1525130702083452.43,2013-08-23,Mam,Screen/Wait,w/Implt,Digital,Mam,Screen/Wait,w/Implt,Digita,L,CC,2014-08-24,1170.0,,
80,863^^^^,1169,1.2.840.113619.2.66.2218493508.1525130702083621.47,2013-08-23,Mam,Screen/Wait,w/Implt,Digital,Mam,Screen/Wait,w/Implt,Digita,L,MLO,2014-08-24,1170.0,,
81,863^^^^,1169,1.2.840.113619.2.66.2218493508.1525130702083644.51,2013-08-23,Mam,Screen/Wait,w/Implt,Digital,Mam,Screen/Wait,w/Implt,Digita,L,MLO,2014-08-24,1170.0,,
82,927^^^^,1263,1.2.840.113681.3232311819.1372055164.3616.2444,2013-08-07,Mam,Screening,w/Tomo,L,CC,L,CC,2014-09-04,28125,,,,,
83,927^^^^,1263,1.2.840.113681.3232311819.1372055164.3616.2455,2013-08-07,Mam,Screening,w/Tomo,L,MLO,L,MLO,2014-09-04,28125,,,,,
84,95^^^^,111,1.2.840.113619.2.66.2218493508.2659130111094354.1107,2013-01-05,Mam,Screening,Digital,Mam,Screening,Digital,L,CC,2014-01-17,9866,,,,
85,95^^^^,111,1.2.840.113619.2.66.2218493508.2659130111094542.1115,2013-01-05,Mam,Screening,Digital,Mam,Screening,Digital,L,MLO,2014-01-17,9866,,,,
86,958^^^^,28128,1.2.840.113681.3232293899.1406183877.5424.237,2014-06-27,MAM,SCREENING,WITH,TOMO,R,CC,R,CC,2015-07-21,28129,,,,
87,958^^^^,28128,1.2.840.113681.3232293899.1406183877.5424.261,2014-06-27,MAM,SCREENING,WITH,TOMO,R,MLO,R,MLO,2015-07-21,28129,,,,
88,958^^^^,1311,1.2.840.113619.2.66.2218493508.1624130708073905.7,2013-06-11,Mam,Screening,Digital,Mam,Screening,Digital,R,CC,2015-07-21,28129,,,,
89,958^^^^,1311,1.2.840.113619.2.66.2218493508.1624130708074134.19,2013-06-11,Mam,Screening,Digital,Mam,Screening,Digital,R,MLO,2015-07-21,28129,,,,
90,958^^^^,1311,1.2.840.113619.2.66.2218493508.1624130708074252.23,2013-06-11,Mam,Screening,Digital,Mam,Screening,Digital,R,CC,2015-07-21,28129,,,,
91,980^^^^,26899,1.2.840.113681.3232293899.1408084605.5388.13674,2014-07-29,MAM,SCREENING,WITH,TOMO,R,CC,R,CC,2015-08-29,41492,,,,
92,980^^^^,26899,1.2.840.113681.3232293899.1408084605.5388.13698,2014-07-29,MAM,SCREENING,WITH,TOMO,R,MLO,R,MLO,2015-08-29,41492,,,,
93,980^^^^,1359,1.2.840.113619.2.66.2218493508.1574130815143654.563,2013-07-29,MAM,SCREENING,MAM,SCREENING,R,CC,2015-08-29,41492,,,,,,
94,980^^^^,1359,1.2.840.113619.2.66.2218493508.1574130815143805.571,2013-07-29,MAM,SCREENING,MAM,SCREENING,R,MLO,2015-08-29,41492,,,,,,
95,980^^^^,1359,1.2.840.113619.2.66.2218493508.1574130815143949.579,2013-07-29,MAM,SCREENING,MAM,SCREENING,R,MLO,2015-08-29,41492,,,,,,
96,1584^^^^,2437,1.2.840.113619.2.66.2218493508.2153130122083858.87,2012-12-25,"Mam,","Screen/Wait,",Digital,"Mam,","Screen/Wait,",Digital,L,CC,2015-02-16,39933,,,,
97,1584^^^^,2437,1.2.840.113619.2.66.2218493508.2153130122084120.95,2012-12-25,"Mam,","Screen/Wait,",Digital,"Mam,","Screen/Wait,",Digital,L,MLO,2015-02-16,39933,,,,
98,1584^^^^,2437,1.2.840.113619.2.66.2218493508.2153130122083858.87,2012-12-25,"Mam,","Screen/Wait,",Digital,"Mam,","Screen/Wait,",Digital,L,cc,2015-02-16,39933,,,,
99,1584^^^^,2437,1.2.840.113619.2.66.2218493508.2153130122084120.95,2012-12-25,"Mam,","Screen/Wait,",Digital,"Mam,","Screen/Wait,",Digital,L,mlo,2015-02-16,39933,,,,
100,1584^^^^,2438,1.2.840.113681.3232311819.1392618897.4924.738,2014-01-20,MAM,Screen,and,Wait,L,CC,L,cc,2015-02-16,39933,,,,
101,1584^^^^,2438,1.2.840.113681.3232311819.1392618897.4924.750,2014-01-20,MAM,Screen,and,Wait,L,MLO,L,mlo,2015-02-16,39933,,,,
102,1584^^^^,2438,1.2.840.113681.3232311819.1392618897.4924.806,2014-01-20,MAM,Screen,and,Wait,L,MLO,L,mlo,2015-02-16,39933,,,,
103,1959^^^^,3047,1.2.840.113619.2.66.2218493508.1836130114080849.7,2013-01-02,"Mam,","Screen/Wait,",Digital,"Mam,","Screen/Wait,",Digital,R,CC,2014-07-12,3048,,,,
104,1959^^^^,3047,1.2.840.113619.2.66.2218493508.1836130114081005.15,2013-01-02,"Mam,","Screen/Wait,",Digital,"Mam,","Screen/Wait,",Digital,R,MLO,2014-07-12,3048,,,,
105,1959^^^^,3047,1.2.840.113619.2.66.2218493508.1836130114080849.7,2013-01-02,"Mam,","Screen/Wait,",Digital,"Mam,","Screen/Wait,",Digital,R,cc,2014-07-12,3048,,,,
106,1959^^^^,3047,1.2.840.113619.2.66.2218493508.1836130114081005.15,2013-01-02,"Mam,","Screen/Wait,",Digital,"Mam,","Screen/Wait,",Digital,R,mlo,2014-07-12,3048,,,,
107,4093^^^^,6444,1.2.840.113619.2.66.2218493508.1641130129094608.127,2013-01-30,Mam,Screening,Digital,Mam,Screening,Digital,L,CC,2016-02-16,52047,,,,
108,4093^^^^,6444,1.2.840.113619.2.66.2218493508.1641130129094656.131,2013-01-30,Mam,Screening,Digital,Mam,Screening,Digital,L,MLO,2016-02-16,52047,,,,
109,4093^^^^,6444,1.2.840.113619.2.66.2218493508.1641130129094723.135,2013-01-30,Mam,Screening,Digital,Mam,Screening,Digital,L,CC,2016-02-16,52047,,,,
110,4093^^^^,6444,1.2.840.113619.2.66.2218493508.1641130129094902.143,2013-01-30,Mam,Screening,Digital,Mam,Screening,Digital,L,CC,2016-02-16,52047,,,,
111,4093^^^^,6444,1.2.840.113619.2.66.2218493508.1641130129094608.127,2013-01-30,Mam,Screening,Digital,Mam,Screening,Digital,L,cc,2016-02-16,52047,,,,
112,4093^^^^,6444,1.2.840.113619.2.66.2218493508.1641130129094656.131,2013-01-30,Mam,Screening,Digital,Mam,Screening,Digital,L,mlo,2016-02-16,52047,,,,
113,4093^^^^,6444,1.2.840.113619.2.66.2218493508.1641130129094723.135,2013-01-30,Mam,Screening,Digital,Mam,Screening,Digital,L,cc,2016-02-16,52047,,,,
114,4093^^^^,6444,1.2.840.113619.2.66.2218493508.1641130129094902.143,2013-01-30,Mam,Screening,Digital,Mam,Screening,Digital,L,cc,2016-02-16,52047,,,,
115,4093^^^^,26197,1.2.840.113681.3232293899.1423549953.5444.1983,2015-02-11,MAM,SCREENING,L,CC,L,cc,2016-02-16,52047,,,,,,
116,4093^^^^,26197,1.2.840.113681.3232293899.1423549953.5444.1995,2015-02-11,MAM,SCREENING,L,MLO,L,mlo,2016-02-16,52047,,,,,,
117,4093^^^^,26197,1.2.840.113681.3232293899.1423549953.5444.2039,2015-02-11,MAM,SCREENING,L,XCCL,L,xccl,2016-02-16,52047,,,,,,
118,4093^^^^,26197,1.2.840.113681.3232293899.1423549953.5444.2057,2015-02-11,MAM,SCREENING,L,MLO,L,mlo,2016-02-16,52047,,,,,,
119,4093^^^^,6445,1.2.840.113619.2.66.2218493508.5277140207084411.447,2014-02-08,MAM,SCREENING,MAM,SCREENING,L,cc,2016-02-16,52047,,,,,,
120,4093^^^^,6445,1.2.840.113619.2.66.2218493508.5277140207084531.451,2014-02-08,MAM,SCREENING,MAM,SCREENING,L,mlo,2016-02-16,52047,,,,,,
121,4093^^^^,6445,1.2.840.113619.2.66.2218493508.5277140207084751.459,2014-02-08,MAM,SCREENING,MAM,SCREENING,L,xccl,2016-02-16,52047,,,,,,
122,4556^^^^,7120,1.2.840.113681.3232311819.1359613644.5088.14061,2013-02-27,Mam,Screening,Digital,L,CC,L,CC,2015-04-08,33757,,,,,
123,4556^^^^,7120,1.2.840.113681.3232311819.1359613644.5088.14066,2013-02-27,Mam,Screening,Digital,L,MLO,L,MLO,2015-04-08,33757,,,,,
124,4556^^^^,7120,1.2.840.113681.3232311819.1359613644.5088.14061,2013-02-27,Mam,Screening,Digital,L,CC,L,cc,2015-04-08,33757,,,,,
125,4556^^^^,7120,1.2.840.113681.3232311819.1359613644.5088.14066,2013-02-27,Mam,Screening,Digital,L,MLO,L,mlo,2015-04-08,33757,,,,,
126,4556^^^^,15320,1.2.840.113681.3232311819.1391495872.4488.1962,2014-03-03,MAM,SCREENING,L,CC,L,cc,2015-04-08,33757,,,,,,
127,4556^^^^,15320,1.2.840.113681.3232311819.1391495872.4488.1986,2014-03-03,MAM,SCREENING,L,MLO,L,mlo,2015-04-08,33757,,,,,,
128,5067^^^^,7879,1.2.840.113619.2.66.2218493508.1836130114095358.163,2013-01-19,"Mam,","Screen/Wait,",Digital,"Mam,","Screen/Wait,",Digital,L,CC,2015-06-14,24579,,,,
129,5067^^^^,7879,1.2.840.113619.2.66.2218493508.1836130114095442.167,2013-01-19,"Mam,","Screen/Wait,",Digital,"Mam,","Screen/Wait,",Digital,L,MLO,2015-06-14,24579,,,,
130,5067^^^^,7879,1.2.840.113619.2.66.2218493508.1836130114101557.203,2013-01-19,"Mam,","Screen/Wait,",Digital,"Mam,","Screen/Wait,",Digital,L,CC,2015-06-14,24579,,,,
131,5067^^^^,7879,1.2.840.113619.2.66.2218493508.1836130114095358.163,2013-01-19,"Mam,","Screen/Wait,",Digital,"Mam,","Screen/Wait,",Digital,L,cc,2015-06-14,24579,,,,
132,5067^^^^,7879,1.2.840.113619.2.66.2218493508.1836130114095442.167,2013-01-19,"Mam,","Screen/Wait,",Digital,"Mam,","Screen/Wait,",Digital,L,mlo,2015-06-14,24579,,,,
133,5067^^^^,7879,1.2.840.113619.2.66.2218493508.1836130114101557.203,2013-01-19,"Mam,","Screen/Wait,",Digital,"Mam,","Screen/Wait,",Digital,L,cc,2015-06-14,24579,,,,
134,5067^^^^,24578,1.2.840.113681.3232293899.1400134670.5420.1500,2014-05-20,MAM,SCREENING,L,CC,L,cc,2015-06-14,24579,,,,,,
135,5067^^^^,24578,1.2.840.113681.3232293899.1400134670.5420.1564,2014-05-20,MAM,SCREENING,L,MLO,L,mlo,2015-06-14,24579,,,,,,
136,5637^^^^,8673,1.2.840.113619.2.66.2218493508.17934130125094146.87,2013-01-23,Mam,Screening,Digital,Mam,Screening,Digital,R,CC,2014-02-03,8674,,,,
137,5637^^^^,8673,1.2.840.113619.2.66.2218493508.17934130125094356.99,2013-01-23,Mam,Screening,Digital,Mam,Screening,Digital,R,MLO,2014-02-03,8674,,,,
138,5637^^^^,8673,1.2.840.113619.2.66.2218493508.17934130125094146.87,2013-01-23,Mam,Screening,Digital,Mam,Screening,Digital,R,cc,2014-02-03,8674,,,,
139,5637^^^^,8673,1.2.840.113619.2.66.2218493508.17934130125094356.99,2013-01-23,Mam,Screening,Digital,Mam,Screening,Digital,R,mlo,2014-02-03,8674,,,,
140,5758^^^^,8851,1.2.840.113619.2.66.2218493508.2659130110084302.367,2012-12-24,"Mam,","Screen/Wait,",Digital,"Mam,","Screen/Wait,",Digital,L,CC,2014-12-27,8853,,,,
141,5758^^^^,8851,1.2.840.113619.2.66.2218493508.2659130110084404.371,2012-12-24,"Mam,","Screen/Wait,",Digital,"Mam,","Screen/Wait,",Digital,L,MLO,2014-12-27,8853,,,,
142,5758^^^^,8851,1.2.840.113619.2.66.2218493508.2659130110084302.367,2012-12-24,"Mam,","Screen/Wait,",Digital,"Mam,","Screen/Wait,",Digital,L,cc,2014-12-27,8853,,,,
143,5758^^^^,8851,1.2.840.113619.2.66.2218493508.2659130110084404.371,2012-12-24,"Mam,","Screen/Wait,",Digital,"Mam,","Screen/Wait,",Digital,L,mlo,2014-12-27,8853,,,,
144,5758^^^^,8852,1.2.840.113619.2.66.2218493508.2813140110073702.7,2013-12-24,MAM,SCREENING,MAM,SCREENING,L,cc,2014-12-27,8853,,,,,,
145,5758^^^^,8852,1.2.840.113619.2.66.2218493508.2813140110073750.11,2013-12-24,MAM,SCREENING,MAM,SCREENING,L,mlo,2014-12-27,8853,,,,,,
146,5812^^^^,47791,1.2.840.113681.3232311819.1472711772.5068.1501922,2016-09-22,MAM,SCREENING,WITH,TOMO,R,CC,R,cc,2017-10-23,69899,,,,
147,5812^^^^,47791,1.2.840.113681.3232311819.1472711772.5068.1501946,2016-09-22,MAM,SCREENING,WITH,TOMO,R,MLO,R,mlo,2017-10-23,69899,,,,
148,5812^^^^,33102,1.2.840.113681.3232293899.1423463052.5436.576,2015-03-02,MAM,SCREENING,WITH,TOMO,R,CC,R,cc,2017-10-23,69899,,,,
149,5812^^^^,33102,1.2.840.113681.3232293899.1423463052.5436.600,2015-03-02,MAM,SCREENING,WITH,TOMO,R,MLO,R,mlo,2017-10-23,69899,,,,
150,5812^^^^,33102,1.2.840.113681.3232293899.1423463052.5436.680,2015-03-02,MAM,SCREENING,WITH,TOMO,R,XCCL,R,xccl,2017-10-23,69899,,,,
151,5812^^^^,17415,1.2.840.113681.3232311819.1389249732.4880.764,2014-01-30,MAM,SCREENING,WITH,TOMO,R,CC,R,cc,2017-10-23,69899,,,,
152,5812^^^^,17415,1.2.840.113681.3232311819.1389249732.4880.786,2014-01-30,MAM,SCREENING,WITH,TOMO,R,MLO,R,mlo,2017-10-23,69899,,,,
153,5956^^^^,9152,1.2.840.113681.3232311819.1359441466.4932.9952,2012-12-08,Mam,Screening,Digital,R,CC,R,CC,2014-09-09,34439,,,,,
154,5956^^^^,9152,1.2.840.113681.3232311819.1359441466.4932.9957,2012-12-08,Mam,Screening,Digital,R,MLO,R,MLO,2014-09-09,34439,,,,,
155,5956^^^^,9152,1.2.840.113681.3232311819.1359441466.4932.9952,2012-12-08,Mam,Screening,Digital,R,CC,R,cc,2014-09-09,34439,,,,,
156,5956^^^^,9152,1.2.840.113681.3232311819.1359441466.4932.9957,2012-12-08,Mam,Screening,Digital,R,MLO,R,mlo,2014-09-09,34439,,,,,
157,5961^^^^,19926,1.2.840.113681.3232311819.1390458812.1208.498,2013-11-24,MAM,SCREEN,AND,WAIT,R,CC,R,cc,2015-01-11,38505,,,,
158,5961^^^^,19926,1.2.840.113681.3232311819.1390458812.1208.510,2013-11-24,MAM,SCREEN,AND,WAIT,R,MLO,R,mlo,2015-01-11,38505,,,,
159,6010^^^^,42107,1.2.840.113681.3232311819.1431672066.2924.13227,2015-04-14,MAM,SCREEN,AND,WAIT,WITH,TOMO,R,CC,R,cc,2016-07-02,57020.0,,
160,6010^^^^,42107,1.2.840.113681.3232311819.1431672066.2924.13251,2015-04-14,MAM,SCREEN,AND,WAIT,WITH,TOMO,R,MLO,R,mlo,2016-07-02,57020.0,,
161,6038^^^^,58111,1.2.840.113681.3232311819.1474007824.4152.72924,2016-10-16,MAM,SCREEN,AND,WAIT,R,CC,R,cc,2017-10-22,64055,,,,
162,6038^^^^,58111,1.2.840.113681.3232311819.1474007824.4152.72936,2016-10-16,MAM,SCREEN,AND,WAIT,R,MLO,R,mlo,2017-10-22,64055,,,,
163,6038^^^^,29095,1.2.840.113681.3232311819.1442212055.4940.15253,2015-10-14,MAM,SCREEN,AND,WAIT,R,CC,R,cc,2017-10-22,64055,,,,
164,6038^^^^,29095,1.2.840.113681.3232311819.1442212055.4940.15265,2015-10-14,MAM,SCREEN,AND,WAIT,R,MLO,R,mlo,2017-10-22,64055,,,,
165,6038^^^^,29095,1.2.840.113681.3232311819.1442212055.4940.15321,2015-10-14,MAM,SCREEN,AND,WAIT,R,XCCL,R,xccl,2017-10-22,64055,,,,
166,6085^^^^,44911,1.2.840.113681.3232311819.1443681930.4860.2932,2015-11-02,MAM,SCREEN,AND,WAIT,L,CC,L,cc,2016-12-20,60942,,,,
167,6085^^^^,44911,1.2.840.113681.3232311819.1443681930.4860.2944,2015-11-02,MAM,SCREEN,AND,WAIT,L,MLO,L,mlo,2016-12-20,60942,,,,
168,6085^^^^,44911,1.2.840.113681.3232311819.1443681930.4860.2982,2015-11-02,MAM,SCREEN,AND,WAIT,L,CC,L,cc,2016-12-20,60942,,,,
169,6085^^^^,44911,1.2.840.113681.3232311819.1443681930.4860.3154,2015-11-02,MAM,SCREEN,AND,WAIT,L,MLO,L,mlo,2016-12-20,60942,,,,
170,6085^^^^,30141,1.2.840.113681.3232311819.1408603240.1404.13517,2014-09-22,MAM,SCREEN,AND,WAIT,L,CC,L,cc,2016-12-20,60942,,,,
171,6085^^^^,30141,1.2.840.113681.3232311819.1408603240.1404.13529,2014-09-22,MAM,SCREEN,AND,WAIT,L,MLO,L,mlo,2016-12-20,60942,,,,
172,6085^^^^,14887,1.2.840.113619.2.66.2218493508.1556130801151551.295,2013-09-02,MAM,SCREEN,AND,WAIT,MAM,SCREENING,L,cc,2016-12-20,60942,,,,
173,6085^^^^,14887,1.2.840.113619.2.66.2218493508.1556130801151744.303,2013-09-02,MAM,SCREEN,AND,WAIT,MAM,SCREENING,L,mlo,2016-12-20,60942,,,,
174,6085^^^^,14887,1.2.840.113619.2.66.2218493508.1556130801153521.307,2013-09-02,MAM,SCREEN,AND,WAIT,MAM,SCREENING,L,cc,2016-12-20,60942,,,,
175,6085^^^^,14887,1.2.840.113619.2.66.2218493508.1556130801153624.311,2013-09-02,MAM,SCREEN,AND,WAIT,MAM,SCREENING,L,cc,2016-12-20,60942,,,,
176,6085^^^^,14887,1.2.840.113619.2.66.2218493508.1556130801153834.315,2013-09-02,MAM,SCREEN,AND,WAIT,MAM,SCREENING,L,ml,2016-12-20,60942,,,,
177,6085^^^^,14887,1.2.840.113619.2.66.2218493508.1556130801153957.319,2013-09-02,MAM,SCREEN,AND,WAIT,MAM,SCREENING,L,ml,2016-12-20,60942,,,,
178,6232^^^^,9546,1.2.840.113681.3232311819.1358404227.5044.1361,2013-01-03,Mam,Screening,Digital,L,CC,L,CC,2017-11-02,71431,,,,,
179,6232^^^^,9546,1.2.840.113681.3232311819.1358404227.5044.1366,2013-01-03,Mam,Screening,Digital,L,MLO,L,MLO,2017-11-02,71431,,,,,
180,6232^^^^,9546,1.2.840.113681.3232311819.1358404227.5044.1361,2013-01-03,Mam,Screening,Digital,L,CC,L,cc,2017-11-02,71431,,,,,
181,6232^^^^,9546,1.2.840.113681.3232311819.1358404227.5044.1366,2013-01-03,Mam,Screening,Digital,L,MLO,L,mlo,2017-11-02,71431,,,,,
182,6232^^^^,19154,1.2.840.113681.3232311819.1390284832.4176.16826,2014-01-07,MAM,SCREENING,WITH,TOMO,L,CC,L,cc,2017-11-02,71431,,,,
183,6232^^^^,19154,1.2.840.113681.3232311819.1390284832.4176.16848,2014-01-07,MAM,SCREENING,WITH,TOMO,L,MLO,L,mlo,2017-11-02,71431,,,,
184,6232^^^^,54095,1.2.840.113681.3232293899.1465452870.5408.4014,2016-05-26,MAM,SCREENING,WITH,TOMO,L,CC,L,cc,2017-11-02,71431,,,,
185,6232^^^^,54095,1.2.840.113681.3232293899.1465452870.5408.4038,2016-05-26,MAM,SCREENING,WITH,TOMO,L,MLO,L,mlo,2017-11-02,71431,,,,
186,6232^^^^,19155,1.2.840.113681.3232311819.1430116261.4976.5184,2015-04-14,MAM,SCREENING,WITH,TOMO,L,CC,L,cc,2017-11-02,71431,,,,
187,6232^^^^,19155,1.2.840.113681.3232311819.1430116261.4976.5208,2015-04-14,MAM,SCREENING,WITH,TOMO,L,MLO,L,mlo,2017-11-02,71431,,,,
188,6255^^^^,9588,1.2.840.113681.3232311819.1359699073.4756.1263,2013-02-22,Mam,Screen/Wait,Digital,L,CC,L,CC,2017-08-16,56341,,,,,
189,6255^^^^,9588,1.2.840.113681.3232311819.1359699073.4756.1268,2013-02-22,Mam,Screen/Wait,Digital,L,MLO,L,MLO,2017-08-16,56341,,,,,
190,6255^^^^,9588,1.2.840.113681.3232311819.1359699073.4756.1263,2013-02-22,Mam,Screen/Wait,Digital,L,CC,L,cc,2017-08-16,56341,,,,,
191,6255^^^^,9588,1.2.840.113681.3232311819.1359699073.4756.1268,2013-02-22,Mam,Screen/Wait,Digital,L,MLO,L,mlo,2017-08-16,56341,,,,,
192,6255^^^^,24442,1.2.840.113681.3232311819.1400567831.4964.4617,2014-06-10,MAM,SCREEN,AND,WAIT,L,CC,L,cc,2017-08-16,56341,,,,
193,6255^^^^,24442,1.2.840.113681.3232311819.1400567831.4964.4662,2014-06-10,MAM,SCREEN,AND,WAIT,L,MLO,L,mlo,2017-08-16,56341,,,,
194,6255^^^^,56340,1.2.840.113681.3232293899.1469514286.5364.849,2016-08-16,MAM,SCREENING,WITH,TOMO,L,CC,L,cc,2017-08-16,56341,,,,
195,6255^^^^,56340,1.2.840.113681.3232293899.1469514286.5364.873,2016-08-16,MAM,SCREENING,WITH,TOMO,L,MLO,L,mlo,2017-08-16,56341,,,,
196,6430^^^^,9874,1.2.840.113619.2.66.2218493508.1596130128081642.27,2012-12-13,"Mam,","Screen/Wait,",Digital,"Mam,","Screen/Wait,",Digital,L,CC,2014-03-03,9875,,,,
197,6430^^^^,9874,1.2.840.113619.2.66.2218493508.1596130128081741.31,2012-12-13,"Mam,","Screen/Wait,",Digital,"Mam,","Screen/Wait,",Digital,L,MLO,2014-03-03,9875,,,,
198,6430^^^^,9874,1.2.840.113619.2.66.2218493508.1596130128082930.39,2012-12-13,"Mam,","Screen/Wait,",Digital,"Mam,","Screen/Wait,",Digital,L,ML,2014-03-03,9875,,,,
199,6430^^^^,9874,1.2.840.113619.2.66.2218493508.1596130128083146.47,2012-12-13,"Mam,","Screen/Wait,",Digital,"Mam,","Screen/Wait,",Digital,L,CC,2014-03-03,9875,,,,
200,6430^^^^,9874,1.2.840.113619.2.66.2218493508.1596130128081642.27,2012-12-13,"Mam,","Screen/Wait,",Digital,"Mam,","Screen/Wait,",Digital,L,cc,2014-03-03,9875,,,,
201,6430^^^^,9874,1.2.840.113619.2.66.2218493508.1596130128081741.31,2012-12-13,"Mam,","Screen/Wait,",Digital,"Mam,","Screen/Wait,",Digital,L,mlo,2014-03-03,9875,,,,
202,6430^^^^,9874,1.2.840.113619.2.66.2218493508.1596130128082930.39,2012-12-13,"Mam,","Screen/Wait,",Digital,"Mam,","Screen/Wait,",Digital,L,ml,2014-03-03,9875,,,,
203,6430^^^^,9874,1.2.840.113619.2.66.2218493508.1596130128083146.47,2012-12-13,"Mam,","Screen/Wait,",Digital,"Mam,","Screen/Wait,",Digital,L,cc,2014-03-03,9875,,,,
204,6532^^^^,10036,1.2.840.113619.2.66.2218493508.1507130201100128.119,2013-01-12,Mam,Screening,Digital,Mam,Screening,Digital,R,CC,2014-01-14,21413,,,,
205,6532^^^^,10036,1.2.840.113619.2.66.2218493508.1507130201100248.127,2013-01-12,Mam,Screening,Digital,Mam,Screening,Digital,R,MLO,2014-01-14,21413,,,,
206,6532^^^^,10036,1.2.840.113619.2.66.2218493508.1507130201100128.119,2013-01-12,Mam,Screening,Digital,Mam,Screening,Digital,R,cc,2014-01-14,21413,,,,
207,6532^^^^,10036,1.2.840.113619.2.66.2218493508.1507130201100248.127,2013-01-12,Mam,Screening,Digital,Mam,Screening,Digital,R,mlo,2014-01-14,21413,,,,
208,869^^^^,1179,1.2.840.113681.3232311819.1381214423.3112.5344,2013-11-07,MAM,SCREEN,AND,WAIT,WITH,IMPLANT,L,CC,L,CC,2016-05-18,40212.0,,
209,869^^^^,1179,1.2.840.113681.3232311819.1381214423.3112.5354,2013-11-07,MAM,SCREEN,AND,WAIT,WITH,IMPLANT,L,MLO,L,MLO,2016-05-18,40212.0,,
210,869^^^^,1179,1.2.840.113681.3232311819.1381214423.3112.5359,2013-11-07,MAM,SCREEN,AND,WAIT,WITH,IMPLANT,L,MLO,L,MLO,2016-05-18,40212.0,,
211,869^^^^,1179,1.2.840.113681.3232311819.1381214423.3112.5364,2013-11-07,MAM,SCREEN,AND,WAIT,WITH,IMPLANT,L,CC,L,CC,2016-05-18,40212.0,,
212,869^^^^,1179,1.2.840.113681.3232311819.1381214423.3112.6074,2013-11-07,MAM,SCREEN,AND,WAIT,WITH,IMPLANT,L,ML,L,ML,2016-05-18,40212.0,,
213,869^^^^,1179,1.2.840.113681.3232311819.1381214423.3112.6081,2013-11-07,MAM,SCREEN,AND,WAIT,WITH,IMPLANT,L,CC,L,CC,2016-05-18,40212.0,,
214,869^^^^,40211,1.2.840.113681.3232311819.1427092498.5044.3584,2015-04-22,MAM,SCREEN,AND,WAIT,WITH,IMPLANT,L,CC,L,CC,2016-05-18,40212.0,,
215,869^^^^,40211,1.2.840.113681.3232311819.1427092498.5044.3596,2015-04-22,MAM,SCREEN,AND,WAIT,WITH,IMPLANT,L,MLO,L,MLO,2016-05-18,40212.0,,
216,869^^^^,40211,1.2.840.113681.3232311819.1427092498.5044.3602,2015-04-22,MAM,SCREEN,AND,WAIT,WITH,IMPLANT,L,MLO,L,MLO,2016-05-18,40212.0,,
217,869^^^^,40211,1.2.840.113681.3232311819.1427092498.5044.3608,2015-04-22,MAM,SCREEN,AND,WAIT,WITH,IMPLANT,L,CC,L,CC,2016-05-18,40212.0,,
218,1580^^^^,2430,1.2.840.113619.2.66.2218493508.1553130905094357.115,2013-10-26,MAM,SCREEN,AND,WAIT,MAM,SCREEN,AND,WAIT,R,cc,2014-11-26,33173.0,,
219,1580^^^^,2430,1.2.840.113619.2.66.2218493508.1553130905094508.123,2013-10-26,MAM,SCREEN,AND,WAIT,MAM,SCREEN,AND,WAIT,R,mlo,2014-11-26,33173.0,,
220,1580^^^^,2430,1.2.840.113619.2.66.2218493508.1553130905094701.131,2013-10-26,MAM,SCREEN,AND,WAIT,MAM,SCREEN,AND,WAIT,R,mlo,2014-11-26,33173.0,,
221,1561^^^^,2389,1.2.840.113681.3232311819.1385015733.4712.6010,2014-01-15,MAM,SCREENING,WITH,IMPLANT,R,CC,R,cc,2016-03-01,2391,,,,
222,1561^^^^,2389,1.2.840.113681.3232311819.1385015733.4712.6020,2014-01-15,MAM,SCREENING,WITH,IMPLANT,R,MLO,R,mlo,2016-03-01,2391,,,,
223,1561^^^^,2389,1.2.840.113681.3232311819.1385015733.4712.6040,2014-01-15,MAM,SCREENING,WITH,IMPLANT,R,CC,R,cc,2016-03-01,2391,,,,
224,1561^^^^,2389,1.2.840.113681.3232311819.1385015733.4712.6045,2014-01-15,MAM,SCREENING,WITH,IMPLANT,R,MLO,R,mlo,2016-03-01,2391,,,,
225,1561^^^^,2390,1.2.840.113681.3232311819.1418019908.5036.6015,2015-02-01,MAM,SCREENING,WITH,IMPLANT,R,CC,R,cc,2016-03-01,2391,,,,
226,1561^^^^,2390,1.2.840.113681.3232311819.1418019908.5036.6027,2015-02-01,MAM,SCREENING,WITH,IMPLANT,R,MLO,R,mlo,2016-03-01,2391,,,,
227,1561^^^^,2390,1.2.840.113681.3232311819.1418019908.5036.6051,2015-02-01,MAM,SCREENING,WITH,IMPLANT,R,CC,R,cc,2016-03-01,2391,,,,
228,1561^^^^,2390,1.2.840.113681.3232311819.1418019908.5036.6057,2015-02-01,MAM,SCREENING,WITH,IMPLANT,R,MLO,R,mlo,2016-03-01,2391,,,,
229,1514^^^^,2307,1.2.840.113619.2.66.2218493508.2851131219135205.339,2014-02-14,MAM,SCREEN,AND,WAIT,MAM,SCREEN,AND,WAIT,L,cc,2017-07-26,66797.0,,
230,1514^^^^,2307,1.2.840.113619.2.66.2218493508.2851131219135304.343,2014-02-14,MAM,SCREEN,AND,WAIT,MAM,SCREEN,AND,WAIT,L,mlo,2017-07-26,66797.0,,
231,1514^^^^,2308,1.2.840.113681.3232311819.1424327967.5024.7402,2015-04-17,MAM,SCREEN,AND,WAIT,L,CC,L,cc,2017-07-26,66797,,,,
232,1514^^^^,2308,1.2.840.113681.3232311819.1424327967.5024.7414,2015-04-17,MAM,SCREEN,AND,WAIT,L,MLO,L,mlo,2017-07-26,66797,,,,
233,1514^^^^,2309,1.2.840.113681.3232311819.1461134112.5044.6534,2016-06-16,MAM,SCREENING,WITH,TOMO,L,CC,L,cc,2017-07-26,66797,,,,
234,1514^^^^,2309,1.2.840.113681.3232311819.1461134112.5044.6558,2016-06-16,MAM,SCREENING,WITH,TOMO,L,MLO,L,mlo,2017-07-26,66797,,,,
235,1733^^^^,2697,1.2.840.113681.3232311819.1362637667.4872.7268,2013-04-27,Mam,Screening,w/Tomo,L,CC,L,cc,2015-05-09,29526,,,,,
236,1733^^^^,2697,1.2.840.113681.3232311819.1362637667.4872.7279,2013-04-27,Mam,Screening,w/Tomo,L,MLO,L,mlo,2015-05-09,29526,,,,,
237,1733^^^^,2698,1.2.840.113681.3232293899.1395124425.4364.6076,2014-05-08,MAM,Screening,L,CC,L,cc,2015-05-09,29526,,,,,,
238,1733^^^^,2698,1.2.840.113681.3232293899.1395124425.4364.6088,2014-05-08,MAM,Screening,L,MLO,L,mlo,2015-05-09,29526,,,,,,
239,1798^^^^,14910,1.2.840.113681.3232311819.1395298580.4956.1034,2014-02-24,MAM,Screening,with,Tomo,L,CC,L,cc,2016-03-26,52413,,,,
240,1798^^^^,14910,1.2.840.113681.3232311819.1395298580.4956.1058,2014-02-24,MAM,Screening,with,Tomo,L,MLO,L,mlo,2016-03-26,52413,,,,
241,1798^^^^,29869,1.2.840.113681.3232293899.1426833548.5456.1773,2015-02-24,MAM,SCREENING,WITH,TOMO,L,CC,L,cc,2016-03-26,52413,,,,
242,1798^^^^,29869,1.2.840.113681.3232293899.1426833548.5456.1797,2015-02-24,MAM,SCREENING,WITH,TOMO,L,MLO,L,mlo,2016-03-26,52413,,,,
243,1870^^^^,2915,1.2.840.113681.3232311819.1375079091.4752.1492,2013-06-11,MAM,SCREENING,WITH,TOMO,R,CC,R,cc,2015-12-15,37209,,,,
244,1870^^^^,2915,1.2.840.113681.3232311819.1375079091.4752.1514,2013-06-11,MAM,SCREENING,WITH,TOMO,R,MLO,R,mlo,2015-12-15,37209,,,,
245,1870^^^^,34878,1.2.840.113681.3232293899.1420699526.5476.1565,2014-11-21,MAM,SCREENING,WITH,TOMO,R,CC,R,cc,2015-12-15,37209,,,,
246,1870^^^^,34878,1.2.840.113681.3232293899.1420699526.5476.1589,2014-11-21,MAM,SCREENING,WITH,TOMO,R,MLO,R,mlo,2015-12-15,37209,,,,
247,1806^^^^,2818,1.2.840.113681.3232311819.1379573286.5028.8150,2013-08-10,MAM,SCREENING,WITH,TOMO,R,CC,R,cc,2014-08-13,22770,,,,
248,1806^^^^,2818,1.2.840.113681.3232311819.1379573286.5028.8172,2013-08-10,MAM,SCREENING,WITH,TOMO,R,MLO,R,mlo,2014-08-13,22770,,,,
249,1874^^^^,2920,1.2.840.113681.3232311819.1384324349.4880.4719,2013-12-29,MAM,SCREENING,WITH,TOMO,R,CC,R,cc,2015-12-29,48051,,,,
250,1874^^^^,2920,1.2.840.113681.3232311819.1384324349.4880.4741,2013-12-29,MAM,SCREENING,WITH,TOMO,R,MLO,R,mlo,2015-12-29,48051,,,,
251,1874^^^^,2920,1.2.840.113681.3232311819.1384324349.4880.4785,2013-12-29,MAM,SCREENING,WITH,TOMO,R,XCCL,R,xccl,2015-12-29,48051,,,,
252,1874^^^^,29939,1.2.840.113681.3232311819.1415862478.5016.6386,2014-12-29,MAM,SCREENING,WITH,TOMO,R,CC,R,cc,2015-12-29,48051,,,,
253,1874^^^^,29939,1.2.840.113681.3232311819.1415862478.5016.6410,2014-12-29,MAM,SCREENING,WITH,TOMO,R,MLO,R,mlo,2015-12-29,48051,,,,
254,1679^^^^,2621,1.2.840.113619.2.66.2218493508.1532131003082808.31,2013-09-16,MAM,SCREENING,MAM,SCREENING,L,cc,2017-01-31,2624,,,,,,
255,1679^^^^,2621,1.2.840.113619.2.66.2218493508.1532131003082934.35,2013-09-16,MAM,SCREENING,MAM,SCREENING,L,mlo,2017-01-31,2624,,,,,,
256,1679^^^^,2622,1.2.840.113681.3232293899.1416898861.5508.7657,2014-11-08,MAM,SCREENING,WITH,TOMO,L,CC,L,cc,2017-01-31,2624,,,,
257,1679^^^^,2622,1.2.840.113681.3232293899.1416898861.5508.7681,2014-11-08,MAM,SCREENING,WITH,TOMO,L,MLO,L,mlo,2017-01-31,2624,,,,
258,1679^^^^,2623,1.2.840.113681.3232311819.1454654155.4980.834,2016-01-19,MAM,SCREENING,L,CC,L,cc,2017-01-31,2624,,,,,,
259,1679^^^^,2623,1.2.840.113681.3232311819.1454654155.4980.846,2016-01-19,MAM,SCREENING,L,MLO,L,mlo,2017-01-31,2624,,,,,,
260,1877^^^^,2923,1.2.840.113681.3232311819.1384236737.4080.1837,2013-10-17,MAM,SCREENING,L,CC,L,cc,2014-11-06,33613,,,,,,
261,1877^^^^,2923,1.2.840.113681.3232311819.1384236737.4080.1847,2013-10-17,MAM,SCREENING,L,MLO,L,mlo,2014-11-06,33613,,,,,,
262,1655^^^^,2576,1.2.840.113681.3232311819.1381819956.2312.2197,2013-08-23,MAM,SCREEN,AND,WAIT,R,CC,R,cc,2016-08-29,33667,,,,
263,1655^^^^,2576,1.2.840.113681.3232311819.1381819956.2312.2207,2013-08-23,MAM,SCREEN,AND,WAIT,R,MLO,R,mlo,2016-08-29,33667,,,,
264,1655^^^^,33665,1.2.840.113681.3232293899.1413354829.5472.503,2014-08-23,MAM,SCREEN,AND,WAIT,R,CC,R,cc,2016-08-29,33667,,,,
265,1655^^^^,33665,1.2.840.113681.3232293899.1413354829.5472.515,2014-08-23,MAM,SCREEN,AND,WAIT,R,MLO,R,mlo,2016-08-29,33667,,,,
266,1655^^^^,33666,1.2.840.113681.3232311819.1445322578.5004.3491,2015-08-28,MAM,SCREEN,AND,WAIT,R,CC,R,cc,2016-08-29,33667,,,,
267,1655^^^^,33666,1.2.840.113681.3232311819.1445322578.5004.3503,2015-08-28,MAM,SCREEN,AND,WAIT,R,MLO,R,mlo,2016-08-29,33667,,,,
268,1752^^^^,2729,1.2.840.113681.3232311819.1395728973.3544.3636,2014-02-19,MAM,Screening,L,CC,L,cc,2015-06-20,2730,,,,,,
269,1752^^^^,2729,1.2.840.113681.3232311819.1395728973.3544.3648,2014-02-19,MAM,Screening,L,MLO,L,mlo,2015-06-20,2730,,,,,,
270,1752^^^^,2729,1.2.840.113681.3232311819.1395728973.3544.3698,2014-02-19,MAM,Screening,L,XCCL,L,xccl,2015-06-20,2730,,,,,,
271,1752^^^^,2729,1.2.840.113681.3232311819.1395728973.3544.3710,2014-02-19,MAM,Screening,L,MLO,L,mlo,2015-06-20,2730,,,,,,
272,1752^^^^,2729,1.2.840.113681.3232311819.1395728973.3544.3734,2014-02-19,MAM,Screening,L,CC,L,cc,2015-06-20,2730,,,,,,
273,1948^^^^,3027,1.2.840.113681.3232311819.1364280403.4928.4936,2013-04-04,Mam,Screen/Wait,Digital,R,CC,R,cc,2015-05-02,3029,,,,,
274,1948^^^^,3027,1.2.840.113681.3232311819.1364280403.4928.4941,2013-04-04,Mam,Screen/Wait,Digital,R,MLO,R,mlo,2015-05-02,3029,,,,,
275,1948^^^^,3028,1.2.840.113681.3232293899.1395902247.5380.14323,2014-04-05,MAM,SCREEN,AND,WAIT,R,CC,R,cc,2015-05-02,3029,,,,
276,1948^^^^,3028,1.2.840.113681.3232293899.1395902247.5380.14335,2014-04-05,MAM,SCREEN,AND,WAIT,R,MLO,R,mlo,2015-05-02,3029,,,,
277,1948^^^^,3028,1.2.840.113681.3232293899.1395902247.5380.14497,2014-04-05,MAM,SCREEN,AND,WAIT,R,ML,R,ml,2015-05-02,3029,,,,
278,1948^^^^,3028,1.2.840.113681.3232293899.1395902247.5380.14515,2014-04-05,MAM,SCREEN,AND,WAIT,R,CC,R,cc,2015-05-02,3029,,,,
279,3842^^^^,43421,1.2.840.113681.3232311819.1437633268.2624.1026,2015-05-28,MAM,SCREENING,WITH,TOMO,R,CC,R,cc,2016-04-21,55607,,,,
280,3842^^^^,43421,1.2.840.113681.3232311819.1437633268.2624.1050,2015-05-28,MAM,SCREENING,WITH,TOMO,R,MLO,R,mlo,2016-04-21,55607,,,,
281,3842^^^^,27310,1.2.840.113681.3232293899.1405923976.5420.816,2014-05-26,MAM,SCREENING,WITH,TOMO,R,CC,R,cc,2016-04-21,55607,,,,
282,3842^^^^,27310,1.2.840.113681.3232293899.1405923976.5420.840,2014-05-26,MAM,SCREENING,WITH,TOMO,R,MLO,R,mlo,2016-04-21,55607,,,,
283,3842^^^^,6078,1.2.840.113681.3232311819.1373956180.3748.5067,2013-05-21,Mam,Screen/Wait,Digital,R,CC,R,cc,2016-04-21,55607,,,,,
284,3842^^^^,6078,1.2.840.113681.3232311819.1373956180.3748.5072,2013-05-21,Mam,Screen/Wait,Digital,R,MLO,R,mlo,2016-04-21,55607,,,,,
285,3842^^^^,6078,1.2.840.113681.3232311819.1373956180.3748.5104,2013-05-21,Mam,Screen/Wait,Digital,R,MLO,R,mlo,2016-04-21,55607,,,,,
286,3941^^^^,6218,1.2.840.113681.3232311819.1372055164.3616.8539,2013-07-17,Mam,Screening,w/Tomo,R,CC,R,cc,2015-04-08,36858,,,,,
287,3941^^^^,6218,1.2.840.113681.3232311819.1372055164.3616.8572,2013-07-17,Mam,Screening,w/Tomo,R,MLO,R,mlo,2015-04-08,36858,,,,,
288,3941^^^^,6218,1.2.840.113681.3232311819.1372055164.3616.8588,2013-07-17,Mam,Screening,w/Tomo,R,MLO,R,mlo,2015-04-08,36858,,,,,
289,4201^^^^,6592,1.2.826.0.1.3680043.2.103.20130305.101744.518.052,2013-03-03,Mam,Screening,Digital,Mam,Screening,Digital,R,cc,2017-11-15,70520,,,,
290,4201^^^^,6592,1.2.826.0.1.3680043.2.103.20130305.101745.880.088,2013-03-03,Mam,Screening,Digital,Mam,Screening,Digital,R,mlo,2017-11-15,70520,,,,
291,4201^^^^,57684,1.2.840.113681.3232293899.1472192929.1788.1096738,2016-08-24,MAM,SCREENING,R,CC,R,cc,2017-11-15,70520,,,,,,
292,4201^^^^,57684,1.2.840.113681.3232293899.1472192929.1788.1096750,2016-08-24,MAM,SCREENING,R,MLO,R,mlo,2017-11-15,70520,,,,,,
293,4201^^^^,57684,1.2.840.113681.3232293899.1472192929.1788.1096812,2016-08-24,MAM,SCREENING,R,XCCL,R,xccl,2017-11-15,70520,,,,,,
294,4201^^^^,42528,1.2.840.113681.3232311819.1439879932.5048.4098,2015-08-16,MAM,SCREENING,R,CC,R,cc,2017-11-15,70520,,,,,,
295,4201^^^^,42528,1.2.840.113681.3232311819.1439879932.5048.4110,2015-08-16,MAM,SCREENING,R,MLO,R,mlo,2017-11-15,70520,,,,,,
296,4201^^^^,42528,1.2.840.113681.3232311819.1439879932.5048.4154,2015-08-16,MAM,SCREENING,R,XCCL,R,xccl,2017-11-15,70520,,,,,,
297,4201^^^^,25994,1.2.840.113681.3232293899.1406010676.5412.5034,2014-07-20,MAM,SCREENING,R,CC,R,cc,2017-11-15,70520,,,,,,
298,4201^^^^,25994,1.2.840.113681.3232293899.1406010676.5412.5046,2014-07-20,MAM,SCREENING,R,MLO,R,mlo,2017-11-15,70520,,,,,,
299,4060^^^^,23453,1.2.840.113681.3232311819.1397803536.5108.3049,2014-02-23,MAM,Screen,and,Wait,L,CC,L,cc,2015-03-08,34201,,,,
300,4060^^^^,23453,1.2.840.113681.3232311819.1397803536.5108.3061,2014-02-23,MAM,Screen,and,Wait,L,MLO,L,mlo,2015-03-08,34201,,,,
301,4060^^^^,6404,1.2.840.113681.3232311819.1366192615.4784.3742,2013-02-22,Mam,Screen/Wait,Digital,L,CC,L,cc,2015-03-08,34201,,,,,
302,4060^^^^,6404,1.2.840.113681.3232311819.1366192615.4784.3747,2013-02-22,Mam,Screen/Wait,Digital,L,MLO,L,mlo,2015-03-08,34201,,,,,
303,4060^^^^,6404,1.2.840.113681.3232311819.1366192615.4784.3799,2013-02-22,Mam,Screen/Wait,Digital,L,CC,L,cc,2015-03-08,34201,,,,,
304,4060^^^^,6404,1.2.840.113681.3232311819.1366192615.4784.4008,2013-02-22,Mam,Screen/Wait,Digital,L,MLO,L,mlo,2015-03-08,34201,,,,,
305,4060^^^^,6404,1.2.840.113681.3232311819.1366192615.4784.4018,2013-02-22,Mam,Screen/Wait,Digital,L,CC,L,cc,2015-03-08,34201,,,,,
306,4342^^^^,6794,1.2.840.113681.3232311819.1390458812.1208.920,2014-03-13,MAM,SCREENING,WITH,TOMO,L,CC,L,cc,2015-08-27,33966,,,,
307,4342^^^^,6794,1.2.840.113681.3232311819.1390458812.1208.944,2014-03-13,MAM,SCREENING,WITH,TOMO,L,MLO,L,mlo,2015-08-27,33966,,,,
308,4480^^^^,7005,1.2.840.113619.2.66.2218493508.2952130723154847.323,2013-06-27,MAM,SCREEN,AND,WAIT,MAM,SCREEN,AND,WAIT,L,cc,2014-06-27,27466.0,,
309,4480^^^^,7005,1.2.840.113681.3232311819.1374560791.4856.14423,2013-06-27,MAM,SCREEN,AND,WAIT,L,CC,L,cc,2014-06-27,27466,,,,
310,4480^^^^,7005,1.2.840.113681.3232311819.1374560791.4856.14433,2013-06-27,MAM,SCREEN,AND,WAIT,L,MLO,L,mlo,2014-06-27,27466,,,,
311,4340^^^^,6789,1.2.840.113619.2.66.2218493508.2558130620105612.203,2013-07-27,Mam,Screen/Wait,Digital,Mam,Screen/Wait,Digital,R,cc,2017-10-20,6791,,,,
312,4340^^^^,6789,1.2.840.113619.2.66.2218493508.2558130620105936.215,2013-07-27,Mam,Screen/Wait,Digital,Mam,Screen/Wait,Digital,R,mlo,2017-10-20,6791,,,,
313,4340^^^^,6790,1.2.840.113681.3232293899.1438237599.5452.1787,2015-09-05,MAM,SCREEN,AND,WAIT,R,CC,R,cc,2017-10-20,6791,,,,
314,4340^^^^,6790,1.2.840.113681.3232293899.1438237599.5452.1799,2015-09-05,MAM,SCREEN,AND,WAIT,R,MLO,R,mlo,2017-10-20,6791,,,,
315,4387^^^^,24086,1.2.840.113681.3232293899.1398148545.5400.5888,2014-06-11,MAM,Screening,with,Tomo,R,CC,R,cc,2015-07-01,41455,,,,
316,4387^^^^,24086,1.2.840.113681.3232293899.1398148545.5400.5912,2014-06-11,MAM,Screening,with,Tomo,R,MLO,R,mlo,2015-07-01,41455,,,,
317,4387^^^^,6855,1.2.840.113681.3232311819.1366266660.4928.2477,2013-06-07,Mam,Screen/Wait,Digital,R,CC,R,cc,2015-07-01,41455,,,,,
318,4387^^^^,6855,1.2.840.113681.3232311819.1366266660.4928.2510,2013-06-07,Mam,Screen/Wait,Digital,R,MLO,R,mlo,2015-07-01,41455,,,,,
319,4202^^^^,6593,1.2.840.113619.2.66.2218493508.2801131112082649.275,2013-09-30,MAM,SCREEN,AND,WAIT,MAM,SCREEN,AND,WAIT,R,cc,2014-10-29,19301.0,,
320,4202^^^^,6593,1.2.840.113619.2.66.2218493508.2801131112083008.287,2013-09-30,MAM,SCREEN,AND,WAIT,MAM,SCREEN,AND,WAIT,R,mlo,2014-10-29,19301.0,,
321,4511^^^^,44833,1.2.840.113681.3232311819.1443767647.5084.4079,2015-10-08,MAM,SCREENING,L,CC,L,cc,2016-10-10,57516,,,,,,
322,4511^^^^,44833,1.2.840.113681.3232311819.1443767647.5084.4091,2015-10-08,MAM,SCREENING,L,MLO,L,mlo,2016-10-10,57516,,,,,,
323,4511^^^^,7058,1.2.840.113681.3232311819.1412233765.4956.5000,2014-10-08,MAM,SCREENING,WITH,TOMO,L,CC,L,cc,2016-10-10,57516,,,,
324,4511^^^^,7058,1.2.840.113681.3232311819.1412233765.4956.5024,2014-10-08,MAM,SCREENING,WITH,TOMO,L,MLO,L,mlo,2016-10-10,57516,,,,
325,4511^^^^,7057,1.2.840.113681.3232311819.1378379216.5028.2475,2013-09-11,MAM,SCREENING,WITH,TOMO,L,CC,L,cc,2016-10-10,57516,,,,
326,4511^^^^,7057,1.2.840.113681.3232311819.1378379216.5028.2497,2013-09-11,MAM,SCREENING,WITH,TOMO,L,MLO,L,mlo,2016-10-10,57516,,,,
327,4511^^^^,7057,1.2.840.113681.3232311819.1378379216.5028.2528,2013-09-11,MAM,SCREENING,WITH,TOMO,L,MLO,L,mlo,2016-10-10,57516,,,,
328,12195^^^^,20667,1.2.840.113681.3232311819.1388125876.4884.3750,2013-11-09,MAM,SCREEN,AND,WAIT,L,CC,L,cc,2014-11-15,28396,,,,
329,12195^^^^,20667,1.2.840.113681.3232311819.1388125876.4884.3760,2013-11-09,MAM,SCREEN,AND,WAIT,L,MLO,L,mlo,2014-11-15,28396,,,,
330,12132^^^^,20512,1.2.840.113681.3232311819.1388643750.2932.3331,2013-11-22,MAM,SCREENING,WITH,TOMO,L,CC,L,cc,2014-12-02,29240,,,,
331,12132^^^^,20512,1.2.840.113681.3232311819.1388643750.2932.3353,2013-11-22,MAM,SCREENING,WITH,TOMO,L,MLO,L,mlo,2014-12-02,29240,,,,
332,12186^^^^,20653,1.2.840.113681.3232311819.1392707493.4768.2668,2014-02-13,MAM,Screening,R,CC,R,cc,2016-05-26,27078,,,,,,
333,12186^^^^,20653,1.2.840.113681.3232311819.1392707493.4768.2680,2014-02-13,MAM,Screening,R,MLO,R,mlo,2016-05-26,27078,,,,,,
334,4351^^^^,6805,1.2.840.113619.2.66.2218493508.2914130412154629.247,2013-06-07,Mam,Screen/Wait,Digital,Mam,Screening,Digital,R,cc,2015-01-08,34486,,,,
335,4351^^^^,6805,1.2.840.113619.2.66.2218493508.2914130412154742.251,2013-06-07,Mam,Screen/Wait,Digital,Mam,Screening,Digital,R,mlo,2015-01-08,34486,,,,
336,4351^^^^,6805,1.2.840.113619.2.66.2218493508.2914130412154917.255,2013-06-07,Mam,Screen/Wait,Digital,Mam,Screening,Digital,R,mlo,2015-01-08,34486,,,,
337,12447^^^^,21261,1.2.840.113681.3232311819.1390284832.4176.18818,2014-02-02,MAM,SCREENING,L,CC,L,cc,2017-02-21,62255,,,,,,
338,12447^^^^,21261,1.2.840.113681.3232311819.1390284832.4176.18828,2014-02-02,MAM,SCREENING,L,MLO,L,mlo,2017-02-21,62255,,,,,,
339,12447^^^^,37245,1.2.840.113681.3232311819.1422426487.5032.514,2015-02-09,MAM,SCREENING,WITH,TOMO,L,CC,L,cc,2017-02-21,62255,,,,
340,12447^^^^,37245,1.2.840.113681.3232311819.1422426487.5032.538,2015-02-09,MAM,SCREENING,WITH,TOMO,L,MLO,L,mlo,2017-02-21,62255,,,,
341,12447^^^^,50884,1.2.840.113681.3232311819.1453963399.5048.655,2016-02-09,MAM,SCREENING,WITH,TOMO,L,CC,L,cc,2017-02-21,62255,,,,
342,12447^^^^,50884,1.2.840.113681.3232311819.1453963399.5048.679,2016-02-09,MAM,SCREENING,WITH,TOMO,L,MLO,L,mlo,2017-02-21,62255,,,,
343,12930^^^^,22566,1.2.840.113681.3232311819.1394174120.1188.6131,2014-04-25,MAM,SCREEN,AND,WAIT,R,CC,R,cc,2017-04-28,51664,,,,
344,12930^^^^,22566,1.2.840.113681.3232311819.1394174120.1188.6143,2014-04-25,MAM,SCREEN,AND,WAIT,R,MLO,R,mlo,2017-04-28,51664,,,,
345,12417^^^^,21180,1.2.840.113681.3232311819.1389940339.4340.1506,2013-11-19,MAM,SCREENING,R,CC,R,cc,2016-06-07,56170,,,,,,
346,12417^^^^,21180,1.2.840.113681.3232311819.1389940339.4340.1516,2013-11-19,MAM,SCREENING,R,MLO,R,mlo,2016-06-07,56170,,,,,,
347,12485^^^^,21387,1.2.840.113619.2.66.2218493508.1667140204084408.39,2014-02-16,MAM,SCREENING,MAM,SCREENING,L,cc,2015-05-24,42343,,,,,,
348,12485^^^^,21387,1.2.840.113619.2.66.2218493508.1667140204084522.43,2014-02-16,MAM,SCREENING,MAM,SCREENING,L,mlo,2015-05-24,42343,,,,,,
349,12285^^^^,20854,1.2.840.113681.3232311819.1392013309.1120.12222,2013-12-28,MAM,Screening,with,Tomo,L,CC,L,cc,2016-10-16,60989,,,,
350,12285^^^^,20854,1.2.840.113681.3232311819.1392013309.1120.12246,2013-12-28,MAM,Screening,with,Tomo,L,MLO,L,mlo,2016-10-16,60989,,,,
351,12285^^^^,47412,1.2.840.113681.3232293899.1446445266.5384.10990,2015-09-19,MAM,SCREENING,WITH,TOMO,L,CC,L,cc,2016-10-16,60989,,,,
352,12285^^^^,47412,1.2.840.113681.3232293899.1446445266.5384.11014,2015-09-19,MAM,SCREENING,WITH,TOMO,L,MLO,L,mlo,2016-10-16,60989,,,,
353,12594^^^^,21695,1.2.840.113681.3232293899.1393827346.5460.7530,2014-04-17,MAM,SCREENING,R,CC,R,cc,2016-09-02,52806,,,,,,
354,12594^^^^,21695,1.2.840.113681.3232293899.1393827346.5460.7542,2014-04-17,MAM,SCREENING,R,MLO,R,mlo,2016-09-02,52806,,,,,,
355,12594^^^^,38401,1.2.840.113681.3232293899.1425536887.5440.3246,2015-04-19,MAM,SCREENING,WITH,TOMO,R,CC,R,cc,2016-09-02,52806,,,,
356,12594^^^^,38401,1.2.840.113681.3232293899.1425536887.5440.3270,2015-04-19,MAM,SCREENING,WITH,TOMO,R,MLO,R,mlo,2016-09-02,52806,,,,
357,12958^^^^,22677,1.2.840.113681.3232311819.1394520127.4016.9710,2014-02-11,MAM,Screening,with,Tomo,R,CC,R,cc,2016-09-29,44527,,,,
358,12958^^^^,22677,1.2.840.113681.3232311819.1394520127.4016.9734,2014-02-11,MAM,Screening,with,Tomo,R,MLO,R,mlo,2016-09-29,44527,,,,
359,12958^^^^,43808,1.2.840.113681.3232311819.1435041090.3492.12529,2015-05-27,MAM,SCREENING,WITH,TOMO,R,CC,R,cc,2016-09-29,44527,,,,
360,12958^^^^,43808,1.2.840.113681.3232311819.1435041090.3492.12553,2015-05-27,MAM,SCREENING,WITH,TOMO,R,MLO,R,mlo,2016-09-29,44527,,,,
361,12958^^^^,43808,1.2.840.113681.3232311819.1435041090.3492.12639,2015-05-27,MAM,SCREENING,WITH,TOMO,R,XCCL,R,xccl,2016-09-29,44527,,,,
362,12970^^^^,22705,1.2.840.113681.3232311819.1394606537.4688.11529,2014-03-20,MAM,Screening,with,Tomo,R,CC,R,cc,2015-06-05,42771,,,,
363,12970^^^^,22705,1.2.840.113681.3232311819.1394606537.4688.11553,2014-03-20,MAM,Screening,with,Tomo,R,MLO,R,mlo,2015-06-05,42771,,,,
364,12540^^^^,21529,1.2.840.113681.3232311819.1396509724.5076.432,2014-05-08,MAM,SCREENING,WITH,TOMO,R,CC,R,cc,2015-07-14,43407,,,,
365,12540^^^^,21529,1.2.840.113681.3232311819.1396509724.5076.456,2014-05-08,MAM,SCREENING,WITH,TOMO,R,MLO,R,mlo,2015-07-14,43407,,,,
366,12540^^^^,21529,1.2.840.113681.3232311819.1396509724.5076.492,2014-05-08,MAM,SCREENING,WITH,TOMO,R,MLO,R,mlo,2015-07-14,43407,,,,
367,12889^^^^,22473,1.2.840.113681.3232293899.1396960961.5352.2826,2014-03-06,MAM,SCREENING,R,CC,R,cc,2016-06-23,49151,,,,,,
368,12889^^^^,22473,1.2.840.113681.3232293899.1396960961.5352.2838,2014-03-06,MAM,SCREENING,R,MLO,R,mlo,2016-06-23,49151,,,,,,
369,12797^^^^,22231,1.2.840.113681.3232311819.1397112141.5096.11740,2014-02-17,MAM,Screening,R,CC,R,cc,2017-01-14,63135,,,,,,
370,12797^^^^,22231,1.2.840.113681.3232311819.1397112141.5096.11752,2014-02-17,MAM,Screening,R,MLO,R,mlo,2017-01-14,63135,,,,,,
371,12797^^^^,36059,1.2.840.113681.3232293899.1433399167.5444.3058,2015-04-12,MAM,SCREENING,R,CC,R,cc,2017-01-14,63135,,,,,,
372,12797^^^^,36059,1.2.840.113681.3232293899.1433399167.5444.3070,2015-04-12,MAM,SCREENING,R,MLO,R,mlo,2017-01-14,63135,,,,,,
373,12452^^^^,21269,1.2.840.113681.3232293899.1397479000.2644.2218,2014-03-09,MAM,Screening,with,Tomo,L,CC,L,cc,2016-04-07,55023,,,,
374,12452^^^^,21269,1.2.840.113681.3232293899.1397479000.2644.2242,2014-03-09,MAM,Screening,with,Tomo,L,MLO,L,mlo,2016-04-07,55023,,,,
375,12990^^^^,22777,1.2.840.113681.3232293899.1399444044.5452.2605,2014-04-25,MAM,SCREENING,WITH,TOMO,R,CC,R,cc,2015-08-15,22778,,,,
376,12990^^^^,22777,1.2.840.113681.3232293899.1399444044.5452.2629,2014-04-25,MAM,SCREENING,WITH,TOMO,R,MLO,R,mlo,2015-08-15,22778,,,,
377,12680^^^^,21909,1.2.840.113681.3232293899.1401171425.5472.4627,2014-05-13,MAM,SCREENING,WITH,TOMO,L,CC,L,cc,2017-07-19,66999,,,,
378,12680^^^^,21909,1.2.840.113681.3232293899.1401171425.5472.4651,2014-05-13,MAM,SCREENING,WITH,TOMO,L,MLO,L,mlo,2017-07-19,66999,,,,
379,12680^^^^,49779,1.2.840.113681.3232311819.1469687966.4652.12704,2016-07-15,MAM,SCREENING,WITH,TOMO,L,CC,L,cc,2017-07-19,66999,,,,
380,12680^^^^,49779,1.2.840.113681.3232311819.1469687966.4652.12728,2016-07-15,MAM,SCREENING,WITH,TOMO,L,MLO,L,mlo,2017-07-19,66999,,,,
381,12680^^^^,49779,1.2.840.113681.3232311819.1469687966.4652.12790,2016-07-15,MAM,SCREENING,WITH,TOMO,L,MLO,L,mlo,2017-07-19,66999,,,,
382,14607^^^^,28899,1.2.840.113681.3232311819.1407314868.3184.11016,2014-07-30,MAM,SCREENING,WITH,TOMO,R,CC,R,cc,2015-08-03,38887,,,,
383,14607^^^^,28899,1.2.840.113681.3232311819.1407314868.3184.11040,2014-07-30,MAM,SCREENING,WITH,TOMO,R,MLO,R,mlo,2015-08-03,38887,,,,
384,14490^^^^,28357,1.2.840.113681.3232311819.1404801218.4972.16986,2014-06-25,MAM,SCREENING,WITH,TOMO,L,CC,L,cc,2016-11-08,28359,,,,
385,14490^^^^,28357,1.2.840.113681.3232311819.1404801218.4972.17010,2014-06-25,MAM,SCREENING,WITH,TOMO,L,MLO,L,mlo,2016-11-08,28359,,,,
386,14500^^^^,28405,1.2.840.113681.3232311819.1406615814.4956.4375,2014-08-16,MAM,SCREENING,WITH,TOMO,R,CC,R,cc,2016-09-12,57777,,,,
387,14500^^^^,28405,1.2.840.113681.3232311819.1406615814.4956.4399,2014-08-16,MAM,SCREENING,WITH,TOMO,R,MLO,R,mlo,2016-09-12,57777,,,,
388,14736^^^^,29525,1.2.840.113681.3232311819.1413441829.4420.4456,2014-12-11,MAM,SCREENING,WITH,TOMO,L,CC,L,cc,2016-05-06,42515,,,,
389,14736^^^^,29525,1.2.840.113681.3232311819.1413441829.4420.4480,2014-12-11,MAM,SCREENING,WITH,TOMO,L,MLO,L,mlo,2016-05-06,42515,,,,
390,14672^^^^,29189,1.2.840.113681.3232293899.1410521419.5476.31447,2014-09-12,MAM,SCREENING,WITH,TOMO,L,CC,L,cc,2015-09-14,29190,,,,
391,14672^^^^,29189,1.2.840.113681.3232293899.1410521419.5476.31471,2014-09-12,MAM,SCREENING,WITH,TOMO,L,MLO,L,mlo,2015-09-14,29190,,,,
392,14654^^^^,29116,1.2.840.113681.3232293899.1406010676.5412.4914,2014-09-14,MAM,SCREENING,WITH,TOMO,L,CC,L,cc,2015-12-23,29118,,,,
393,14654^^^^,29116,1.2.840.113681.3232293899.1406010676.5412.4938,2014-09-14,MAM,SCREENING,WITH,TOMO,L,MLO,L,mlo,2015-12-23,29118,,,,
394,14712^^^^,29398,1.2.840.113681.3232293899.1409725834.5396.2865,2014-09-20,MAM,SCREENING,WITH,TOMO,L,CC,L,cc,2015-11-14,41157,,,,
395,14712^^^^,29398,1.2.840.113681.3232293899.1409725834.5396.2889,2014-09-20,MAM,SCREENING,WITH,TOMO,L,MLO,L,mlo,2015-11-14,41157,,,,
396,14603^^^^,28885,1.2.840.113681.3232293899.1405578561.5412.759,2014-08-27,MAM,SCREENING,WITH,TOMO,R,CC,R,cc,2016-03-14,51523,,,,
397,14603^^^^,28885,1.2.840.113681.3232293899.1405578561.5412.783,2014-08-27,MAM,SCREENING,WITH,TOMO,R,MLO,R,mlo,2016-03-14,51523,,,,
398,15297^^^^,31886,1.2.840.113681.3232293899.1441780298.5396.3561,2015-07-31,MAM,SCREENING,R,CC,R,cc,2016-11-02,31887,,,,,,
399,15297^^^^,31886,1.2.840.113681.3232293899.1441780298.5396.3573,2015-07-31,MAM,SCREENING,R,MLO,R,mlo,2016-11-02,31887,,,,,,
400,15297^^^^,31885,1.2.840.113681.3232311819.1410244575.448.24427,2014-07-31,MAM,SCREENING,WITH,TOMO,R,CC,R,cc,2016-11-02,31887,,,,
401,15297^^^^,31885,1.2.840.113681.3232311819.1410244575.448.24451,2014-07-31,MAM,SCREENING,WITH,TOMO,R,MLO,R,mlo,2016-11-02,31887,,,,
402,4721^^^^,7372,1.2.840.113619.2.66.2218493508.1525130521085731.67,2013-05-18,Mam,Screening,Digital,Mam,Screening,Digital,R,cc,2016-07-26,53880,,,,
403,4721^^^^,7372,1.2.840.113619.2.66.2218493508.1525130521090034.79,2013-05-18,Mam,Screening,Digital,Mam,Screening,Digital,R,mlo,2016-07-26,53880,,,,
404,4721^^^^,7372,1.2.840.113619.2.66.2218493508.1525130521090154.83,2013-05-18,Mam,Screening,Digital,Mam,Screening,Digital,R,mlo,2016-07-26,53880,,,,
405,4721^^^^,7373,1.2.840.113681.3232311819.1401950589.5036.4544,2014-06-03,MAM,SCREENING,R,CC,R,cc,2016-07-26,53880,,,,,,
406,4721^^^^,7373,1.2.840.113681.3232311819.1401950589.5036.4556,2014-06-03,MAM,SCREENING,R,MLO,R,mlo,2016-07-26,53880,,,,,,
407,4721^^^^,35525,1.2.840.113681.3232293899.1437113990.5404.3194,2015-07-14,MAM,SCREENING,R,CC,R,cc,2016-07-26,53880,,,,,,
408,4721^^^^,35525,1.2.840.113681.3232293899.1437113990.5404.3206,2015-07-14,MAM,SCREENING,R,MLO,R,mlo,2016-07-26,53880,,,,,,
409,4818^^^^,7508,1.2.840.113681.3232311819.1368513213.3680.4102,2013-05-18,Mam,Screen/Wait,Digital,R,CC,R,cc,2014-11-04,34305,,,,,
410,4818^^^^,7508,1.2.840.113681.3232311819.1368513213.3680.4107,2013-05-18,Mam,Screen/Wait,Digital,R,MLO,R,mlo,2014-11-04,34305,,,,,
411,4650^^^^,7262,1.2.840.113619.2.66.2218493508.2509130423082057.67,2013-05-22,Mam,Screen/Wait,Digital,Mam,Screen/Wait,Digital,R,cc,2015-01-21,36693,,,,
412,4650^^^^,7262,1.2.840.113619.2.66.2218493508.2509130423082251.79,2013-05-22,Mam,Screen/Wait,Digital,Mam,Screen/Wait,Digital,R,mlo,2015-01-21,36693,,,,
413,16532^^^^,37375,1.2.840.113681.3232311819.1423550202.3656.3262,2015-03-22,MAM,SCREENING,R,CC,R,cc,2017-03-25,64225,,,,,,
414,16532^^^^,37375,1.2.840.113681.3232311819.1423550202.3656.3274,2015-03-22,MAM,SCREENING,R,MLO,R,mlo,2017-03-25,64225,,,,,,
415,16532^^^^,51143,1.2.840.113681.3232311819.1454568603.4980.1872,2016-03-15,MAM,SCREENING,R,CC,R,cc,2017-03-25,64225,,,,,,
416,16532^^^^,51143,1.2.840.113681.3232311819.1454568603.4980.1884,2016-03-15,MAM,SCREENING,R,MLO,R,mlo,2017-03-25,64225,,,,,,
417,16556^^^^,37453,1.2.840.113681.3232311819.1430980739.4356.11239,2015-05-12,MAM,SCREENING,WITH,TOMO,L,CC,L,cc,2017-12-20,69573,,,,
418,16556^^^^,37453,1.2.840.113681.3232311819.1430980739.4356.11263,2015-05-12,MAM,SCREENING,WITH,TOMO,L,MLO,L,mlo,2017-12-20,69573,,,,
419,16556^^^^,50989,1.2.840.113681.3232311819.1477550209.5056.524327,2016-11-01,MAM,SCREENING,WITH,TOMO,L,CC,L,cc,2017-12-20,69573,,,,
420,16556^^^^,50989,1.2.840.113681.3232311819.1477550209.5056.524351,2016-11-01,MAM,SCREENING,WITH,TOMO,L,MLO,L,mlo,2017-12-20,69573,,,,
421,16316^^^^,36318,1.2.840.113681.3232293899.1419575665.5464.7961,2015-01-28,MAM,SCREENING,WITH,TOMO,L,CC,L,cc,2017-03-18,63035,,,,
422,16316^^^^,36318,1.2.840.113681.3232293899.1419575665.5464.7985,2015-01-28,MAM,SCREENING,WITH,TOMO,L,MLO,L,mlo,2017-03-18,63035,,,,
423,16316^^^^,50330,1.2.840.113681.3232311819.1455517692.5084.4091,2016-03-16,MAM,SCREENING,L,CC,L,cc,2017-03-18,63035,,,,,,
424,16316^^^^,50330,1.2.840.113681.3232311819.1455517692.5084.4103,2016-03-16,MAM,SCREENING,L,MLO,L,mlo,2017-03-18,63035,,,,,,
425,16316^^^^,50330,1.2.840.113681.3232311819.1455517692.5084.4153,2016-03-16,MAM,SCREENING,L,XCCL,L,xccl,2017-03-18,63035,,,,,,
426,16497^^^^,37189,1.2.840.113681.3232311819.1420699780.4900.5416,2015-03-04,MAM,SCREENING,WITH,TOMO,L,CC,L,cc,2017-04-16,56334,,,,
427,16497^^^^,37189,1.2.840.113681.3232311819.1420699780.4900.5440,2015-03-04,MAM,SCREENING,WITH,TOMO,L,MLO,L,mlo,2017-04-16,56334,,,,
428,16497^^^^,51287,1.2.840.113681.3232293899.1455257903.5428.3858,2016-04-07,MAM,SCREENING,WITH,TOMO,L,CC,L,cc,2017-04-16,56334,,,,
429,16497^^^^,51287,1.2.840.113681.3232293899.1455257903.5428.3882,2016-04-07,MAM,SCREENING,WITH,TOMO,L,MLO,L,mlo,2017-04-16,56334,,,,
430,16506^^^^,37246,1.2.840.113681.3232293899.1420785787.5508.3514,2014-12-04,MAM,SCREENING,L,CC,L,cc,2017-01-23,37247,,,,,,
431,16506^^^^,37246,1.2.840.113681.3232293899.1420785787.5508.3559,2014-12-04,MAM,SCREENING,L,MLO,L,mlo,2017-01-23,37247,,,,,,
432,16245^^^^,54263,1.2.840.113681.3232311819.1464158168.4024.4075,2016-04-26,MAM,SCREENING,WITH,TOMO,R,CC,R,cc,2017-04-26,64085,,,,
433,16245^^^^,54263,1.2.840.113681.3232311819.1464158168.4024.4099,2016-04-26,MAM,SCREENING,WITH,TOMO,R,MLO,R,mlo,2017-04-26,64085,,,,
434,16918^^^^,38905,1.2.840.113681.3232293899.1424240961.5392.3239,2015-02-16,MAM,SCREENING,WITH,TOMO,R,CC,R,cc,2017-05-08,38906,,,,
435,16918^^^^,38905,1.2.840.113681.3232293899.1424240961.5392.3263,2015-02-16,MAM,SCREENING,WITH,TOMO,R,MLO,R,mlo,2017-05-08,38906,,,,
436,16918^^^^,38905,1.2.840.113681.3232293899.1424240961.5392.3343,2015-02-16,MAM,SCREENING,WITH,TOMO,R,CC,R,cc,2017-05-08,38906,,,,
437,16982^^^^,39151,1.2.840.113681.3232311819.1424761323.3844.6876,2015-04-04,MAM,SCREENING,WITH,TOMO,L,CC,L,cc,2017-04-11,63962,,,,
438,16982^^^^,39151,1.2.840.113681.3232311819.1424761323.3844.6900,2015-04-04,MAM,SCREENING,WITH,TOMO,L,MLO,L,mlo,2017-04-11,63962,,,,
439,16982^^^^,39151,1.2.840.113681.3232311819.1424761323.3844.6968,2015-04-04,MAM,SCREENING,WITH,TOMO,L,MLO,L,mlo,2017-04-11,63962,,,,
440,16982^^^^,51453,1.2.840.113681.3232293899.1456899843.5424.17210,2016-04-10,MAM,SCREENING,WITH,TOMO,L,CC,L,cc,2017-04-11,63962,,,,
441,16982^^^^,51453,1.2.840.113681.3232293899.1456899843.5424.17234,2016-04-10,MAM,SCREENING,WITH,TOMO,L,MLO,L,mlo,2017-04-11,63962,,,,
442,16982^^^^,51453,1.2.840.113681.3232293899.1456899843.5424.17320,2016-04-10,MAM,SCREENING,WITH,TOMO,L,MLO,L,mlo,2017-04-11,63962,,,,
443,16808^^^^,38446,1.2.840.113681.3232311819.1427352623.684.1071,2015-04-29,MAM,SCREENING,WITH,TOMO,L,CC,L,cc,2018-01-11,56500,,,,
444,16808^^^^,38446,1.2.840.113681.3232311819.1427352623.684.1095,2015-04-29,MAM,SCREENING,WITH,TOMO,L,MLO,L,mlo,2018-01-11,56500,,,,
445,17299^^^^,40479,1.2.840.113681.3232311819.1427696956.3332.4414,2015-04-02,MAM,SCREENING,WITH,TOMO,L,CC,L,cc,2016-04-16,54096,,,,
446,17299^^^^,40479,1.2.840.113681.3232311819.1427696956.3332.4438,2015-04-02,MAM,SCREENING,WITH,TOMO,L,MLO,L,mlo,2016-04-16,54096,,,,
447,17720^^^^,42360,1.2.840.113681.3232311819.1464158168.4024.4243,2016-04-01,MAM,SCREENING,WITH,TOMO,L,CC,L,cc,2017-05-10,68278,,,,
448,17720^^^^,42360,1.2.840.113681.3232311819.1464158168.4024.4267,2016-04-01,MAM,SCREENING,WITH,TOMO,L,MLO,L,mlo,2017-05-10,68278,,,,
449,17720^^^^,42359,1.2.840.113681.3232293899.1431412703.5412.6330,2015-03-19,MAM,SCREENING,WITH,TOMO,L,MLO,L,mlo,2017-05-10,68278,,,,
450,17720^^^^,42359,1.2.840.113681.3232293899.1431412703.5412.6438,2015-03-19,MAM,SCREENING,WITH,TOMO,L,CC,L,cc,2017-05-10,68278,,,,
451,17900^^^^,43102,1.2.840.113681.3232293899.1433139570.5396.8617,2015-04-19,MAM,SCREENING,WITH,TOMO,R,MLO,R,mlo,2017-06-22,69222,,,,
452,17900^^^^,43102,1.2.840.113681.3232311819.1433173629.3632.675,2015-04-19,MAM,SCREENING,WITH,TOMO,R,CC,R,cc,2017-06-22,69222,,,,
453,18139^^^^,57053,1.2.840.113681.3232311819.1472020720.5028.307802,2016-09-15,MAM,SCREENING,WITH,TOMO,L,CC,L,cc,2017-09-15,66377,,,,
454,18139^^^^,57053,1.2.840.113681.3232311819.1472020720.5028.307826,2016-09-15,MAM,SCREENING,WITH,TOMO,L,MLO,L,mlo,2017-09-15,66377,,,,
455,18139^^^^,44130,1.2.840.113681.3232311819.1435213988.3460.2137,2015-07-17,MAM,SCREENING,WITH,TOMO,L,CC,L,cc,2017-09-15,66377,,,,
456,18139^^^^,44130,1.2.840.113681.3232311819.1435213988.3460.2161,2015-07-17,MAM,SCREENING,WITH,TOMO,L,MLO,L,mlo,2017-09-15,66377,,,,
457,17717^^^^,42348,1.2.840.113681.3232311819.1431499101.3536.22248,2015-04-06,MAM,SCREENING,WITH,TOMO,L,CC,L,cc,2017-05-21,63389,,,,
458,17717^^^^,42348,1.2.840.113681.3232311819.1431499101.3536.22272,2015-04-06,MAM,SCREENING,WITH,TOMO,L,MLO,L,mlo,2017-05-21,63389,,,,
459,17583^^^^,41856,1.2.840.113681.3232293899.1430375145.5468.5465,2015-04-24,MAM,SCREENING,WITH,TOMO,R,CC,R,cc,2017-02-22,64202,,,,
460,17583^^^^,41856,1.2.840.113681.3232293899.1430375145.5468.5489,2015-04-24,MAM,SCREENING,WITH,TOMO,R,MLO,R,mlo,2017-02-22,64202,,,,
461,17583^^^^,41856,1.2.840.113681.3232293899.1430375145.5468.5525,2015-04-24,MAM,SCREENING,WITH,TOMO,R,XCCL,R,xccl,2017-02-22,64202,,,,
462,18259^^^^,44587,1.2.840.113681.3232311819.1437114495.5040.1390,2015-08-21,MAM,SCREENING,R,CC,R,cc,2017-01-27,61125,,,,,,
463,18259^^^^,44587,1.2.840.113681.3232311819.1437114495.5040.1402,2015-08-21,MAM,SCREENING,R,MLO,R,mlo,2017-01-27,61125,,,,,,
464,18930^^^^,47498,1.2.840.113681.3232293899.1447136705.5468.6760,2015-12-24,MAM,SCREENING,WITH,TOMO,R,CC,R,cc,2017-11-26,70794,,,,
465,18930^^^^,47498,1.2.840.113681.3232293899.1447136705.5468.6784,2015-12-24,MAM,SCREENING,WITH,TOMO,R,MLO,R,mlo,2017-11-26,70794,,,,
466,18759^^^^,46753,1.2.840.113681.3232293899.1442903331.5436.3576,2015-11-12,MAM,SCREENING,R,CC,R,cc,2017-06-02,63951,,,,,,
467,18759^^^^,46753,1.2.840.113681.3232293899.1442903331.5436.3588,2015-11-12,MAM,SCREENING,R,MLO,R,mlo,2017-06-02,63951,,,,,,
468,18759^^^^,46753,1.2.840.113681.3232293899.1442903331.5436.3668,2015-11-12,MAM,SCREENING,R,MLO,R,mlo,2017-06-02,63951,,,,,,
469,18896^^^^,47369,1.2.840.113681.3232293899.1478067963.3788.1166100,2016-10-31,MAM,SCREENING,WITH,TOMO,L,CC,L,cc,2017-12-06,47370,,,,
470,18896^^^^,47369,1.2.840.113681.3232293899.1478067963.3788.1166124,2016-10-31,MAM,SCREENING,WITH,TOMO,L,MLO,L,mlo,2017-12-06,47370,,,,
471,20342^^^^,53458,1.2.840.113681.3232293899.1458886727.5360.369,2016-04-16,MAM,SCREENING,WITH,TOMO,L,CC,L,cc,2017-04-18,61770,,,,
472,20342^^^^,53458,1.2.840.113681.3232293899.1458886727.5360.393,2016-04-16,MAM,SCREENING,WITH,TOMO,L,MLO,L,mlo,2017-04-18,61770,,,,
473,4930^^^^,7672,1.2.840.113619.2.66.2218493508.1538130319140818.359,2013-02-08,Mam,Screen/Wait,Digital,Mam,Screen/Wait,Digital,R,cc,2015-03-06,34294,,,,
474,4930^^^^,7672,1.2.840.113619.2.66.2218493508.1538130319141124.371,2013-02-08,Mam,Screen/Wait,Digital,Mam,Screen/Wait,Digital,R,mlo,2015-03-06,34294,,,,
475,4930^^^^,7673,1.2.840.113681.3232311819.1395728973.3544.1985,2014-02-14,MAM,Screening,with,Tomo,R,CC,R,cc,2015-03-06,34294,,,,
476,4930^^^^,7673,1.2.840.113681.3232311819.1395728973.3544.2009,2014-02-14,MAM,Screening,with,Tomo,R,MLO,R,mlo,2015-03-06,34294,,,,
477,5132^^^^,7975,1.2.840.113681.3232311819.1384324349.4880.438,2013-11-26,MAM,SCREEN,AND,WAIT,R,CC,R,cc,2017-01-17,50187,,,,
478,5132^^^^,7975,1.2.840.113681.3232311819.1384324349.4880.448,2013-11-26,MAM,SCREEN,AND,WAIT,R,MLO,R,mlo,2017-01-17,50187,,,,
479,5132^^^^,7976,1.2.840.113681.3232311819.1416378530.1736.352,2014-12-02,MAM,SCREEN,AND,WAIT,R,CC,R,cc,2017-01-17,50187,,,,
480,5132^^^^,7976,1.2.840.113681.3232311819.1416378530.1736.364,2014-12-02,MAM,SCREEN,AND,WAIT,R,MLO,R,mlo,2017-01-17,50187,,,,
481,5132^^^^,7977,1.2.840.113681.3232293899.1450246984.5440.735,2015-12-29,MAM,SCREEN,AND,WAIT,R,CC,R,cc,2017-01-17,50187,,,,
482,5132^^^^,7977,1.2.840.113681.3232293899.1450246984.5440.798,2015-12-29,MAM,SCREEN,AND,WAIT,R,MLO,R,mlo,2017-01-17,50187,,,,
483,5094^^^^,7916,1.2.840.113681.3232311819.1393311836.3976.1215,2014-01-14,MAM,Screening,with,Implant,L,CC,L,cc,2016-05-10,24423,,,,
484,5094^^^^,7916,1.2.840.113681.3232311819.1393311836.3976.1227,2014-01-14,MAM,Screening,with,Implant,L,MLO,L,mlo,2016-05-10,24423,,,,
485,5094^^^^,7916,1.2.840.113681.3232311819.1393311836.3976.1239,2014-01-14,MAM,Screening,with,Implant,L,CC,L,cc,2016-05-10,24423,,,,
486,5094^^^^,7916,1.2.840.113681.3232311819.1393311836.3976.1325,2014-01-14,MAM,Screening,with,Implant,L,MLO,L,mlo,2016-05-10,24423,,,,
487,5088^^^^,7906,1.2.840.113619.2.66.2218493508.5295130529090953.111,2013-06-14,Mam,Screening,Digital,Mam,Screen/Wait,Digital,R,cc,2015-06-20,33715,,,,
488,5088^^^^,7906,1.2.840.113619.2.66.2218493508.5295130529091129.119,2013-06-14,Mam,Screening,Digital,Mam,Screen/Wait,Digital,R,mlo,2015-06-20,33715,,,,
489,5088^^^^,25960,1.2.840.113681.3232293899.1401870207.5384.473,2014-06-20,MAM,SCREENING,WITH,TOMO,R,CC,R,cc,2015-06-20,33715,,,,
490,5088^^^^,25960,1.2.840.113681.3232293899.1401870207.5384.497,2014-06-20,MAM,SCREENING,WITH,TOMO,R,MLO,R,mlo,2015-06-20,33715,,,,
491,5248^^^^,48617,1.2.840.113681.3232293899.1451456438.5448.6495,2016-01-20,MAM,SCREENING,WITH,TOMO,L,CC,L,cc,2017-04-03,64544,,,,
492,5248^^^^,48617,1.2.840.113681.3232293899.1451456438.5448.6519,2016-01-20,MAM,SCREENING,WITH,TOMO,L,MLO,L,mlo,2017-04-03,64544,,,,
493,5248^^^^,33015,1.2.840.113681.3232293899.1419318043.5448.824,2015-01-12,MAM,SCREENING,WITH,TOMO,L,CC,L,cc,2017-04-03,64544,,,,
494,5248^^^^,33015,1.2.840.113681.3232293899.1419318043.5448.848,2015-01-12,MAM,SCREENING,WITH,TOMO,L,MLO,L,mlo,2017-04-03,64544,,,,
495,5012^^^^,7794,1.2.840.113681.3232311819.1386052490.1432.2850,2013-11-03,MAM,SCREENING,WITH,TOMO,L,CC,L,cc,2017-03-20,46888,,,,
496,5012^^^^,7794,1.2.840.113681.3232311819.1386052490.1432.2872,2013-11-03,MAM,SCREENING,WITH,TOMO,L,MLO,L,mlo,2017-03-20,46888,,,,
497,5012^^^^,35199,1.2.840.113681.3232293899.1419920681.5480.11718,2014-11-30,MAM,SCREENING,WITH,TOMO,L,CC,L,cc,2017-03-20,46888,,,,
498,5012^^^^,35199,1.2.840.113681.3232293899.1419920681.5480.11742,2014-11-30,MAM,SCREENING,WITH,TOMO,L,MLO,L,mlo,2017-03-20,46888,,,,
499,5363^^^^,30389,1.2.840.113681.3232311819.1407480121.4440.699,2014-09-27,MAM,SCREENING,WITH,TOMO,L,CC,L,cc,2015-12-02,41698,,,,
500,5363^^^^,30389,1.2.840.113681.3232311819.1407480121.4440.723,2014-09-27,MAM,SCREENING,WITH,TOMO,L,MLO,L,mlo,2015-12-02,41698,,,,
501,5363^^^^,8303,1.2.840.113619.2.66.2218493508.2847130808074022.7,2013-09-27,MAM,SCREENING,MAM,SCREENING,L,cc,2015-12-02,41698,,,,,,
502,5363^^^^,8303,1.2.840.113619.2.66.2218493508.2847130808074134.15,2013-09-27,MAM,SCREENING,MAM,SCREENING,L,mlo,2015-12-02,41698,,,,,,
503,5590^^^^,8614,1.2.840.113681.3232311819.1378189009.4968.5745,2013-08-23,MAM,SCREENING,WITH,TOMO,L,CC,L,cc,2014-09-22,27666,,,,
504,5590^^^^,8614,1.2.840.113681.3232311819.1378189009.4968.5767,2013-08-23,MAM,SCREENING,WITH,TOMO,L,MLO,L,mlo,2014-09-22,27666,,,,
505,5402^^^^,8360,1.2.840.113619.2.66.2218493508.2981130627133852.351,2013-06-23,Mam,Screen/Wait,Digital,Mam,Screen/Wait,Digital,L,cc,2014-07-18,27931,,,,
506,5402^^^^,8360,1.2.840.113619.2.66.2218493508.2981130627134058.359,2013-06-23,Mam,Screen/Wait,Digital,Mam,Screen/Wait,Digital,L,mlo,2014-07-18,27931,,,,
507,5188^^^^,8065,1.2.840.113619.2.66.2218493508.2993140107132439.191,2014-02-09,MAM,SCREENING,MAM,SCREENING,R,cc,2015-02-15,8066,,,,,,
508,5188^^^^,8065,1.2.840.113619.2.66.2218493508.2993140107132616.199,2014-02-09,MAM,SCREENING,MAM,SCREENING,R,mlo,2015-02-15,8066,,,,,,
509,5158^^^^,8021,1.2.840.113619.2.66.2218493508.1732130228100315.15,2013-02-20,Mam,Screening,Digital,Mam,Screening,Digital,L,cc,2014-03-19,23061,,,,
510,5158^^^^,8021,1.2.840.113619.2.66.2218493508.1732130228100514.19,2013-02-20,Mam,Screening,Digital,Mam,Screening,Digital,L,mlo,2014-03-19,23061,,,,
511,5732^^^^,34987,1.2.840.113681.3232293899.1425018608.5396.1491,2015-01-09,MAM,SCREEN,AND,WAIT,R,CC,R,cc,2016-01-11,52529,,,,
512,5732^^^^,34987,1.2.840.113681.3232311819.1425018893.4020.1330,2015-01-09,MAM,SCREEN,AND,WAIT,R,CC,R,cc,2016-01-11,52529,,,,
513,5732^^^^,34987,1.2.840.113681.3232311819.1425018893.4020.1342,2015-01-09,MAM,SCREEN,AND,WAIT,R,MLO,R,mlo,2016-01-11,52529,,,,
514,5732^^^^,18904,1.2.840.113681.3232293899.1393483134.5380.1079,2014-01-09,MAM,Screening,R,CC,R,cc,2016-01-11,52529,,,,,,
515,5732^^^^,18904,1.2.840.113681.3232293899.1393483134.5380.1091,2014-01-09,MAM,Screening,R,MLO,R,mlo,2016-01-11,52529,,,,,,
516,5732^^^^,8810,1.2.840.113619.2.66.2218493508.5818130227082742.43,2013-01-09,Mam,Screen/Wait,Digital,Mam,Screen/Wait,Digital,R,cc,2016-01-11,52529,,,,
517,5732^^^^,8810,1.2.840.113619.2.66.2218493508.5818130227083053.55,2013-01-09,Mam,Screen/Wait,Digital,Mam,Screen/Wait,Digital,R,mlo,2016-01-11,52529,,,,
518,5991^^^^,40418,1.2.840.113681.3232311819.1431067187.452.176,2015-03-22,MAM,SCREENING,WITH,TOMO,L,CC,L,cc,2016-03-25,40419,,,,
519,5991^^^^,40418,1.2.840.113681.3232311819.1431067187.452.200,2015-03-22,MAM,SCREENING,WITH,TOMO,L,MLO,L,mlo,2016-03-25,40419,,,,
520,5991^^^^,24378,1.2.840.113681.3232293899.1398926214.5432.975,2014-03-15,MAM,SCREENING,WITH,TOMO,L,CC,L,cc,2016-03-25,40419,,,,
521,5991^^^^,24378,1.2.840.113681.3232293899.1398926214.5432.999,2014-03-15,MAM,SCREENING,WITH,TOMO,L,MLO,L,mlo,2016-03-25,40419,,,,
522,5991^^^^,9204,1.2.840.113681.3232311819.1366872707.2916.6574,2013-03-09,Mam,Screening,w/Tomo,L,CC,L,cc,2016-03-25,40419,,,,,
523,5991^^^^,9204,1.2.840.113681.3232311819.1366872707.2916.6585,2013-03-09,Mam,Screening,w/Tomo,L,MLO,L,mlo,2016-03-25,40419,,,,,
524,5708^^^^,33065,1.2.840.113681.3232293899.1412318563.5424.309,2014-08-06,MAM,SCREENING,WITH,TOMO,L,CC,L,cc,2015-08-29,33066,,,,
525,5708^^^^,33065,1.2.840.113681.3232293899.1412318563.5424.333,2014-08-06,MAM,SCREENING,WITH,TOMO,L,MLO,L,mlo,2015-08-29,33066,,,,
526,5708^^^^,8777,1.2.840.113681.3232311819.1375943513.1436.5604,2013-06-11,MAM,SCREENING,WITH,TOMO,L,CC,L,cc,2015-08-29,33066,,,,
527,5708^^^^,8777,1.2.840.113681.3232311819.1375943513.1436.5626,2013-06-11,MAM,SCREENING,WITH,TOMO,L,MLO,L,mlo,2015-08-29,33066,,,,
528,5708^^^^,8777,1.2.840.113681.3232311819.1375943513.1436.5642,2013-06-11,MAM,SCREENING,WITH,TOMO,L,MLO,L,mlo,2015-08-29,33066,,,,
529,6531^^^^,10035,1.2.840.113619.2.66.2218493508.2059130429102524.195,2013-03-04,Mam,Screening,Digital,Mam,Screening,Digital,R,cc,2014-03-04,22058,,,,
530,6531^^^^,10035,1.2.840.113619.2.66.2218493508.2059130429102723.207,2013-03-04,Mam,Screening,Digital,Mam,Screening,Digital,R,mlo,2014-03-04,22058,,,,
531,6491^^^^,9975,1.2.840.113681.3232293899.1439966176.5488.4149,2015-07-15,MAM,SCREENING,WITH,TOMO,L,CC,L,cc,2016-07-15,47268,,,,
532,6491^^^^,9975,1.2.840.113681.3232293899.1439966176.5488.4173,2015-07-15,MAM,SCREENING,WITH,TOMO,L,MLO,L,mlo,2016-07-15,47268,,,,
533,6491^^^^,9975,1.2.840.113681.3232293899.1439966176.5488.4241,2015-07-15,MAM,SCREENING,WITH,TOMO,L,MLO,L,mlo,2016-07-15,47268,,,,
534,6491^^^^,9975,1.2.840.113681.3232293899.1439966176.5488.4253,2015-07-15,MAM,SCREENING,WITH,TOMO,L,MLO,L,mlo,2016-07-15,47268,,,,
535,6491^^^^,9973,1.2.840.113681.3232311819.1371537631.4704.8075,2013-05-14,Mam,Screening,w/Tomo,L,CC,L,cc,2016-07-15,47268,,,,,
536,6491^^^^,9973,1.2.840.113681.3232311819.1371537631.4704.8086,2013-05-14,Mam,Screening,w/Tomo,L,MLO,L,mlo,2016-07-15,47268,,,,,
537,6491^^^^,9974,1.2.840.113681.3232311819.1408430295.1924.5246,2014-07-15,MAM,SCREENING,WITH,TOMO,L,CC,L,cc,2016-07-15,47268,,,,
538,6491^^^^,9974,1.2.840.113681.3232311819.1408430295.1924.5270,2014-07-15,MAM,SCREENING,WITH,TOMO,L,MLO,L,mlo,2016-07-15,47268,,,,
539,6039^^^^,9274,1.2.840.113681.3232311819.1377844489.4384.2204,2013-09-15,MAM,SCREENING,R,CC,R,cc,2014-09-18,31450,,,,,,
540,6039^^^^,9274,1.2.840.113681.3232311819.1377844489.4384.2226,2013-09-15,MAM,SCREENING,R,MLO,R,mlo,2014-09-18,31450,,,,,,
541,6057^^^^,9298,1.2.840.113681.3232311819.1360824566.4928.328,2013-02-05,Mam,Screening,Digital,R,CC,R,cc,2017-06-18,60725,,,,,
542,6057^^^^,9298,1.2.840.113681.3232311819.1360824566.4928.333,2013-02-05,Mam,Screening,Digital,R,MLO,R,mlo,2017-06-18,60725,,,,,
543,6057^^^^,48436,1.2.840.113681.3232311819.1464936323.5092.6407,2016-05-25,MAM,SCREENING,WITH,TOMO,R,CC,R,cc,2017-06-18,60725,,,,
544,6057^^^^,48436,1.2.840.113681.3232311819.1464936323.5092.6431,2016-05-25,MAM,SCREENING,WITH,TOMO,R,MLO,R,mlo,2017-06-18,60725,,,,
545,6057^^^^,25323,1.2.840.113681.3232293899.1432620103.5388.7052,2015-05-17,MAM,SCREENING,WITH,TOMO,R,CC,R,cc,2017-06-18,60725,,,,
546,6057^^^^,25323,1.2.840.113681.3232293899.1432620103.5388.7076,2015-05-17,MAM,SCREENING,WITH,TOMO,R,MLO,R,mlo,2017-06-18,60725,,,,
547,6057^^^^,22860,1.2.840.113681.3232293899.1395298157.5360.571,2014-03-11,MAM,Screening,R,CC,R,cc,2017-06-18,60725,,,,,,
548,6057^^^^,22860,1.2.840.113681.3232293899.1395298157.5360.583,2014-03-11,MAM,Screening,R,MLO,R,mlo,2017-06-18,60725,,,,,,
549,6306^^^^,22603,1.2.840.113681.3232293899.1427956444.5444.194,2015-04-29,MAM,SCREENING,WITH,TOMO,L,CC,L,cc,2016-05-16,45160,,,,
550,6306^^^^,22603,1.2.840.113681.3232293899.1427956444.5444.218,2015-04-29,MAM,SCREENING,WITH,TOMO,L,MLO,L,mlo,2016-05-16,45160,,,,
551,6306^^^^,22601,1.2.840.113681.3232293899.1396420044.5432.484,2014-04-29,MAM,SCREENING,WITH,TOMO,L,CC,L,cc,2016-05-16,45160,,,,
552,6306^^^^,22601,1.2.840.113681.3232293899.1396420044.5432.508,2014-04-29,MAM,SCREENING,WITH,TOMO,L,MLO,L,mlo,2016-05-16,45160,,,,
553,6306^^^^,9667,1.2.840.113681.3232311819.1363334051.4592.792,2013-04-11,Mam,Screening,w/Tomo,L,CC,L,cc,2016-05-16,45160,,,,,
554,6306^^^^,9667,1.2.840.113681.3232311819.1363334051.4592.803,2013-04-11,Mam,Screening,w/Tomo,L,MLO,L,mlo,2016-05-16,45160,,,,,
555,5876^^^^,9038,1.2.840.113619.2.66.2218493508.1592130411083405.23,2013-02-28,Mam,Screen/Wait,Digital,Mam,Screen/Wait,Digital,L,cc,2014-02-28,23505,,,,
556,5876^^^^,9038,1.2.840.113619.2.66.2218493508.1592130411083515.31,2013-02-28,Mam,Screen/Wait,Digital,Mam,Screen/Wait,Digital,L,mlo,2014-02-28,23505,,,,
557,6227^^^^,9541,1.2.840.113681.3232311819.1362723993.244.6206,2013-01-21,Mam,Screening,w/Tomo,R,CC,R,cc,2015-02-26,29204,,,,,
558,6227^^^^,9541,1.2.840.113681.3232311819.1362723993.244.6239,2013-01-21,Mam,Screening,w/Tomo,R,MLO,R,mlo,2015-02-26,29204,,,,,
559,6227^^^^,15036,1.2.840.113681.3232293899.1396960961.5352.343,2014-02-21,MAM,SCREENING,WITH,TOMO,R,CC,R,cc,2015-02-26,29204,,,,
560,6227^^^^,15036,1.2.840.113681.3232293899.1396960961.5352.367,2014-02-21,MAM,SCREENING,WITH,TOMO,R,MLO,R,mlo,2015-02-26,29204,,,,
561,5756^^^^,8848,1.2.840.113681.3232311819.1367477187.244.4594,2013-04-06,Mam,Screen/Wait,Digital,L,CC,L,cc,2014-10-04,34401,,,,,
562,5756^^^^,8848,1.2.840.113681.3232311819.1367477187.244.4599,2013-04-06,Mam,Screen/Wait,Digital,L,MLO,L,mlo,2014-10-04,34401,,,,,
563,5744^^^^,35254,1.2.840.113681.3232311819.1421822451.2192.810,2015-01-02,MAM,SCREENING,WITH,TOMO,R,CC,R,cc,2016-01-08,51346,,,,
564,5744^^^^,35254,1.2.840.113681.3232311819.1421822451.2192.834,2015-01-02,MAM,SCREENING,WITH,TOMO,R,MLO,R,mlo,2016-01-08,51346,,,,
565,5744^^^^,8830,1.2.840.113681.3232311819.1382336425.4640.10712,2013-10-02,MAM,SCREENING,WITH,TOMO,R,CC,R,cc,2016-01-08,51346,,,,
566,5744^^^^,8830,1.2.840.113681.3232311819.1382336425.4640.10734,2013-10-02,MAM,SCREENING,WITH,TOMO,R,MLO,R,mlo,2016-01-08,51346,,,,
567,6731^^^^,42922,1.2.840.113681.3232293899.1466750488.5428.1729,2016-05-03,MAM,SCREEN,AND,WAIT,R,CC,R,cc,2017-09-01,42923,,,,
568,6731^^^^,42922,1.2.840.113681.3232293899.1466750488.5428.1741,2016-05-03,MAM,SCREEN,AND,WAIT,R,MLO,R,mlo,2017-09-01,42923,,,,
569,6731^^^^,24135,1.2.840.113681.3232293899.1399444044.5452.475,2014-03-16,MAM,SCREENING,R,CC,R,cc,2017-09-01,42923,,,,,,
570,6731^^^^,24135,1.2.840.113681.3232293899.1399444044.5452.487,2014-03-16,MAM,SCREENING,R,MLO,R,mlo,2017-09-01,42923,,,,,,
571,6731^^^^,42921,1.2.840.113681.3232311819.1432708166.4912.6300,2015-04-05,MAM,SCREEN,AND,WAIT,R,CC,R,cc,2017-09-01,42923,,,,
572,6731^^^^,42921,1.2.840.113681.3232311819.1432708166.4912.6312,2015-04-05,MAM,SCREEN,AND,WAIT,R,MLO,R,mlo,2017-09-01,42923,,,,
573,6731^^^^,10416,1.2.840.113619.2.66.2218493508.1346130502135451.151,2013-03-11,Mam,Screen/Wait,Digital,Mam,Screen/Wait,Digital,R,cc,2017-09-01,42923,,,,
574,6731^^^^,10416,1.2.840.113619.2.66.2218493508.1346130502135611.159,2013-03-11,Mam,Screen/Wait,Digital,Mam,Screen/Wait,Digital,R,mlo,2017-09-01,42923,,,,
575,6577^^^^,10124,1.2.840.113681.3232293899.1403591055.5336.5391,2014-08-07,MAM,SCREENING,WITH,TOMO,L,CC,L,cc,2017-11-24,67997,,,,
576,6577^^^^,10124,1.2.840.113681.3232293899.1403591055.5336.5415,2014-08-07,MAM,SCREENING,WITH,TOMO,L,MLO,L,mlo,2017-11-24,67997,,,,
577,6295^^^^,24580,1.2.840.113681.3232293899.1398752726.5336.8093,2014-05-19,MAM,SCREENING,WITH,TOMO,R,CC,R,cc,2017-05-17,65996,,,,
578,6295^^^^,24580,1.2.840.113681.3232293899.1398752726.5336.8117,2014-05-19,MAM,SCREENING,WITH,TOMO,R,MLO,R,mlo,2017-05-17,65996,,,,
579,6295^^^^,54448,1.2.840.113681.3232311819.1461652908.4668.5576,2016-05-16,MAM,SCREENING,WITH,TOMO,R,CC,R,cc,2017-05-17,65996,,,,
580,6295^^^^,54448,1.2.840.113681.3232311819.1461652908.4668.5600,2016-05-16,MAM,SCREENING,WITH,TOMO,R,MLO,R,mlo,2017-05-17,65996,,,,
581,6597^^^^,40108,1.2.840.113681.3232311819.1426837911.3376.3809,2015-04-16,MAM,SCREEN,AND,WAIT,WITH,TOMO,R,CC,R,cc,2016-06-19,40109.0,,
582,6597^^^^,40108,1.2.840.113681.3232311819.1426837911.3376.3833,2015-04-16,MAM,SCREEN,AND,WAIT,WITH,TOMO,R,MLO,R,mlo,2016-06-19,40109.0,,
583,6597^^^^,10166,1.2.840.113681.3232311819.1364192930.5020.788,2013-04-21,Mam,Screening,Digital,R,CC,R,cc,2016-06-19,40109,,,,,
584,6597^^^^,10166,1.2.840.113681.3232311819.1364192930.5020.821,2013-04-21,Mam,Screening,Digital,R,MLO,R,mlo,2016-06-19,40109,,,,,
585,5699^^^^,8765,1.2.840.113619.2.66.2218493508.1597130606110104.143,2013-07-16,Mam,Screen/Wait,Digital,Mam,Screen/Wait,Digital,R,cc,2014-08-18,28380,,,,
586,5699^^^^,8765,1.2.840.113619.2.66.2218493508.1597130606110311.155,2013-07-16,Mam,Screen/Wait,Digital,Mam,Screen/Wait,Digital,R,mlo,2014-08-18,28380,,,,
587,5963^^^^,9159,1.2.840.113681.3232311819.1361863645.4796.4942,2013-01-25,Mam,Screening,Digital,R,CC,R,cc,2014-03-13,23514,,,,,
588,5963^^^^,9159,1.2.840.113681.3232311819.1361863645.4796.4975,2013-01-25,Mam,Screening,Digital,R,MLO,R,mlo,2014-03-13,23514,,,,,
589,7849^^^^,38686,1.2.826.0.1.3680043.2.103.20150213.115841.380.038,2015-01-08,MAM,SCREENING,WITH,TOMO,L,CC,L,cc,2016-02-24,38687,,,,
590,7849^^^^,38686,1.2.826.0.1.3680043.2.103.20150213.115921.629.063,2015-01-08,MAM,SCREENING,WITH,TOMO,L,MLO,L,mlo,2016-02-24,38687,,,,
591,7849^^^^,21731,1.2.840.113619.2.66.2218493508.5277140206100752.131,2014-01-02,MAM,SCREENING,MAM,SCREENING,L,cc,2016-02-24,38687,,,,,,
592,7849^^^^,21731,1.2.840.113619.2.66.2218493508.5277140206100922.139,2014-01-02,MAM,SCREENING,MAM,SCREENING,L,mlo,2016-02-24,38687,,,,,,
593,7879^^^^,49045,1.2.840.113681.3232293899.1479709429.3784.404504,2016-10-01,MAM,SCREEN,AND,WAIT,L,CC,L,cc,2017-10-02,69117,,,,
594,7879^^^^,49045,1.2.840.113681.3232293899.1479709429.3784.404516,2016-10-01,MAM,SCREEN,AND,WAIT,L,MLO,L,mlo,2017-10-02,69117,,,,
595,7879^^^^,49043,1.2.840.113681.3232311819.1447395998.5044.5903,2015-09-23,MAM,SCREENING,WITH,TOMO,L,CC,L,cc,2017-10-02,69117,,,,
596,7879^^^^,49043,1.2.840.113681.3232311819.1447395998.5044.5927,2015-09-23,MAM,SCREENING,WITH,TOMO,L,MLO,L,mlo,2017-10-02,69117,,,,
597,7879^^^^,12409,1.2.840.113681.3232311819.1414477588.5064.11483,2014-09-07,MAM,SCREENING,WITH,TOMO,L,CC,L,cc,2017-10-02,69117,,,,
598,7879^^^^,12409,1.2.840.113681.3232311819.1414477588.5064.11507,2014-09-07,MAM,SCREENING,WITH,TOMO,L,MLO,L,mlo,2017-10-02,69117,,,,
599,7879^^^^,12408,1.2.840.113681.3232311819.1382683562.4636.1190,2013-09-04,MAM,SCREENING,WITH,TOMO,L,CC,L,cc,2017-10-02,69117,,,,
600,7879^^^^,12408,1.2.840.113681.3232311819.1382683562.4636.1212,2013-09-04,MAM,SCREENING,WITH,TOMO,L,MLO,L,mlo,2017-10-02,69117,,,,
601,6751^^^^,51933,1.2.840.113681.3232293899.1463466049.5456.10430,2016-05-06,MAM,SCREENING,WITH,TOMO,R,CC,R,cc,2017-05-26,67673,,,,
602,6751^^^^,51933,1.2.840.113681.3232293899.1463466049.5456.10454,2016-05-06,MAM,SCREENING,WITH,TOMO,R,MLO,R,mlo,2017-05-26,67673,,,,
603,6751^^^^,51933,1.2.840.113681.3232293899.1463466049.5456.10534,2016-05-06,MAM,SCREENING,WITH,TOMO,R,MLO,R,mlo,2017-05-26,67673,,,,
604,6751^^^^,37638,1.2.840.113681.3232293899.1428906318.5440.5286,2015-04-02,MAM,SCREENING,WITH,TOMO,R,CC,R,cc,2017-05-26,67673,,,,
605,6751^^^^,37638,1.2.840.113681.3232293899.1428906318.5440.5310,2015-04-02,MAM,SCREENING,WITH,TOMO,R,MLO,R,mlo,2017-05-26,67673,,,,
606,6751^^^^,22432,1.2.840.113681.3232293899.1396939557.5408.848,2014-03-28,MAM,SCREEN,AND,WAIT,R,CC,R,cc,2017-05-26,67673,,,,
607,6751^^^^,22432,1.2.840.113681.3232293899.1396939557.5408.911,2014-03-28,MAM,SCREEN,AND,WAIT,R,MLO,R,mlo,2017-05-26,67673,,,,
608,6751^^^^,10450,1.2.840.113681.3232311819.1361946713.4792.4570,2013-02-16,Mam,Screening,Digital,R,CC,R,cc,2017-05-26,67673,,,,,
609,6751^^^^,10450,1.2.840.113681.3232311819.1361946713.4792.4575,2013-02-16,Mam,Screening,Digital,R,MLO,R,mlo,2017-05-26,67673,,,,,
610,6751^^^^,10450,1.2.840.113681.3232311819.1361946713.4792.4612,2013-02-16,Mam,Screening,Digital,R,MLO,R,mlo,2017-05-26,67673,,,,,
611,7741^^^^,48244,1.2.840.113681.3232311819.1460529277.5008.263,2016-04-26,MAM,SCREENING,WITH,TOMO,R,CC,R,cc,2017-04-27,63752,,,,
612,7741^^^^,48244,1.2.840.113681.3232311819.1460529277.5008.287,2016-04-26,MAM,SCREENING,WITH,TOMO,R,MLO,R,mlo,2017-04-27,63752,,,,
613,7741^^^^,27165,1.2.840.113681.3232293899.1428906318.5440.1415,2015-04-26,MAM,SCREENING,WITH,TOMO,R,CC,R,cc,2017-04-27,63752,,,,
614,7741^^^^,27165,1.2.840.113681.3232293899.1428906318.5440.1439,2015-04-26,MAM,SCREENING,WITH,TOMO,R,MLO,R,mlo,2017-04-27,63752,,,,
615,7741^^^^,21215,1.2.840.113681.3232293899.1397197998.5380.235,2014-04-24,MAM,Screening,with,Tomo,R,CC,R,cc,2017-04-27,63752,,,,
616,7741^^^^,21215,1.2.840.113681.3232293899.1397197998.5380.259,2014-04-24,MAM,Screening,with,Tomo,R,MLO,R,mlo,2017-04-27,63752,,,,
617,7741^^^^,12151,1.2.840.113681.3232311819.1365576066.2416.8687,2013-04-23,Mam,Screening,w/Tomo,R,CC,R,cc,2017-04-27,63752,,,,,
618,7741^^^^,12151,1.2.840.113681.3232311819.1365576066.2416.8720,2013-04-23,Mam,Screening,w/Tomo,R,MLO,R,mlo,2017-04-27,63752,,,,,
619,7818^^^^,23772,1.2.840.113681.3232311819.1410244575.448.26081,2014-09-05,MAM,SCREENING,WITH,TOMO,L,CC,L,cc,2016-09-12,41539,,,,
620,7818^^^^,23772,1.2.840.113681.3232311819.1410244575.448.26105,2014-09-05,MAM,SCREENING,WITH,TOMO,L,MLO,L,mlo,2016-09-12,41539,,,,
621,7818^^^^,12287,1.2.840.113619.2.66.2218493508.2370130830132154.219,2013-08-26,MAM,SCREEN,AND,WAIT,MAM,SCREEN,AND,WAIT,L,cc,2016-09-12,41539.0,,
622,7818^^^^,12287,1.2.840.113619.2.66.2218493508.2370130830132347.223,2013-08-26,MAM,SCREEN,AND,WAIT,MAM,SCREEN,AND,WAIT,L,mlo,2016-09-12,41539.0,,
623,7803^^^^,12263,1.2.840.113619.2.66.2218493508.1524130419083553.275,2013-03-25,Mam,Screening,Digital,Mam,Screening,Digital,R,cc,2014-04-06,24090,,,,
624,7803^^^^,12263,1.2.840.113619.2.66.2218493508.1524130419083845.287,2013-03-25,Mam,Screening,Digital,Mam,Screening,Digital,R,mlo,2014-04-06,24090,,,,
625,7663^^^^,32557,1.2.840.113681.3232311819.1416897271.4896.3348,2014-11-29,MAM,SCREENING,WITH,TOMO,R,CC,R,cc,2017-02-07,62348,,,,
626,7663^^^^,32557,1.2.840.113681.3232311819.1416897271.4896.3372,2014-11-29,MAM,SCREENING,WITH,TOMO,R,MLO,R,mlo,2017-02-07,62348,,,,
627,7663^^^^,32557,1.2.840.113681.3232311819.1416897271.4896.3402,2014-11-29,MAM,SCREENING,WITH,TOMO,R,XCCL,R,xccl,2017-02-07,62348,,,,
628,7751^^^^,12167,1.2.840.113681.3232311819.1385361013.4320.3234,2013-10-13,MAM,SCREENING,WITH,TOMO,R,CC,R,cc,2014-11-20,36932,,,,
629,7751^^^^,12167,1.2.840.113681.3232311819.1385361013.4320.3256,2013-10-13,MAM,SCREENING,WITH,TOMO,R,MLO,R,mlo,2014-11-20,36932,,,,
630,8973^^^^,14395,1.2.840.113619.2.66.2218493508.2809130611163441.435,2013-04-30,Mam,Screening,Digital,Mam,Screening,Digital,R,cc,2014-10-21,35754,,,,
631,8973^^^^,14395,1.2.840.113619.2.66.2218493508.2809130611163604.443,2013-04-30,Mam,Screening,Digital,Mam,Screening,Digital,R,mlo,2014-10-21,35754,,,,
632,8605^^^^,50175,1.2.840.113681.3232293899.1457591137.5444.1728,2016-02-17,MAM,SCREENING,WITH,TOMO,R,CC,R,cc,2017-02-22,57348,,,,
633,8605^^^^,50175,1.2.840.113681.3232293899.1457591137.5444.1752,2016-02-17,MAM,SCREENING,WITH,TOMO,R,MLO,R,mlo,2017-02-22,57348,,,,
634,8605^^^^,28222,1.2.840.113681.3232311819.1422426487.5032.336,2015-01-06,MAM,SCREENING,WITH,TOMO,R,CC,R,cc,2017-02-22,57348,,,,
635,8605^^^^,28222,1.2.840.113681.3232311819.1422426487.5032.360,2015-01-06,MAM,SCREENING,WITH,TOMO,R,MLO,R,mlo,2017-02-22,57348,,,,
636,8605^^^^,13746,1.2.840.113681.3232311819.1369031361.4600.1349,2013-04-28,Mam,Screening,w/Tomo,R,CC,R,cc,2017-02-22,57348,,,,,
637,8605^^^^,13746,1.2.840.113681.3232311819.1369031361.4600.1382,2013-04-28,Mam,Screening,w/Tomo,R,MLO,R,mlo,2017-02-22,57348,,,,,
638,8024^^^^,44520,1.2.840.113681.3232293899.1438085263.8112.437,2015-06-09,MAM,SCREENING,WITH,TOMO,L,CC,L,cc,2016-07-01,58109,,,,
639,8024^^^^,44520,1.2.840.113681.3232293899.1438085263.8112.461,2015-06-09,MAM,SCREENING,WITH,TOMO,L,MLO,L,mlo,2016-07-01,58109,,,,
640,8024^^^^,26796,1.2.840.113681.3232293899.1406269826.5464.3880,2014-06-06,MAM,SCREENING,WITH,TOMO,L,CC,L,cc,2016-07-01,58109,,,,
641,8024^^^^,26796,1.2.840.113681.3232293899.1406269826.5464.3904,2014-06-06,MAM,SCREENING,WITH,TOMO,L,MLO,L,mlo,2016-07-01,58109,,,,
642,8024^^^^,12671,1.2.840.113619.2.66.2218493508.5525130725132619.207,2013-06-06,MAM,SCREENING,MAM,SCREENING,L,cc,2016-07-01,58109,,,,,,
643,8024^^^^,12671,1.2.840.113619.2.66.2218493508.5525130725132748.215,2013-06-06,MAM,SCREENING,MAM,SCREENING,L,mlo,2016-07-01,58109,,,,,,
644,8024^^^^,12671,1.2.840.113619.2.66.2218493508.5525130725132831.219,2013-06-06,MAM,SCREENING,MAM,SCREENING,L,xccl,2016-07-01,58109,,,,,,
645,8729^^^^,40864,1.2.840.113681.3232311819.1449124316.4956.4656,2015-12-12,MAM,SCREENING,WITH,TOMO,R,CC,R,cc,2017-02-12,51605,,,,
646,8729^^^^,40864,1.2.840.113681.3232311819.1449124316.4956.4680,2015-12-12,MAM,SCREENING,WITH,TOMO,R,MLO,R,mlo,2017-02-12,51605,,,,
647,8729^^^^,26660,1.2.840.113681.3232293899.1411366841.5508.1686,2014-10-01,MAM,SCREENING,WITH,TOMO,R,CC,R,cc,2017-02-12,51605,,,,
648,8729^^^^,26660,1.2.840.113681.3232293899.1411366841.5508.1710,2014-10-01,MAM,SCREENING,WITH,TOMO,R,MLO,R,mlo,2017-02-12,51605,,,,
649,8729^^^^,13972,1.2.840.113681.3232311819.1369895458.5076.3376,2013-06-08,Mam,Screening,w/Tomo,R,CC,R,cc,2017-02-12,51605,,,,,
650,8729^^^^,13972,1.2.840.113681.3232311819.1369895458.5076.3409,2013-06-08,Mam,Screening,w/Tomo,R,MLO,R,mlo,2017-02-12,51605,,,,,
651,8729^^^^,13972,1.2.840.113681.3232311819.1369895458.5076.3425,2013-06-08,Mam,Screening,w/Tomo,R,MLO,R,mlo,2017-02-12,51605,,,,,
652,8988^^^^,51790,1.2.840.113681.3232293899.1455171880.5580.337,2016-04-05,MAM,SCREENING,L,CC,L,cc,2017-04-08,59481,,,,,,
653,8988^^^^,51790,1.2.840.113681.3232293899.1455171880.5580.349,2016-04-05,MAM,SCREENING,L,MLO,L,mlo,2017-04-08,59481,,,,,,
654,8988^^^^,35522,1.2.840.113681.3232311819.1421131038.1896.759,2015-03-08,MAM,SCREENING,L,CC,L,cc,2017-04-08,59481,,,,,,
655,8988^^^^,35522,1.2.840.113681.3232311819.1421131038.1896.771,2015-03-08,MAM,SCREENING,L,MLO,L,mlo,2017-04-08,59481,,,,,,
656,8988^^^^,35522,1.2.840.113681.3232311819.1421131038.1896.821,2015-03-08,MAM,SCREENING,L,ML,L,ml,2017-04-08,59481,,,,,,
657,8988^^^^,14423,1.2.840.113619.2.66.2218493508.3041131121144025.355,2014-01-14,MAM,SCREENING,MAM,SCREENING,L,cc,2017-04-08,59481,,,,,,
658,8988^^^^,14423,1.2.840.113619.2.66.2218493508.3041131121144112.359,2014-01-14,MAM,SCREENING,MAM,SCREENING,L,mlo,2017-04-08,59481,,,,,,
659,8765^^^^,52371,1.2.840.113681.3232293899.1468391139.5320.4028,2016-07-23,MAM,SCREENING,R,CC,R,cc,2017-07-28,68760,,,,,,
660,8765^^^^,52371,1.2.840.113681.3232293899.1468391139.5320.4040,2016-07-23,MAM,SCREENING,R,MLO,R,mlo,2017-07-28,68760,,,,,,
661,8765^^^^,43575,1.2.840.113681.3232293899.1434003897.5436.4257,2015-06-21,MAM,SCREEN,AND,WAIT,R,CC,R,cc,2017-07-28,68760,,,,
662,8765^^^^,43575,1.2.840.113681.3232293899.1434003897.5436.4269,2015-06-21,MAM,SCREEN,AND,WAIT,R,MLO,R,mlo,2017-07-28,68760,,,,
663,8765^^^^,26160,1.2.840.113681.3232311819.1401950589.5036.19876,2014-06-19,MAM,SCREENING,WITH,TOMO,R,CC,R,cc,2017-07-28,68760,,,,
664,8765^^^^,26160,1.2.840.113681.3232311819.1401950589.5036.19900,2014-06-19,MAM,SCREENING,WITH,TOMO,R,MLO,R,mlo,2017-07-28,68760,,,,
665,8765^^^^,52371,1.2.840.113681.3232293899.1468391139.5320.4034,2016-07-23,MAM,SCREENING,L,CC,L,cc,2017-07-28,68760,,,,,,
666,8765^^^^,52371,1.2.840.113681.3232293899.1468391139.5320.4046,2016-07-23,MAM,SCREENING,L,MLO,L,mlo,2017-07-28,68760,,,,,,
667,8765^^^^,43575,1.2.840.113681.3232293899.1434003897.5436.4263,2015-06-21,MAM,SCREEN,AND,WAIT,L,CC,L,cc,2017-07-28,68760,,,,
668,8765^^^^,43575,1.2.840.113681.3232293899.1434003897.5436.4275,2015-06-21,MAM,SCREEN,AND,WAIT,L,MLO,L,mlo,2017-07-28,68760,,,,
669,8765^^^^,26160,1.2.840.113681.3232311819.1401950589.5036.19888,2014-06-19,MAM,SCREENING,WITH,TOMO,L,CC,L,cc,2017-07-28,68760,,,,
670,8765^^^^,26160,1.2.840.113681.3232311819.1401950589.5036.19912,2014-06-19,MAM,SCREENING,WITH,TOMO,L,MLO,L,mlo,2017-07-28,68760,,,,
671,8801^^^^,14102,1.2.840.113681.3232311819.1373005922.3628.151,2013-08-18,Mam,Screening,w/Tomo,R,CC,R,cc,2017-06-04,65775,,,,,
672,8801^^^^,14102,1.2.840.113681.3232311819.1373005922.3628.184,2013-08-18,Mam,Screening,w/Tomo,R,MLO,R,mlo,2017-06-04,65775,,,,,
673,8998^^^^,40696,1.2.840.113681.3232311819.1445322578.5004.3605,2015-09-03,MAM,SCREENING,WITH,TOMO,L,CC,L,cc,2016-10-28,54516,,,,
674,8998^^^^,40696,1.2.840.113681.3232311819.1445322578.5004.3629,2015-09-03,MAM,SCREENING,WITH,TOMO,L,MLO,L,mlo,2016-10-28,54516,,,,
675,8998^^^^,40696,1.2.840.113681.3232311819.1445322578.5004.3697,2015-09-03,MAM,SCREENING,WITH,TOMO,L,MLO,L,mlo,2016-10-28,54516,,,,
676,8998^^^^,32266,1.2.840.113681.3232311819.1413527641.5104.5798,2014-08-31,MAM,SCREENING,WITH,TOMO,L,CC,L,cc,2016-10-28,54516,,,,
677,8998^^^^,32266,1.2.840.113681.3232311819.1413527641.5104.5822,2014-08-31,MAM,SCREENING,WITH,TOMO,L,MLO,L,mlo,2016-10-28,54516,,,,
678,8998^^^^,14436,1.2.840.113681.3232311819.1372055164.3616.29635,2013-05-09,Mam,Screening,w/Tomo,L,CC,L,cc,2016-10-28,54516,,,,,
679,8998^^^^,14436,1.2.840.113681.3232311819.1372055164.3616.29646,2013-05-09,Mam,Screening,w/Tomo,L,MLO,L,mlo,2016-10-28,54516,,,,,
680,9021^^^^,14474,1.2.840.113681.3232311819.1371450601.216.840,2013-08-08,Mam,Screening,Digital,L,CC,L,cc,2017-04-07,61129,,,,,
681,9021^^^^,14474,1.2.840.113681.3232311819.1371450601.216.845,2013-08-08,Mam,Screening,Digital,L,MLO,L,mlo,2017-04-07,61129,,,,,
682,9021^^^^,14474,1.2.840.113681.3232311819.1371450601.216.887,2013-08-08,Mam,Screening,Digital,L,MLO,L,mlo,2017-04-07,61129,,,,,
683,8012^^^^,32073,1.2.840.113681.3232311819.1421131038.1896.10478,2015-03-08,MAM,SCREENING,WITH,TOMO,R,CC,R,cc,2016-05-14,41714,,,,
684,8012^^^^,32073,1.2.840.113681.3232311819.1421131038.1896.10502,2015-03-08,MAM,SCREENING,WITH,TOMO,R,MLO,R,mlo,2016-05-14,41714,,,,
685,8012^^^^,32073,1.2.840.113681.3232311819.1421131038.1896.10539,2015-03-08,MAM,SCREENING,WITH,TOMO,R,MLO,R,mlo,2016-05-14,41714,,,,
686,8012^^^^,12652,1.2.840.113619.2.66.2218493508.1561131216085354.55,2014-02-08,MAM,SCREEN,AND,WAIT,MAM,SCREEN,AND,WAIT,R,cc,2016-05-14,41714.0,,
687,8012^^^^,12652,1.2.840.113619.2.66.2218493508.1561131216085720.67,2014-02-08,MAM,SCREEN,AND,WAIT,MAM,SCREEN,AND,WAIT,R,mlo,2016-05-14,41714.0,,
688,8824^^^^,14140,1.2.840.113681.3232293899.1401344323.5364.497,2014-07-19,MAM,SCREENING,WITH,TOMO,R,CC,R,cc,2015-07-19,34579,,,,
689,8824^^^^,14140,1.2.840.113681.3232293899.1401344323.5364.521,2014-07-19,MAM,SCREENING,WITH,TOMO,R,MLO,R,mlo,2015-07-19,34579,,,,
690,8824^^^^,14138,1.2.840.113681.3232311819.1369895458.5076.6976,2013-07-20,Mam,Screening,w/Tomo,R,CC,R,cc,2015-07-19,34579,,,,,
691,8824^^^^,14138,1.2.840.113681.3232311819.1369895458.5076.7009,2013-07-20,Mam,Screening,w/Tomo,R,MLO,R,mlo,2015-07-19,34579,,,,,
692,8835^^^^,33876,1.2.840.113681.3232311819.1418624333.1924.12435,2014-12-06,MAM,SCREENING,WITH,TOMO,R,CC,R,cc,2016-01-18,44856,,,,
693,8835^^^^,33876,1.2.840.113681.3232311819.1418624333.1924.12459,2014-12-06,MAM,SCREENING,WITH,TOMO,R,MLO,R,mlo,2016-01-18,44856,,,,
694,8835^^^^,14152,1.2.840.113681.3232311819.1386666939.4924.349,2013-12-01,MAM,SCREEN,AND,WAIT,R,CC,R,cc,2016-01-18,44856,,,,
695,8835^^^^,14152,1.2.840.113681.3232311819.1386666939.4924.359,2013-12-01,MAM,SCREEN,AND,WAIT,R,MLO,R,mlo,2016-01-18,44856,,,,
696,8643^^^^,13814,1.2.840.113681.3232311819.1372315364.4532.4467,2013-06-02,Mam,Screening,Digital,L,CC,L,cc,2014-06-02,26711,,,,,
697,8643^^^^,13814,1.2.840.113681.3232311819.1372315364.4532.4472,2013-06-02,Mam,Screening,Digital,L,MLO,L,mlo,2014-06-02,26711,,,,,
698,9063^^^^,26329,1.2.840.113681.3232311819.1408085222.4972.2213,2014-09-08,MAM,SCREENING,WITH,TOMO,L,CC,L,cc,2015-09-11,44257,,,,
699,9063^^^^,26329,1.2.840.113681.3232311819.1408085222.4972.2237,2014-09-08,MAM,SCREENING,WITH,TOMO,L,MLO,L,mlo,2015-09-11,44257,,,,
700,9063^^^^,14542,1.2.840.113681.3232311819.1376547744.4788.408,2013-09-08,MAM,SCREENING,WITH,TOMO,L,CC,L,cc,2015-09-11,44257,,,,
701,9063^^^^,14542,1.2.840.113681.3232311819.1376547744.4788.430,2013-09-08,MAM,SCREENING,WITH,TOMO,L,MLO,L,mlo,2015-09-11,44257,,,,
702,9063^^^^,14542,1.2.840.113681.3232311819.1376547744.4788.456,2013-09-08,MAM,SCREENING,WITH,TOMO,L,XCCL,L,xccl,2015-09-11,44257,,,,
703,8690^^^^,13891,1.2.840.113681.3232311819.1369291185.4856.2665,2013-06-29,Mam,Screening,Digital,R,CC,R,cc,2014-07-24,26431,,,,,
704,8690^^^^,13891,1.2.840.113681.3232311819.1369291185.4856.2670,2013-06-29,Mam,Screening,Digital,R,MLO,R,mlo,2014-07-24,26431,,,,,
705,8733^^^^,13976,1.2.840.113619.2.66.2218493508.1545130523115022.179,2013-05-10,Mam,Screen/Wait,Digital,Mam,Screen/Wait,Digital,R,cc,2014-05-14,19652,,,,
706,8733^^^^,13976,1.2.840.113619.2.66.2218493508.1545130523115325.191,2013-05-10,Mam,Screen/Wait,Digital,Mam,Screen/Wait,Digital,R,mlo,2014-05-14,19652,,,,
707,21201^^^^,57573,1.2.840.113681.3232293899.1468909353.5328.5158,2016-07-22,mam,screening,with,tomo,L,CC,L,cc,2017-07-23,63969,,,,
708,21201^^^^,57573,1.2.840.113681.3232293899.1468909353.5328.5182,2016-07-22,mam,screening,with,tomo,L,MLO,L,mlo,2017-07-23,63969,,,,
709,21201^^^^,57573,1.2.840.113681.3232293899.1468909353.5328.5268,2016-07-22,mam,screening,with,tomo,L,XCCL,L,xccl,2017-07-23,63969,,,,
710,21297^^^^,58002,1.2.840.113681.3232311819.1470033336.4724.6458,2016-07-12,mam,screening,with,tomo,R,CC,R,cc,2017-07-13,58003,,,,
711,21297^^^^,58002,1.2.840.113681.3232311819.1470033336.4724.6482,2016-07-12,mam,screening,with,tomo,R,MLO,R,mlo,2017-07-13,58003,,,,
712,21657^^^^,59665,1.2.840.113681.3232311819.1475736081.3536.1529596,2016-09-21,mam,screening,with,tomo,R,CC,R,cc,2017-11-07,71524,,,,
713,21657^^^^,59665,1.2.840.113681.3232311819.1475736081.3536.1529620,2016-09-21,mam,screening,with,tomo,R,MLO,R,mlo,2017-11-07,71524,,,,
714,20866^^^^,56062,1.2.840.113681.3232311819.1466577386.4920.1435,2016-07-21,mam,screening,with,tomo,R,CC,R,cc,2017-09-06,69193,,,,
715,20866^^^^,56062,1.2.840.113681.3232311819.1466577386.4920.1459,2016-07-21,mam,screening,with,tomo,R,MLO,R,mlo,2017-09-06,69193,,,,
