patient_name,accession_number,sop_instance_uid,study_date,study_description,series_description,image_laterality,view_position,sopuid,is_tomo,frame_number,is_mass,xmin,xmax,ymin,ymax,min_gt_study_date,min_gt_accession_number
1027^^^^,1447,1.2.840.113681.3232311819.1404974405.5040.636,2014-05-26,MAM SCREENING WITH TOMO,L MLO,L,MLO,,,,,,,,,2017-05-29,1451
1027^^^^,1447,1.2.840.113681.3232311819.1404974405.5040.681,2014-05-26,MAM SCREENING WITH TOMO,L CC,L,CC,,,,,,,,,2017-05-29,1451
1027^^^^,1447,1.2.840.113681.3232311819.1404974405.5040.705,2014-05-26,MAM SCREENING WITH TOMO,L MLO,L,MLO,,,,,,,,,2017-05-29,1451
1027^^^^,1449,1.2.840.113681.3232293899.1436509615.5380.442,2015-05-20,MAM SCREENING WITH TOMO,L CC,L,CC,,,,,,,,,2017-05-29,1451
1027^^^^,1449,1.2.840.113681.3232293899.1436509615.5380.466,2015-05-20,MAM SCREENING WITH TOMO,L MLO,L,MLO,,,,,,,,,2017-05-29,1451
1027^^^^,1449,1.2.840.113681.3232293899.1436509615.5380.534,2015-05-20,MAM SCREENING WITH TOMO,L MLO,L,MLO,,,,,,,,,2017-05-29,1451
1027^^^^,1450,1.2.840.113681.3232311819.1468823565.4672.2479,2016-05-28,MAM SCREENING WITH TOMO,L CC,L,CC,,,,,,,,,2017-05-29,1451
1027^^^^,1450,1.2.840.113681.3232311819.1468823565.4672.2503,2016-05-28,MAM SCREENING WITH TOMO,L MLO,L,MLO,,,,,,,,,2017-05-29,1451
1027^^^^,1446,1.2.840.113619.2.66.2218493508.9594130625104857.59,2013-05-05,Mam Screen/Wait Digital,Mam Screen/Wait Digital,L,CC,,,,,,,,,2017-05-29,1451
1027^^^^,1446,1.2.840.113619.2.66.2218493508.9594130625105005.63,2013-05-05,Mam Screen/Wait Digital,Mam Screen/Wait Digital,L,MLO,,,,,,,,,2017-05-29,1451
863^^^^,1169,1.2.840.113619.2.66.2218493508.1525130702083429.39,2013-08-23,Mam Screen/Wait w/Implt Digital,Mam Screen/Wait w/Implt Digita,L,CC,,,,,,,,,2014-08-24,1170
863^^^^,1169,1.2.840.113619.2.66.2218493508.1525130702083452.43,2013-08-23,Mam Screen/Wait w/Implt Digital,Mam Screen/Wait w/Implt Digita,L,CC,,,,,,,,,2014-08-24,1170
863^^^^,1169,1.2.840.113619.2.66.2218493508.1525130702083621.47,2013-08-23,Mam Screen/Wait w/Implt Digital,Mam Screen/Wait w/Implt Digita,L,MLO,,,,,,,,,2014-08-24,1170
863^^^^,1169,1.2.840.113619.2.66.2218493508.1525130702083644.51,2013-08-23,Mam Screen/Wait w/Implt Digital,Mam Screen/Wait w/Implt Digita,L,MLO,,,,,,,,,2014-08-24,1170
1036^^^^,26776,1.2.840.113681.3232311819.1403160141.1760.1335,2014-07-28,MAM SCREENING WITH TOMO,R CC,R,CC,,,,,,,,,2015-07-28,33308
1036^^^^,26776,1.2.840.113681.3232311819.1403160141.1760.1359,2014-07-28,MAM SCREENING WITH TOMO,R MLO,R,MLO,,,,,,,,,2015-07-28,33308
1036^^^^,1465,1.2.840.113619.2.66.2218493508.1989130618092009.99,2013-07-27,Mam Screen/Wait Digital,Mam Screen/Wait Digital,R,CC,,,,,,,,,2015-07-28,33308
1036^^^^,1465,1.2.840.113619.2.66.2218493508.1989130618092340.111,2013-07-27,Mam Screen/Wait Digital,Mam Screen/Wait Digital,R,MLO,,,,,,,,,2015-07-28,33308
