patient_name	accession_number	sop_instance_uid	study_date	study_description	series_description	image_laterality	view_position	sopuid	is_tomo	frame_number	is_mass	xmin	xmax	ymin	ymax
1027^^^^	1451	1.2.840.113681.3232311819.1500445970.1644.3157.1	2017-05-29	MAM SCREENING WITH TOMO	L CC C-View	L	CC	1.2.840.113681.3232311819.1500445970.1644.3157.1	False	-1.0	True	381.0	749.0	1384.0	1646.0
1027^^^^	1451	1.2.840.113681.3232311819.1500445970.1644.3169.1	2017-05-29	MAM SCREENING WITH TOMO	L MLO C-View	L	MLO	1.2.840.113681.3232311819.1500445970.1644.3169.1	False	-1.0	True	478.0	866.0	1597.0	1847.0
1036^^^^	33308	1.2.840.113681.3232293899.1434695466.5436.1988	2015-07-28	MAM SCREENING WITH TOMO	R CC	R	CC	1.2.840.113681.3232293899.1434695466.5436.1988	False	-1.0	True	2037.0	2251.0	712.0	879.0
1036^^^^	33308	1.2.840.113681.3232293899.1434695466.5436.2012	2015-07-28	MAM SCREENING WITH TOMO	R MLO	R	MLO	1.2.840.113681.3232293899.1434695466.5436.2012	False	-1.0	True	1991.0	2244.0	1552.0	1761.0
1038^^^^	1469	1.2.840.113681.3232311819.1440138462.5088.3625	2015-09-12	MAM SCREENING WITH TOMO	L MLO	L	MLO	1.2.840.113681.3232311819.1440138462.5088.3625	False	-1.0	True	603.0	940.0	1865.0	2225.0
316^^^^	53614	1.2.840.113681.3232311819.1491546470.4636.774	2017-06-04	MAM SCREENING WITH TOMO	L CC	L	CC	1.2.840.113681.3232311819.1491546470.4636.774	False	-1.0	True	1054.0	1385.0	1910.0	2156.0
316^^^^	53614	1.2.840.113681.3232311819.1491546470.4636.782.1	2017-06-04	MAM SCREENING WITH TOMO	L CC C-View	L	CC	1.2.840.113681.3232311819.1491546470.4636.782.1	False	-1.0	True	608.0	835.0	1134.0	1294.0
316^^^^	53614	1.2.840.113681.3232311819.1491546470.4636.790	2017-06-04	MAM SCREENING WITH TOMO	L MLO	L	MLO	1.2.840.113681.3232311819.1491546470.4636.790	False	-1.0	True	853.0	1174.0	3025.0	3283.0
316^^^^	53614	1.2.840.113681.3232311819.1491546470.4636.798.1	2017-06-04	MAM SCREENING WITH TOMO	L MLO C-View	L	MLO	1.2.840.113681.3232311819.1491546470.4636.798.1	False	-1.0	True	507.0	720.0	1785.0	1950.0
330^^^^	23290	1.2.840.113681.3232311819.1396598219.4812.490	2014-02-18	MAM SCREENING WITH TOMO	R CC	R	CC	1.2.840.113681.3232311819.1396598219.4812.490	False	-1.0	True	1253.0	1378.0	2343.0	2476.0
330^^^^	23290	1.2.840.113681.3232311819.1396598219.4812.514	2014-02-18	MAM SCREENING WITH TOMO	R MLO	R	MLO	1.2.840.113681.3232311819.1396598219.4812.514	False	-1.0	True	937.0	1065.0	2770.0	2905.0
384^^^^	26892	1.2.840.113681.3232311819.1427783280.5012.4053	2015-02-02	MAM SCREEN AND WAIT	L CC	L	CC	1.2.840.113681.3232311819.1427783280.5012.4053	False	-1.0	True	265.0	596.0	1119.0	1413.0
384^^^^	26892	1.2.840.113681.3232311819.1427783280.5012.4065	2015-02-02	MAM SCREEN AND WAIT	L MLO	L	MLO	1.2.840.113681.3232311819.1427783280.5012.4065	False	-1.0	True	597.0	924.0	1438.0	1798.0
384^^^^	26892	1.2.840.113681.3232311819.1427783280.5012.4269	2015-02-02	MAM SCREEN AND WAIT	L CC	L	CC	1.2.840.113681.3232311819.1427783280.5012.4269	False	-1.0	True	286.0	597.0	1293.0	1581.0
419^^^^	16615	1.2.840.113681.3232311819.1394520127.4016.3536	2014-04-24	MAM Screen and Wait	L CC	L	CC	1.2.840.113681.3232311819.1394520127.4016.3536	False	-1.0	True	488.0	1176.0	1500.0	2077.0
419^^^^	16615	1.2.840.113681.3232311819.1394520127.4016.3548	2014-04-24	MAM Screen and Wait	L MLO	L	MLO	1.2.840.113681.3232311819.1394520127.4016.3548	False	-1.0	True	194.0	635.0	800.0	1228.0
419^^^^	16615	1.2.840.113681.3232311819.1394520127.4016.3548	2014-04-24	MAM Screen and Wait	L MLO	L	MLO	1.2.840.113681.3232311819.1394520127.4016.3548	False	-1.0	True	780.0	1428.0	1392.0	2025.0
419^^^^	16615	1.2.840.113681.3232311819.1394520127.4016.3560	2014-04-24	MAM Screen and Wait	L XCCL	L	XCCL	1.2.840.113681.3232311819.1394520127.4016.3560	False	-1.0	True	356.0	835.0	1543.0	2012.0
419^^^^	16615	1.2.840.113681.3232311819.1394520127.4016.3560	2014-04-24	MAM Screen and Wait	L XCCL	L	XCCL	1.2.840.113681.3232311819.1394520127.4016.3560	False	-1.0	True	723.0	1265.0	2275.0	2842.0
442^^^^	13376	1.2.840.113681.3232311819.1396509724.5076.5366	2014-02-12	MAM SCREENING WITH TOMO	R CC	R	CC	1.2.840.113681.3232311819.1396509724.5076.5366	False	-1.0	True	2899.0	3125.0	936.0	1133.0
442^^^^	13376	1.2.840.113681.3232311819.1396509724.5076.5390	2014-02-12	MAM SCREENING WITH TOMO	R MLO	R	MLO	1.2.840.113681.3232311819.1396509724.5076.5390	False	-1.0	True	2710.0	2864.0	936.0	1123.0
512^^^^	27393	1.2.840.113681.3232293899.1430980366.5448.764	2015-03-15	MAM SCREENING WITH TOMO	R CC	R	CC	1.2.840.113681.3232293899.1430980366.5448.764	False	-1.0	True	2700.0	2844.0	2787.0	2903.0
516^^^^	33812	1.2.840.113681.3232311819.1444113727.5012.211	2015-12-03	MAM SCREENING WITH TOMO	R MLO	R	MLO	1.2.840.113681.3232311819.1444113727.5012.211	False	-1.0	True	1625.0	1841.0	2127.0	2343.0
516^^^^	52687	1.2.840.113681.3232293899.1481005587.2544.1539389	2017-02-02	MAM SCREENING WITH TOMO	R CC	R	CC	1.2.840.113681.3232293899.1481005587.2544.1539389	False	-1.0	True	1665.0	1890.0	1353.0	1530.0
516^^^^	52687	1.2.840.113681.3232293899.1481005587.2544.1539413	2017-02-02	MAM SCREENING WITH TOMO	R MLO	R	MLO	1.2.840.113681.3232293899.1481005587.2544.1539413	False	-1.0	True	1594.0	1829.0	2294.0	2454.0
558^^^^	29993	1.2.840.113681.3232311819.1506666732.4504.2023	2017-11-06	MAM SCREENING	L CC	L	CC	1.2.840.113681.3232311819.1506666732.4504.2023	False	-1.0	False	443.0	788.0	1555.0	1729.0
558^^^^	29993	1.2.840.113681.3232311819.1506666732.4504.2035	2017-11-06	MAM SCREENING	L MLO	L	MLO	1.2.840.113681.3232311819.1506666732.4504.2035	False	-1.0	False	832.0	1103.0	1419.0	1545.0
559^^^^	51364	1.2.840.113681.3232293899.1461825175.5440.1615	2016-06-08	MAM SCREEN AND WAIT WITH TOMO	L CC	L	CC	1.2.840.113681.3232293899.1461825175.5440.1615	False	-1.0	True	2396.0	2614.0	2313.0	2645.0
559^^^^	51364	1.2.840.113681.3232293899.1461825175.5440.1707	2016-06-08	MAM SCREEN AND WAIT WITH TOMO	L MLO	L	MLO	1.2.840.113681.3232293899.1461825175.5440.1707	False	-1.0	True	2027.0	2334.0	3116.0	3470.0
627^^^^	60613	1.2.840.113681.3232293899.1479190842.2552.57688	2016-09-19	MAM SCREENING WITH TOMO	R CC	R	CC	1.2.840.113681.3232293899.1479190842.2552.57688	False	-1.0	True	1878.0	2036.0	2489.0	2654.0
627^^^^	60613	1.2.840.113681.3232293899.1479190842.2552.57712	2016-09-19	MAM SCREENING WITH TOMO	R MLO	R	MLO	1.2.840.113681.3232293899.1479190842.2552.57712	False	-1.0	True	1699.0	1901.0	1663.0	1843.0
636^^^^	23814	1.2.840.113681.3232293899.1433399167.5444.198	2015-05-17	MAM SCREENING WITH TOMO	R CC	R	CC	1.2.840.113681.3232293899.1433399167.5444.198	False	-1.0	False	2694.0	2856.0	2154.0	2269.0
636^^^^	23814	1.2.840.113681.3232293899.1433399167.5444.222	2015-05-17	MAM SCREENING WITH TOMO	R MLO	R	MLO	1.2.840.113681.3232293899.1433399167.5444.222	False	-1.0	False	2165.0	2275.0	1672.0	1774.0
683^^^^	42331	1.2.840.113681.3232311819.1454568603.4980.4361	2016-02-24	MAM SCREENING WITH TOMO	L CC	L	CC	1.2.840.113681.3232311819.1454568603.4980.4361	False	-1.0	False	450.0	514.0	1896.0	1950.0
683^^^^	42331	1.2.840.113681.3232311819.1454568603.4980.4385	2016-02-24	MAM SCREENING WITH TOMO	L MLO	L	MLO	1.2.840.113681.3232311819.1454568603.4980.4385	False	-1.0	False	586.0	675.0	1909.0	1983.0
760^^^^	976	1.2.840.113681.3232293899.1394087475.3540.3568	2014-04-08	MAM SCREEN AND WAIT	R CC	R	CC	1.2.840.113681.3232293899.1394087475.3540.3568	False	-1.0	True	1850.0	2076.0	1457.0	1617.0
760^^^^	976	1.2.840.113681.3232293899.1394087475.3540.3580	2014-04-08	MAM SCREEN AND WAIT	R MLO	R	MLO	1.2.840.113681.3232293899.1394087475.3540.3580	False	-1.0	True	1558.0	1809.0	1685.0	1818.0
771^^^^	34482	1.2.840.113681.3232293899.1427696613.5460.18375	2015-02-06	MAM SCREEN AND WAIT	L CC	L	CC	1.2.840.113681.3232293899.1427696613.5460.18375	False	-1.0	True	632.0	972.0	1465.0	1996.0
771^^^^	34482	1.2.840.113681.3232293899.1427696613.5460.18387	2015-02-06	MAM SCREEN AND WAIT	L MLO	L	MLO	1.2.840.113681.3232293899.1427696613.5460.18387	False	-1.0	True	1054.0	1360.0	1290.0	1751.0
771^^^^	34482	1.2.840.113681.3232293899.1427696613.5460.18626	2015-02-06	MAM SCREEN AND WAIT	L CC	L	CC	1.2.840.113681.3232293899.1427696613.5460.18626	False	-1.0	True	750.0	1436.0	1205.0	2051.0
771^^^^	34482	1.2.840.113681.3232293899.1427696613.5460.18632	2015-02-06	MAM SCREEN AND WAIT	L ML	L	ML	1.2.840.113681.3232293899.1427696613.5460.18632	False	-1.0	True	1214.0	1906.0	892.0	1804.0
771^^^^	50665	1.2.840.113681.3232293899.1461220081.5388.2651	2016-02-28	MAM SCREEN AND WAIT	L CC	L	CC	1.2.840.113681.3232293899.1461220081.5388.2651	False	-1.0	True	432.0	918.0	1282.0	1881.0
771^^^^	50665	1.2.840.113681.3232293899.1461220081.5388.2663	2016-02-28	MAM SCREEN AND WAIT	L MLO	L	MLO	1.2.840.113681.3232293899.1461220081.5388.2663	False	-1.0	True	883.0	1198.0	1368.0	1815.0
835^^^^	29309	1.2.840.113681.3232311819.1470119872.4572.3645	2016-08-29	MAM SCREENING	L CC	L	CC	1.2.840.113681.3232311819.1470119872.4572.3645	False	-1.0	True	46.0	306.0	2322.0	2522.0
835^^^^	29309	1.2.840.113681.3232311819.1470119872.4572.3657	2016-08-29	MAM SCREENING	L MLO	L	MLO	1.2.840.113681.3232311819.1470119872.4572.3657	False	-1.0	True	153.0	458.0	2100.0	2418.0
863^^^^	1170	1.2.840.113681.3232311819.1404368956.5040.743	2014-08-24	MAM SCREEN AND WAIT WITH IMPLANT	L CC	L	CC	1.2.840.113681.3232311819.1404368956.5040.743	False	-1.0	False	694.0	914.0	2076.0	2296.0
863^^^^	1171	1.2.840.113681.3232311819.1436250848.5044.1085	2015-08-28	MAM SCREEN AND WAIT WITH IMPLANT	L MLO	L	MLO	1.2.840.113681.3232311819.1436250848.5044.1085	False	-1.0	False	729.0	907.0	2651.0	2827.0
863^^^^	1171	1.2.840.113681.3232311819.1436250848.5044.1165	2015-08-28	MAM SCREEN AND WAIT WITH IMPLANT	L CC	L	CC	1.2.840.113681.3232311819.1436250848.5044.1165	False	-1.0	False	794.0	988.0	2143.0	2309.0
927^^^^	28125	1.2.840.113681.3232293899.1406010676.5412.252	2014-09-04	MAM SCREENING WITH TOMO	L CC	L	CC	1.2.840.113681.3232293899.1406010676.5412.252	False	-1.0	True	1588.0	1735.0	2881.0	3039.0
927^^^^	28125	1.2.840.113681.3232293899.1406010676.5412.276	2014-09-04	MAM SCREENING WITH TOMO	L MLO	L	MLO	1.2.840.113681.3232293899.1406010676.5412.276	False	-1.0	True	1601.0	1805.0	2798.0	3018.0
927^^^^	46033	1.2.840.113681.3232293899.1440397356.5412.2640	2015-10-07	MAM SCREENING WITH TOMO	L CC	L	CC	1.2.840.113681.3232293899.1440397356.5412.2640	False	-1.0	True	1639.0	1838.0	2901.0	3094.0
927^^^^	46033	1.2.840.113681.3232293899.1440397356.5412.2664	2015-10-07	MAM SCREENING WITH TOMO	L MLO	L	MLO	1.2.840.113681.3232293899.1440397356.5412.2664	False	-1.0	True	1644.0	1855.0	2877.0	3079.0
95^^^^	9866	1.2.840.113681.3232311819.1390458812.1208.3106	2014-01-17	MAM SCREEN AND WAIT	L MLO	L	MLO	1.2.840.113681.3232311819.1390458812.1208.3106	False	-1.0	False	882.0	983.0	1418.0	1521.0
958^^^^	28129	1.2.840.113681.3232293899.1439792416.5436.803	2015-07-21	MAM SCREENING WITH TOMO	R CC	R	CC	1.2.840.113681.3232293899.1439792416.5436.803	False	-1.0	True	2287.0	2458.0	1267.0	1438.0
958^^^^	28129	1.2.840.113681.3232293899.1439792416.5436.803	2015-07-21	MAM SCREENING WITH TOMO	R CC	R	CC	1.2.840.113681.3232293899.1439792416.5436.803	False	-1.0	True	2505.0	2734.0	1472.0	1683.0
958^^^^	28129	1.2.840.113681.3232293899.1439792416.5436.827	2015-07-21	MAM SCREENING WITH TOMO	R MLO	R	MLO	1.2.840.113681.3232293899.1439792416.5436.827	False	-1.0	True	2153.0	2340.0	2350.0	2515.0
958^^^^	28129	1.2.840.113681.3232293899.1439792416.5436.827	2015-07-21	MAM SCREENING WITH TOMO	R MLO	R	MLO	1.2.840.113681.3232293899.1439792416.5436.827	False	-1.0	True	2430.0	2673.0	2375.0	2573.0
980^^^^	41492	1.2.840.113681.3232293899.1442211459.5432.10293	2015-08-29	MAM SCREENING WITH TOMO	R CC	R	CC	1.2.840.113681.3232293899.1442211459.5432.10293	False	-1.0	True	1716.0	1937.0	1913.0	2128.0
980^^^^	41492	1.2.840.113681.3232293899.1442211459.5432.10317	2015-08-29	MAM SCREENING WITH TOMO	R MLO	R	MLO	1.2.840.113681.3232293899.1442211459.5432.10317	False	-1.0	True	1783.0	1991.0	2582.0	2772.0
1584^^^^	39933	1.2.840.113681.3232293899.1426487022.5460.7359	2015-02-16	MAM SCREEN AND WAIT	L CC	L	cc	1.2.840.113681.3232293899.1426487022.5460.7359	False	-1.0	True	412.0	652.0	2363.0	2650.0
1584^^^^	39933	1.2.840.113681.3232293899.1426487022.5460.7371	2015-02-16	MAM SCREEN AND WAIT	L MLO	L	mlo	1.2.840.113681.3232293899.1426487022.5460.7371	False	-1.0	True	691.0	953.0	1520.0	1742.0
1959^^^^	3048	1.2.840.113681.3232293899.1406183877.5424.11236	2014-07-12	MAM SCREENING WITH TOMO	R CC	R	cc	1.2.840.113681.3232293899.1406183877.5424.11236	False	-1.0	True	1667.0	1922.0	1809.0	2058.0
1959^^^^	3048	1.2.840.113681.3232293899.1406183877.5424.11260	2014-07-12	MAM SCREENING WITH TOMO	R MLO	R	mlo	1.2.840.113681.3232293899.1406183877.5424.11260	False	-1.0	True	1641.0	1899.0	2489.0	2791.0
4093^^^^	52047	1.2.840.113681.3232293899.1455516828.5516.1733	2016-02-16	MAM SCREENING	L CC	L	cc	1.2.840.113681.3232293899.1455516828.5516.1733	False	-1.0	False	402.0	699.0	2894.0	3061.0
4093^^^^	52047	1.2.840.113681.3232293899.1455516828.5516.1745	2016-02-16	MAM SCREENING	L MLO	L	mlo	1.2.840.113681.3232293899.1455516828.5516.1745	False	-1.0	False	771.0	1107.0	2442.0	2649.0
4093^^^^	52047	1.2.840.113681.3232293899.1455516828.5516.1775	2016-02-16	MAM SCREENING	L XCCL	L	xccl	1.2.840.113681.3232293899.1455516828.5516.1775	False	-1.0	False	37.0	366.0	3156.0	3358.0
4093^^^^	52047	1.2.840.113681.3232293899.1455516828.5516.1799	2016-02-16	MAM SCREENING	L MLO	L	mlo	1.2.840.113681.3232293899.1455516828.5516.1799	False	-1.0	False	684.0	1013.0	2216.0	2412.0
4556^^^^	33757	1.2.840.113681.3232293899.1426055573.5448.17230	2015-04-08	MAM SCREENING WITH TOMO	L CC	L	cc	1.2.840.113681.3232293899.1426055573.5448.17230	False	-1.0	True	-19.0	155.0	1363.0	1587.0
4556^^^^	33757	1.2.840.113681.3232293899.1426055573.5448.17254	2015-04-08	MAM SCREENING WITH TOMO	L MLO	L	mlo	1.2.840.113681.3232293899.1426055573.5448.17254	False	-1.0	True	649.0	848.0	785.0	961.0
5067^^^^	24579	1.2.840.113681.3232293899.1433831281.5376.2765	2015-06-14	MAM SCREENING WITH TOMO	L MLO	L	mlo	1.2.840.113681.3232293899.1433831281.5376.2765	False	-1.0	True	1256.0	1430.0	1932.0	2090.0
5067^^^^	24579	1.2.840.113681.3232293899.1433831281.5376.2765	2015-06-14	MAM SCREENING WITH TOMO	L MLO	L	mlo	1.2.840.113681.3232293899.1433831281.5376.2765	False	-1.0	True	207.0	1107.0	2286.0	2862.0
5067^^^^	56690	1.2.840.113681.3232311819.1476168677.3016.590770	2016-10-16	MAM SCREENING WITH TOMO	L CC	L	cc	1.2.840.113681.3232311819.1476168677.3016.590770	False	-1.0	True	982.0	1321.0	1884.0	2159.0
5067^^^^	56690	1.2.840.113681.3232311819.1476168677.3016.590770	2016-10-16	MAM SCREENING WITH TOMO	L CC	L	cc	1.2.840.113681.3232311819.1476168677.3016.590770	False	-1.0	True	514.0	1270.0	2549.0	2986.0
5637^^^^	8674	1.2.840.113681.3232311819.1391582469.4896.6346	2014-02-03	MAM SCREENING WITH TOMO	R CC	R	cc	1.2.840.113681.3232311819.1391582469.4896.6346	False	-1.0	True	2341.0	2895.0	1550.0	2035.0
5637^^^^	8674	1.2.840.113681.3232311819.1391582469.4896.6370	2014-02-03	MAM SCREENING WITH TOMO	R MLO	R	mlo	1.2.840.113681.3232311819.1391582469.4896.6370	False	-1.0	True	1896.0	2693.0	1333.0	2018.0
5758^^^^	50944	1.2.840.113681.3232293899.1452666331.5444.217	2015-12-27	MAM SCREENING WITH TOMO	L MLO	L	mlo	1.2.840.113681.3232293899.1452666331.5444.217	False	-1.0	False	532.0	902.0	1425.0	1648.0
5758^^^^	8853	1.2.840.113681.3232311819.1421131038.1896.1353	2014-12-27	MAM SCREEN AND WAIT	L CC	L	cc	1.2.840.113681.3232311819.1421131038.1896.1353	False	-1.0	False	423.0	888.0	1874.0	2156.0
5812^^^^	69899	1.2.840.113681.3232311819.1506925765.1628.9088.1	2017-10-23	MAM SCREENING WITH TOMO	R MLO C-View	R	mlo	1.2.840.113681.3232311819.1506925765.1628.9088.1	False	-1.0	False	1549.0	1697.0	1167.0	1305.0
5812^^^^	69899	1.2.840.113681.3232311819.1506925765.1628.9200	2017-10-23	MAM SCREENING WITH TOMO	R XCCL	R	xccl	1.2.840.113681.3232311819.1506925765.1628.9200	False	-1.0	False	2026.0	2235.0	1114.0	1261.0
5956^^^^	34439	1.2.840.113681.3232311819.1414748820.5044.1466	2014-09-09	MAM SCREENING WITH TOMO	R CC	R	cc	1.2.840.113681.3232311819.1414748820.5044.1466	False	-1.0	False	2140.0	2605.0	1900.0	2329.0
5956^^^^	34439	1.2.840.113681.3232311819.1414748820.5044.1490	2014-09-09	MAM SCREENING WITH TOMO	R MLO	R	mlo	1.2.840.113681.3232311819.1414748820.5044.1490	False	-1.0	False	2025.0	2394.0	2126.0	2360.0
5961^^^^	38505	1.2.840.113681.3232311819.1426142027.5080.8129	2015-01-11	MAM SCREEN AND WAIT	R CC	R	cc	1.2.840.113681.3232311819.1426142027.5080.8129	False	-1.0	True	2925.0	3200.0	2501.0	2795.0
5961^^^^	38505	1.2.840.113681.3232311819.1426142027.5080.8141	2015-01-11	MAM SCREEN AND WAIT	R MLO	R	mlo	1.2.840.113681.3232311819.1426142027.5080.8141	False	-1.0	True	2644.0	2955.0	1446.0	1717.0
6010^^^^	57020	1.2.840.113681.3232311819.1470119872.4572.2616	2016-07-02	MAM SCREEN AND WAIT	R CC	R	cc	1.2.840.113681.3232311819.1470119872.4572.2616	False	-1.0	False	1982.0	2532.0	2742.0	2940.0
6010^^^^	57020	1.2.840.113681.3232311819.1470119872.4572.2628	2016-07-02	MAM SCREEN AND WAIT	R MLO	R	mlo	1.2.840.113681.3232311819.1470119872.4572.2628	False	-1.0	False	1940.0	2279.0	2248.0	2471.0
6038^^^^	64055	1.2.840.113681.3232311819.1506061991.4500.1777.1	2017-10-22	MAM SCREENING WITH TOMO	R MLO C-View	R	mlo	1.2.840.113681.3232311819.1506061991.4500.1777.1	False	-1.0	True	1570.0	1859.0	356.0	614.0
6085^^^^	60942	1.2.840.113681.3232311819.1479451026.684.367252	2016-12-20	MAM SCREEN AND WAIT	L CC	L	cc	1.2.840.113681.3232311819.1479451026.684.367252	False	-1.0	False	214.0	363.0	2143.0	2246.0
6085^^^^	60942	1.2.840.113681.3232311819.1479451026.684.367264	2016-12-20	MAM SCREEN AND WAIT	L MLO	L	mlo	1.2.840.113681.3232311819.1479451026.684.367264	False	-1.0	False	237.0	383.0	1335.0	1463.0
6232^^^^	71431	1.2.840.113681.3232293899.1510813428.4196.3570.1	2017-11-02	MAM SCREENING WITH TOMO	L CC C-View	L	cc	1.2.840.113681.3232293899.1510813428.4196.3570.1	False	-1.0	False	332.0	419.0	505.0	575.0
6232^^^^	71431	1.2.840.113681.3232293899.1510813428.4196.3582.1	2017-11-02	MAM SCREENING WITH TOMO	L MLO C-View	L	mlo	1.2.840.113681.3232293899.1510813428.4196.3582.1	False	-1.0	False	422.0	533.0	1206.0	1282.0
6255^^^^	56341	1.2.840.113681.3232293899.1501050578.3876.574.1	2017-08-16	MAM SCREENING WITH TOMO	L CC C-View	L	cc	1.2.840.113681.3232293899.1501050578.3876.574.1	False	-1.0	False	77.0	235.0	704.0	821.0
6255^^^^	56341	1.2.840.113681.3232293899.1501050578.3876.586.1	2017-08-16	MAM SCREENING WITH TOMO	L MLO C-View	L	mlo	1.2.840.113681.3232293899.1501050578.3876.586.1	False	-1.0	False	169.0	350.0	1032.0	1178.0
6430^^^^	9875	1.2.840.113681.3232311819.1397803536.5108.558	2014-03-03	MAM Screening with Tomo	L CC	L	cc	1.2.840.113681.3232311819.1397803536.5108.558	False	-1.0	True	26.0	328.0	915.0	1195.0
6430^^^^	9875	1.2.840.113681.3232311819.1397803536.5108.582	2014-03-03	MAM Screening with Tomo	L MLO	L	mlo	1.2.840.113681.3232311819.1397803536.5108.582	False	-1.0	True	421.0	723.0	1003.0	1307.0
6532^^^^	21413	1.2.840.113619.2.66.2218493508.2611140203090417.67	2014-01-14	MAM SCREEN AND WAIT	MAM SCREEN AND WAIT	R	cc	1.2.840.113619.2.66.2218493508.2611140203090417.67	False	-1.0	True	1539.0	1684.0	1072.0	1190.0
6532^^^^	21413	1.2.840.113619.2.66.2218493508.2611140203090739.79	2014-01-14	MAM SCREEN AND WAIT	MAM SCREEN AND WAIT	R	mlo	1.2.840.113619.2.66.2218493508.2611140203090739.79	False	-1.0	True	1093.0	1234.0	981.0	1081.0
6532^^^^	21413	1.2.840.113619.2.66.2218493508.2611140203092853.87	2014-01-14	MAM SCREEN AND WAIT	MAM SCREEN AND WAIT	R	mlo	1.2.840.113619.2.66.2218493508.2611140203092853.87	False	-1.0	True	1326.0	1481.0	596.0	701.0
6532^^^^	21413	1.2.840.113619.2.66.2218493508.2611140203093133.91	2014-01-14	MAM SCREEN AND WAIT	MAM SCREEN AND WAIT	R	cc	1.2.840.113619.2.66.2218493508.2611140203093133.91	False	-1.0	True	1345.0	1469.0	676.0	782.0
869^^^^	40212	1.2.840.113681.3232311819.1460961252.5100.7096	2016-05-18	MAM SCREENING WITH IMPLANT	L MLO	L	MLO	1.2.840.113681.3232311819.1460961252.5100.7096	False	-1.0	False	15.0	88.0	2680.0	2793.0
869^^^^	40212	1.2.840.113681.3232311819.1460961252.5100.7102	2016-05-18	MAM SCREENING WITH IMPLANT	L CC	L	CC	1.2.840.113681.3232311819.1460961252.5100.7102	False	-1.0	False	190.0	302.0	2886.0	2981.0
869^^^^	40212	1.2.840.113681.3232311819.1460961252.5100.7534	2016-05-18	MAM SCREENING WITH IMPLANT	L CC	L	CC	1.2.840.113681.3232311819.1460961252.5100.7534	False	-1.0	False	357.0	509.0	1883.0	2017.0
869^^^^	40212	1.2.840.113681.3232311819.1460961252.5100.7540	2016-05-18	MAM SCREENING WITH IMPLANT	L ML	L	ML	1.2.840.113681.3232311819.1460961252.5100.7540	False	-1.0	False	240.0	360.0	488.0	604.0
1580^^^^	33173	1.2.840.113681.3232293899.1412576375.5420.1199	2014-11-26	MAM SCREENING WITH TOMO	R CC	R	cc	1.2.840.113681.3232293899.1412576375.5420.1199	False	-1.0	False	2219.0	2484.0	1409.0	1618.0
1580^^^^	33173	1.2.840.113681.3232293899.1412576375.5420.1223	2014-11-26	MAM SCREENING WITH TOMO	R MLO	R	mlo	1.2.840.113681.3232293899.1412576375.5420.1223	False	-1.0	False	2397.0	2647.0	2153.0	2350.0
1561^^^^	2391	1.2.840.113681.3232311819.1452062373.4996.4901	2016-03-01	MAM SCREENING WITH IMPLANT	R CC	R	cc	1.2.840.113681.3232311819.1452062373.4996.4901	False	-1.0	True	2313.0	2484.0	1488.0	1668.0
1561^^^^	2391	1.2.840.113681.3232311819.1452062373.4996.4907	2016-03-01	MAM SCREENING WITH IMPLANT	R MLO	R	mlo	1.2.840.113681.3232311819.1452062373.4996.4907	False	-1.0	True	2262.0	2377.0	1587.0	1694.0
1514^^^^	66797	1.2.840.113681.3232293899.1496125373.4392.3174	2017-07-26	MAM SCREENING WITH TOMO	L MLO	L	mlo	1.2.840.113681.3232293899.1496125373.4392.3174	False	-1.0	True	964.0	1325.0	2165.0	2534.0
1514^^^^	66797	1.2.840.113681.3232293899.1496125373.4392.3158	2017-07-26	MAM SCREENING WITH TOMO	L CC	L	cc	1.2.840.113681.3232293899.1496125373.4392.3158	False	-1.0	True	968.0	1334.0	2317.0	2723.0
1514^^^^	66797	1.2.840.113681.3232293899.1496125373.4392.3166.1	2017-07-26	MAM SCREENING WITH TOMO	L CC C-View	L	cc	1.2.840.113681.3232293899.1496125373.4392.3166.1	False	-1.0	True	593.0	796.0	1421.0	1621.0
1514^^^^	66797	1.2.840.113681.3232293899.1496125373.4392.3182.1	2017-07-26	MAM SCREENING WITH TOMO	L MLO C-View	L	mlo	1.2.840.113681.3232293899.1496125373.4392.3182.1	False	-1.0	True	576.0	824.0	1264.0	1547.0
1733^^^^	29526	1.2.840.113681.3232293899.1426746413.5384.1729	2015-05-09	MAM SCREENING WITH TOMO	L CC	L	cc	1.2.840.113681.3232293899.1426746413.5384.1729	False	-1.0	True	622.0	944.0	2324.0	2568.0
1733^^^^	29526	1.2.840.113681.3232293899.1426746413.5384.1753	2015-05-09	MAM SCREENING WITH TOMO	L MLO	L	mlo	1.2.840.113681.3232293899.1426746413.5384.1753	False	-1.0	True	870.0	1183.0	1646.0	1940.0
1798^^^^	52413	1.2.840.113681.3232293899.1461059105.5488.876	2016-03-26	MAM SCREENING WITH TOMO	L CC	L	cc	1.2.840.113681.3232293899.1461059105.5488.876	False	-1.0	False	286.0	471.0	1452.0	1629.0
1798^^^^	52413	1.2.840.113681.3232293899.1461059105.5488.900	2016-03-26	MAM SCREENING WITH TOMO	L MLO	L	mlo	1.2.840.113681.3232293899.1461059105.5488.900	False	-1.0	False	573.0	766.0	1645.0	1833.0
1870^^^^	37209	1.2.840.113681.3232311819.1454308394.2976.1052	2015-12-15	MAM SCREENING WITH TOMO	R CC	R	cc	1.2.840.113681.3232311819.1454308394.2976.1052	False	-1.0	True	1912.0	2041.0	1299.0	1427.0
1870^^^^	37209	1.2.840.113681.3232311819.1454308394.2976.1076	2015-12-15	MAM SCREENING WITH TOMO	R MLO	R	mlo	1.2.840.113681.3232311819.1454308394.2976.1076	False	-1.0	True	1609.0	1791.0	1981.0	2127.0
1806^^^^	22770	1.2.840.113681.3232311819.1411460134.5092.2087	2014-08-13	MAM SCREENING WITH TOMO	R CC	R	cc	1.2.840.113681.3232311819.1411460134.5092.2087	False	-1.0	False	2152.0	2307.0	1108.0	1229.0
1806^^^^	22770	1.2.840.113681.3232311819.1411460134.5092.2111	2014-08-13	MAM SCREENING WITH TOMO	R MLO	R	mlo	1.2.840.113681.3232311819.1411460134.5092.2111	False	-1.0	False	2107.0	2248.0	1636.0	1738.0
1874^^^^	48051	1.2.840.113681.3232293899.1447136705.5468.19604	2015-12-29	MAM SCREENING WITH TOMO	R CC	R	cc	1.2.840.113681.3232293899.1447136705.5468.19604	False	-1.0	False	2000.0	2100.0	1739.0	1865.0
1679^^^^	2624	1.2.840.113681.3232311819.1487313056.4596.2067	2017-01-31	MAM SCREENING WITH TOMO	L CC	L	cc	1.2.840.113681.3232311819.1487313056.4596.2067	False	-1.0	False	453.0	866.0	2108.0	2340.0
1679^^^^	2624	1.2.840.113681.3232311819.1487313056.4596.2091	2017-01-31	MAM SCREENING WITH TOMO	L MLO	L	mlo	1.2.840.113681.3232311819.1487313056.4596.2091	False	-1.0	False	416.0	858.0	2338.0	2565.0
1877^^^^	33613	1.2.840.113681.3232311819.1417503816.4680.5576	2014-11-06	MAM SCREENING WITH TOMO	L MLO	L	mlo	1.2.840.113681.3232311819.1417503816.4680.5576	False	-1.0	False	416.0	537.0	1167.0	1290.0
1655^^^^	33667	1.2.840.113681.3232293899.1477031581.3332.3213	2016-08-29	MAM SCREENING WITH TOMO	R CC	R	cc	1.2.840.113681.3232293899.1477031581.3332.3213	False	-1.0	True	1712.0	2021.0	1167.0	1449.0
1655^^^^	33667	1.2.840.113681.3232293899.1477031581.3332.3237	2016-08-29	MAM SCREENING WITH TOMO	R MLO	R	mlo	1.2.840.113681.3232293899.1477031581.3332.3237	False	-1.0	True	1750.0	2073.0	1605.0	1996.0
1655^^^^	33667	1.2.840.113681.3232293899.1477031581.3332.3317	2016-08-29	MAM SCREENING WITH TOMO	R XCCL	R	xccl	1.2.840.113681.3232293899.1477031581.3332.3317	False	-1.0	True	1701.0	2012.0	1949.0	2229.0
1752^^^^	2730	1.2.840.113681.3232293899.1437719113.5448.2835	2015-06-20	MAM SCREENING	L CC	L	cc	1.2.840.113681.3232293899.1437719113.5448.2835	False	-1.0	False	1289.0	1442.0	1814.0	1915.0
1752^^^^	2730	1.2.840.113681.3232293899.1437719113.5448.2847	2015-06-20	MAM SCREENING	L MLO	L	mlo	1.2.840.113681.3232293899.1437719113.5448.2847	False	-1.0	False	1865.0	2040.0	2352.0	2473.0
1752^^^^	2730	1.2.840.113681.3232293899.1437719113.5448.2910	2015-06-20	MAM SCREENING	L MLO	L	mlo	1.2.840.113681.3232293899.1437719113.5448.2910	False	-1.0	False	254.0	488.0	1941.0	2109.0
1948^^^^	3029	1.2.840.113681.3232311819.1429770880.5040.5046	2015-05-02	MAM SCREEN AND WAIT	R CC	R	cc	1.2.840.113681.3232311819.1429770880.5040.5046	False	-1.0	True	1948.0	2330.0	1132.0	1394.0
1948^^^^	3029	1.2.840.113681.3232311819.1429770880.5040.5058	2015-05-02	MAM SCREEN AND WAIT	R MLO	R	mlo	1.2.840.113681.3232311819.1429770880.5040.5058	False	-1.0	True	1772.0	2128.0	2049.0	2257.0
1948^^^^	3029	1.2.840.113681.3232311819.1429770880.5040.5102	2015-05-02	MAM SCREEN AND WAIT	R ML	R	ml	1.2.840.113681.3232311819.1429770880.5040.5102	False	-1.0	True	2371.0	2619.0	2065.0	2283.0
3842^^^^	55607	1.2.840.113681.3232311819.1466059249.5016.202	2016-04-21	MAM SCREENING WITH TOMO	R MLO	R	mlo	1.2.840.113681.3232311819.1466059249.5016.202	False	-1.0	False	2121.0	2229.0	874.0	992.0
3941^^^^	36858	1.2.840.113681.3232293899.1426487022.5460.1221	2015-04-08	MAM SCREENING WITH TOMO	R CC	R	cc	1.2.840.113681.3232293899.1426487022.5460.1221	False	-1.0	True	2193.0	2410.0	839.0	1041.0
3941^^^^	36858	1.2.840.113681.3232293899.1426487022.5460.1245	2015-04-08	MAM SCREENING WITH TOMO	R MLO	R	mlo	1.2.840.113681.3232293899.1426487022.5460.1245	False	-1.0	True	1551.0	1792.0	1557.0	1806.0
4201^^^^	70520	1.2.840.113681.3232311819.1510900474.4752.6231	2017-11-15	MAM SCREENING	R CC	R	cc	1.2.840.113681.3232311819.1510900474.4752.6231	False	-1.0	False	2120.0	2336.0	1280.0	1451.0
4201^^^^	70520	1.2.840.113681.3232311819.1510900474.4752.6243	2017-11-15	MAM SCREENING	R MLO	R	mlo	1.2.840.113681.3232311819.1510900474.4752.6243	False	-1.0	False	1550.0	1722.0	2048.0	2180.0
4201^^^^	70520	1.2.840.113681.3232311819.1510900474.4752.6298	2017-11-15	MAM SCREENING	R XCCL	R	xccl	1.2.840.113681.3232311819.1510900474.4752.6298	False	-1.0	False	1941.0	2131.0	2045.0	2243.0
4201^^^^	70520	1.2.840.113681.3232311819.1510900474.4752.6334	2017-11-15	MAM SCREENING	R MLO	R	mlo	1.2.840.113681.3232311819.1510900474.4752.6334	False	-1.0	False	1495.0	1653.0	1693.0	1825.0
4060^^^^	34201	1.2.840.113681.3232311819.1430461913.1932.2963	2015-03-08	MAM SCREEN AND WAIT	L CC	L	cc	1.2.840.113681.3232311819.1430461913.1932.2963	False	-1.0	False	478.0	597.0	1477.0	1564.0
4060^^^^	34201	1.2.840.113681.3232311819.1430461913.1932.2975	2015-03-08	MAM SCREEN AND WAIT	L MLO	L	mlo	1.2.840.113681.3232311819.1430461913.1932.2975	False	-1.0	False	497.0	612.0	1959.0	2061.0
4342^^^^	33966	1.2.840.113681.3232293899.1436427878.5428.7809	2015-08-27	MAM SCREENING	L CC	L	cc	1.2.840.113681.3232293899.1436427878.5428.7809	False	-1.0	True	312.0	572.0	1095.0	1342.0
4342^^^^	33966	1.2.840.113681.3232293899.1436427878.5428.7821	2015-08-27	MAM SCREENING	L MLO	L	mlo	1.2.840.113681.3232293899.1436427878.5428.7821	False	-1.0	True	618.0	931.0	1538.0	1825.0
4480^^^^	27466	1.2.840.113681.3232293899.1406097416.5444.3349	2014-06-27	MAM SCREEN AND WAIT	L CC	L	cc	1.2.840.113681.3232293899.1406097416.5444.3349	False	-1.0	False	24.0	210.0	1695.0	1816.0
4480^^^^	27466	1.2.840.113681.3232293899.1406097416.5444.3361	2014-06-27	MAM SCREEN AND WAIT	L MLO	L	mlo	1.2.840.113681.3232293899.1406097416.5444.3361	False	-1.0	False	222.0	442.0	1838.0	2009.0
4480^^^^	27466	1.2.840.113681.3232293899.1406097416.5444.3399	2014-06-27	MAM SCREEN AND WAIT	L XCCL	L	xccl	1.2.840.113681.3232293899.1406097416.5444.3399	False	-1.0	False	24.0	203.0	2034.0	2160.0
4480^^^^	27466	1.2.840.113681.3232293899.1406097416.5444.3885	2014-06-27	MAM SCREEN AND WAIT	L CC	L	cc	1.2.840.113681.3232293899.1406097416.5444.3885	False	-1.0	False	5.0	275.0	1563.0	1807.0
4480^^^^	27466	1.2.840.113681.3232293899.1406097416.5444.3897	2014-06-27	MAM SCREEN AND WAIT	L ML	L	ml	1.2.840.113681.3232293899.1406097416.5444.3897	False	-1.0	False	398.0	730.0	1766.0	2061.0
4480^^^^	27466	1.2.840.113681.3232293899.1406097416.5444.4104	2014-06-27	MAM SCREEN AND WAIT	L ML	L	ml	1.2.840.113681.3232293899.1406097416.5444.4104	False	-1.0	False	272.0	470.0	2125.0	2309.0
4340^^^^	6791	1.2.840.113681.3232311819.1505284633.4800.3407	2017-10-20	MAM SCREENING	R CC	R	cc	1.2.840.113681.3232311819.1505284633.4800.3407	False	-1.0	True	2990.0	3230.0	2771.0	2969.0
4340^^^^	6791	1.2.840.113681.3232311819.1505284633.4800.3419	2017-10-20	MAM SCREENING	R MLO	R	mlo	1.2.840.113681.3232311819.1505284633.4800.3419	False	-1.0	True	2942.0	3185.0	2266.0	2480.0
4340^^^^	6791	1.2.840.113681.3232311819.1505284633.4800.3487	2017-10-20	MAM SCREENING	R XCCL	R	xccl	1.2.840.113681.3232311819.1505284633.4800.3487	False	-1.0	True	3142.0	3345.0	2548.0	2759.0
4387^^^^	41455	1.2.840.113681.3232293899.1431412703.5412.6741	2015-07-01	MAM SCREENING WITH TOMO	R CC	R	cc	1.2.840.113681.3232293899.1431412703.5412.6741	False	-1.0	False	2358.0	2472.0	911.0	1013.0
4387^^^^	41455	1.2.840.113681.3232293899.1431412703.5412.6765	2015-07-01	MAM SCREENING WITH TOMO	R MLO	R	mlo	1.2.840.113681.3232293899.1431412703.5412.6765	False	-1.0	False	1645.0	1765.0	1036.0	1145.0
4202^^^^	19301	1.2.840.113681.3232293899.1418279594.5400.11540	2014-10-29	MAM SCREEN AND WAIT WITH TOMO	R CC	R	cc	1.2.840.113681.3232293899.1418279594.5400.11540	False	-1.0	True	1782.0	2191.0	939.0	1354.0
4202^^^^	19301	1.2.840.113681.3232293899.1418279594.5400.11564	2014-10-29	MAM SCREEN AND WAIT WITH TOMO	R MLO	R	mlo	1.2.840.113681.3232293899.1418279594.5400.11564	False	-1.0	True	1599.0	2031.0	1652.0	2043.0
4511^^^^	57516	1.2.840.113681.3232293899.1475564876.1944.1922967	2016-10-10	MAM SCREENING WITH TOMO	L CC	L	cc	1.2.840.113681.3232293899.1475564876.1944.1922967	False	-1.0	False	304.0	496.0	1231.0	1360.0
4511^^^^	57516	1.2.840.113681.3232293899.1475564876.1944.1922991	2016-10-10	MAM SCREENING WITH TOMO	L MLO	L	mlo	1.2.840.113681.3232293899.1475564876.1944.1922991	False	-1.0	False	732.0	923.0	1341.0	1611.0
12195^^^^	28396	1.2.840.113681.3232311819.1420180426.3464.377	2014-11-15	MAM SCREENING WITH TOMO	L CC	L	cc	1.2.840.113681.3232311819.1420180426.3464.377	False	-1.0	False	417.0	609.0	2381.0	2508.0
12195^^^^	28396	1.2.840.113681.3232311819.1420180426.3464.401	2014-11-15	MAM SCREENING WITH TOMO	L MLO	L	mlo	1.2.840.113681.3232311819.1420180426.3464.401	False	-1.0	False	390.0	520.0	2617.0	2756.0
12132^^^^	29240	1.2.840.113681.3232293899.1421043977.5380.1239	2014-12-02	MAM SCREENING WITH TOMO	L CC	L	cc	1.2.840.113681.3232293899.1421043977.5380.1239	False	-1.0	False	222.0	399.0	639.0	788.0
12132^^^^	29240	1.2.840.113681.3232293899.1421043977.5380.1263	2014-12-02	MAM SCREENING WITH TOMO	L MLO	L	mlo	1.2.840.113681.3232293899.1421043977.5380.1263	False	-1.0	False	585.0	775.0	1184.0	1356.0
12186^^^^	27078	1.2.840.113681.3232293899.1464673727.5380.1478	2016-05-26	MAM SCREENING WITH TOMO	R CC	R	cc	1.2.840.113681.3232293899.1464673727.5380.1478	False	-1.0	False	1942.0	2485.0	565.0	1031.0
12186^^^^	27078	1.2.840.113681.3232293899.1464673727.5380.1502	2016-05-26	MAM SCREENING WITH TOMO	R MLO	R	mlo	1.2.840.113681.3232293899.1464673727.5380.1502	False	-1.0	False	1468.0	2003.0	840.0	1362.0
4351^^^^	34486	1.2.840.113681.3232311819.1415862478.5016.5013	2015-01-08	MAM SCREEN AND WAIT WITH TOMO	R CC	R	cc	1.2.840.113681.3232311819.1415862478.5016.5013	False	-1.0	True	1818.0	2286.0	1568.0	1984.0
4351^^^^	34486	1.2.840.113681.3232311819.1415862478.5016.5025	2015-01-08	MAM SCREEN AND WAIT WITH TOMO	R MLO	R	mlo	1.2.840.113681.3232311819.1415862478.5016.5025	False	-1.0	True	2079.0	2550.0	2015.0	2451.0
12447^^^^	62255	1.2.840.113681.3232293899.1486621775.2192.3576722	2017-02-21	MAM SCREENING WITH TOMO	L CC	L	cc	1.2.840.113681.3232293899.1486621775.2192.3576722	False	-1.0	True	350.0	584.0	1265.0	1506.0
12447^^^^	62255	1.2.840.113681.3232293899.1486621775.2192.3576746	2017-02-21	MAM SCREENING WITH TOMO	L MLO	L	mlo	1.2.840.113681.3232293899.1486621775.2192.3576746	False	-1.0	True	658.0	840.0	2368.0	2613.0
12930^^^^	51664	1.2.840.113681.3232311819.1489127432.4508.7786.1	2017-04-28	MAM SCREENING WITH TOMO	R MLO C-View	R	mlo	1.2.840.113681.3232311819.1489127432.4508.7786.1	False	-1.0	True	1278.0	1472.0	1415.0	1582.0
12930^^^^	51664	1.2.840.113681.3232311819.1489127432.4508.7730	2017-04-28	MAM SCREENING WITH TOMO	R CC	R	cc	1.2.840.113681.3232311819.1489127432.4508.7730	False	-1.0	True	2173.0	2460.0	2146.0	2457.0
12930^^^^	51664	1.2.840.113681.3232311819.1489127432.4508.7738.1	2017-04-28	MAM SCREENING WITH TOMO	R CC C-View	R	cc	1.2.840.113681.3232311819.1489127432.4508.7738.1	False	-1.0	True	1322.0	1470.0	1319.0	1460.0
12930^^^^	51664	1.2.840.113681.3232311819.1489127432.4508.7778	2017-04-28	MAM SCREENING WITH TOMO	R MLO	R	mlo	1.2.840.113681.3232311819.1489127432.4508.7778	False	-1.0	True	2117.0	2477.0	2356.0	2664.0
12417^^^^	56170	1.2.840.113681.3232311819.1470379012.4664.44125	2016-06-07	MAM SCREENING WITH TOMO	R MLO	R	mlo	1.2.840.113681.3232311819.1470379012.4664.44125	False	-1.0	True	1677.0	1937.0	1282.0	1477.0
12417^^^^	56170	1.2.840.113681.3232311819.1470379012.4664.44125	2016-06-07	MAM SCREENING WITH TOMO	R MLO	R	mlo	1.2.840.113681.3232311819.1470379012.4664.44125	False	-1.0	True	1182.0	1345.0	1517.0	1664.0
12485^^^^	42343	1.2.840.113681.3232293899.1431412703.5412.1994	2015-05-24	MAM SCREENING WITH TOMO	L CC	L	cc	1.2.840.113681.3232293899.1431412703.5412.1994	False	-1.0	False	253.0	705.0	1356.0	1633.0
12485^^^^	42343	1.2.840.113681.3232293899.1431412703.5412.2018	2015-05-24	MAM SCREENING WITH TOMO	L MLO	L	mlo	1.2.840.113681.3232293899.1431412703.5412.2018	False	-1.0	False	799.0	1100.0	1572.0	1784.0
12285^^^^	60989	1.2.840.113681.3232311819.1480499876.680.1121758	2016-10-16	MAM SCREENING WITH TOMO	L CC	L	cc	1.2.840.113681.3232311819.1480499876.680.1121758	False	-1.0	False	862.0	1170.0	2351.0	2662.0
12285^^^^	60989	1.2.840.113681.3232311819.1480499876.680.1121782	2016-10-16	MAM SCREENING WITH TOMO	L MLO	L	mlo	1.2.840.113681.3232311819.1480499876.680.1121782	False	-1.0	False	884.0	1330.0	1455.0	1747.0
12594^^^^	52806	1.2.840.113681.3232311819.1468925208.5708.3481	2016-09-02	MAM SCREENING WITH TOMO	R CC	R	cc	1.2.840.113681.3232311819.1468925208.5708.3481	False	-1.0	False	1779.0	2229.0	1757.0	2079.0
12594^^^^	52806	1.2.840.113681.3232311819.1468925208.5708.3505	2016-09-02	MAM SCREENING WITH TOMO	R MLO	R	mlo	1.2.840.113681.3232311819.1468925208.5708.3505	False	-1.0	False	1405.0	1661.0	1819.0	2073.0
12958^^^^	44527	1.2.840.113681.3232293899.1477549570.4764.8708	2016-09-29	MAM SCREENING WITH TOMO	R CC	R	cc	1.2.840.113681.3232293899.1477549570.4764.8708	False	-1.0	True	2974.0	3259.0	1982.0	2375.0
12958^^^^	44527	1.2.840.113681.3232293899.1477549570.4764.8732	2016-09-29	MAM SCREENING WITH TOMO	R MLO	R	mlo	1.2.840.113681.3232293899.1477549570.4764.8732	False	-1.0	True	2780.0	3055.0	2128.0	2439.0
12970^^^^	42771	1.2.840.113681.3232311819.1432794832.5000.2405	2015-06-05	MAM SCREENING WITH TOMO	R CC	R	cc	1.2.840.113681.3232311819.1432794832.5000.2405	False	-1.0	True	2642.0	2804.0	2186.0	2337.0
12970^^^^	42771	1.2.840.113681.3232311819.1432794832.5000.2503	2015-06-05	MAM SCREENING WITH TOMO	R MLO	R	mlo	1.2.840.113681.3232311819.1432794832.5000.2503	False	-1.0	True	2498.0	2705.0	1619.0	1815.0
12970^^^^	55033	1.2.840.113681.3232311819.1465194612.4924.2448	2016-06-14	MAM SCREENING WITH TOMO	R CC	R	cc	1.2.840.113681.3232311819.1465194612.4924.2448	False	-1.0	True	1760.0	1971.0	2005.0	2181.0
12970^^^^	69040	1.2.840.113681.3232311819.1501742112.296.9553	2017-08-11	MAM SCREENING	R CC	R	cc	1.2.840.113681.3232311819.1501742112.296.9553	False	-1.0	True	1859.0	2006.0	1872.0	2001.0
12970^^^^	69040	1.2.840.113681.3232311819.1501742112.296.9565	2017-08-11	MAM SCREENING	R MLO	R	mlo	1.2.840.113681.3232311819.1501742112.296.9565	False	-1.0	True	1654.0	1855.0	1389.0	1551.0
12540^^^^	43407	1.2.840.113681.3232311819.1433831669.4484.387	2015-07-14	MAM SCREENING WITH TOMO	R CC	R	cc	1.2.840.113681.3232311819.1433831669.4484.387	False	-1.0	True	2407.0	2578.0	1093.0	1376.0
12540^^^^	43407	1.2.840.113681.3232311819.1433831669.4484.411	2015-07-14	MAM SCREENING WITH TOMO	R MLO	R	mlo	1.2.840.113681.3232311819.1433831669.4484.411	False	-1.0	True	1844.0	2031.0	1248.0	1441.0
12889^^^^	49151	1.2.840.113681.3232311819.1469602035.2908.190	2016-06-23	MAM SCREENING WITH TOMO	R CC	R	cc	1.2.840.113681.3232311819.1469602035.2908.190	False	-1.0	True	2060.0	2300.0	2688.0	2835.0
12889^^^^	49151	1.2.840.113681.3232311819.1469602035.2908.214	2016-06-23	MAM SCREENING WITH TOMO	R MLO	R	mlo	1.2.840.113681.3232311819.1469602035.2908.214	False	-1.0	True	2061.0	2303.0	2996.0	3167.0
12797^^^^	63135	1.2.840.113681.3232311819.1488954524.4664.5265	2017-01-14	MAM SCREENING WITH TOMO	R CC	R	cc	1.2.840.113681.3232311819.1488954524.4664.5265	False	-1.0	False	2347.0	2630.0	1720.0	1869.0
12797^^^^	63135	1.2.840.113681.3232311819.1488954524.4664.5273.1	2017-01-14	MAM SCREENING WITH TOMO	R CC C-View	R	cc	1.2.840.113681.3232311819.1488954524.4664.5273.1	False	-1.0	False	1413.0	1568.0	1035.0	1130.0
12797^^^^	63135	1.2.840.113681.3232311819.1488954524.4664.5313	2017-01-14	MAM SCREENING WITH TOMO	R MLO	R	mlo	1.2.840.113681.3232311819.1488954524.4664.5313	False	-1.0	False	1636.0	1828.0	2531.0	2664.0
12797^^^^	63135	1.2.840.113681.3232311819.1488954524.4664.5321.1	2017-01-14	MAM SCREENING WITH TOMO	R MLO C-View	R	mlo	1.2.840.113681.3232311819.1488954524.4664.5321.1	False	-1.0	False	1183.0	1336.0	1867.0	1986.0
12452^^^^	55023	1.2.840.113681.3232293899.1463120437.5436.4333	2016-04-07	MAM SCREENING	L CC	L	cc	1.2.840.113681.3232293899.1463120437.5436.4333	False	-1.0	False	438.0	552.0	1355.0	1461.0
12990^^^^	22778	1.2.840.113681.3232311819.1440657257.3884.2527	2015-08-15	MAM SCREENING WITH TOMO	R MLO	R	mlo	1.2.840.113681.3232311819.1440657257.3884.2527	False	-1.0	True	2518.0	2749.0	1552.0	1759.0
12680^^^^	66999	1.2.840.113681.3232311819.1501655530.4720.13535.1	2017-07-19	MAM SCREENING WITH TOMO	L CC C-View	L	cc	1.2.840.113681.3232311819.1501655530.4720.13535.1	False	-1.0	True	-15.0	146.0	1358.0	1559.0
12680^^^^	66999	1.2.840.113681.3232311819.1501655530.4720.13547.1	2017-07-19	MAM SCREENING WITH TOMO	L MLO C-View	L	mlo	1.2.840.113681.3232311819.1501655530.4720.13547.1	False	-1.0	True	140.0	353.0	461.0	664.0
12680^^^^	66999	1.2.840.113681.3232311819.1501655530.4720.13652	2017-07-19	MAM SCREENING WITH TOMO	L MLO	L	mlo	1.2.840.113681.3232311819.1501655530.4720.13652	False	-1.0	True	132.0	555.0	836.0	1144.0
14607^^^^	38887	1.2.840.113681.3232293899.1439274011.5420.5594	2015-08-03	MAM SCREENING	R CC	R	cc	1.2.840.113681.3232293899.1439274011.5420.5594	False	-1.0	True	2877.0	3088.0	978.0	1146.0
14607^^^^	38887	1.2.840.113681.3232293899.1439274011.5420.5606	2015-08-03	MAM SCREENING	R MLO	R	mlo	1.2.840.113681.3232293899.1439274011.5420.5606	False	-1.0	True	2300.0	2464.0	1348.0	1491.0
14607^^^^	38887	1.2.840.113681.3232293899.1439274011.5420.5650	2015-08-03	MAM SCREENING	R CC	R	cc	1.2.840.113681.3232293899.1439274011.5420.5650	False	-1.0	True	2997.0	3188.0	1005.0	1183.0
14490^^^^	28359	1.2.840.113681.3232311819.1479710124.3500.300835	2016-11-08	MAM SCREENING	L CC	L	cc	1.2.840.113681.3232311819.1479710124.3500.300835	False	-1.0	False	756.0	968.0	1634.0	1814.0
14490^^^^	28359	1.2.840.113681.3232311819.1479710124.3500.300847	2016-11-08	MAM SCREENING	L MLO	L	mlo	1.2.840.113681.3232311819.1479710124.3500.300847	False	-1.0	False	1406.0	1604.0	1611.0	1788.0
14500^^^^	57777	1.2.840.113681.3232293899.1472106477.2352.1511272	2016-09-12	MAM SCREENING	R CC	R	cc	1.2.840.113681.3232293899.1472106477.2352.1511272	False	-1.0	False	2414.0	2521.0	1411.0	1485.0
14500^^^^	57777	1.2.840.113681.3232293899.1472106477.2352.1511284	2016-09-12	MAM SCREENING	R MLO	R	mlo	1.2.840.113681.3232293899.1472106477.2352.1511284	False	-1.0	False	2322.0	2423.0	1794.0	1884.0
14736^^^^	42515	1.2.840.113681.3232311819.1457678747.2664.7927	2016-05-06	MAM SCREENING WITH TOMO	L CC	L	cc	1.2.840.113681.3232311819.1457678747.2664.7927	False	-1.0	True	618.0	796.0	2108.0	2269.0
14736^^^^	42515	1.2.840.113681.3232311819.1457678747.2664.7951	2016-05-06	MAM SCREENING WITH TOMO	L MLO	L	mlo	1.2.840.113681.3232311819.1457678747.2664.7951	False	-1.0	True	797.0	1042.0	1927.0	2073.0
14672^^^^	29190	1.2.840.113681.3232311819.1442212055.4940.16420	2015-09-14	MAM SCREENING WITH TOMO	L CC	L	cc	1.2.840.113681.3232311819.1442212055.4940.16420	False	-1.0	False	856.0	946.0	1231.0	1310.0
14672^^^^	29190	1.2.840.113681.3232311819.1442212055.4940.16444	2015-09-14	MAM SCREENING WITH TOMO	L MLO	L	mlo	1.2.840.113681.3232311819.1442212055.4940.16444	False	-1.0	False	972.0	1065.0	1549.0	1650.0
14654^^^^	29118	1.2.840.113681.3232293899.1444285469.5524.789	2015-12-23	MAM SCREENING WITH TOMO	L MLO	L	mlo	1.2.840.113681.3232293899.1444285469.5524.789	False	-1.0	False	110.0	303.0	1231.0	1439.0
14654^^^^	29118	1.2.840.113681.3232293899.1446186396.5396.2861	2015-12-23	MAM SCREENING WITH TOMO	L ML	L	ml	1.2.840.113681.3232293899.1446186396.5396.2861	False	-1.0	False	7.0	190.0	1884.0	2125.0
14654^^^^	29118	1.2.840.113681.3232293899.1446186396.5396.3561	2015-12-23	MAM SCREENING WITH TOMO	L MLO	L	mlo	1.2.840.113681.3232293899.1446186396.5396.3561	False	-1.0	False	403.0	615.0	1623.0	1865.0
14712^^^^	41157	1.2.840.113681.3232311819.1446012874.5004.415	2015-11-14	MAM SCREENING WITH TOMO	L CC	L	cc	1.2.840.113681.3232311819.1446012874.5004.415	False	-1.0	True	1102.0	1284.0	2510.0	2645.0
14712^^^^	41157	1.2.840.113681.3232311819.1446012874.5004.439	2015-11-14	MAM SCREENING WITH TOMO	L MLO	L	mlo	1.2.840.113681.3232311819.1446012874.5004.439	False	-1.0	True	1292.0	1415.0	2962.0	3075.0
14603^^^^	51523	1.2.840.113681.3232293899.1454394706.5444.1834	2016-03-14	MAM SCREENING WITH TOMO	R CC	R	cc	1.2.840.113681.3232293899.1454394706.5444.1834	False	-1.0	True	2124.0	2264.0	1044.0	1197.0
15297^^^^	31887	1.2.840.113681.3232293899.1481554483.16104.401274	2016-11-02	MAM SCREENING WITH TOMO	R CC	R	cc	1.2.840.113681.3232293899.1481554483.16104.401274	False	-1.0	True	2455.0	2616.0	1039.0	1225.0
15297^^^^	31887	1.2.840.113681.3232293899.1481554483.16104.401298	2016-11-02	MAM SCREENING WITH TOMO	R MLO	R	mlo	1.2.840.113681.3232293899.1481554483.16104.401298	False	-1.0	True	1695.0	1881.0	1300.0	1473.0
4721^^^^	53880	1.2.840.113681.3232293899.1469688750.5268.6368	2016-07-26	MAM SCREENING WITH TOMO	R CC	R	cc	1.2.840.113681.3232293899.1469688750.5268.6368	False	-1.0	True	2590.0	2779.0	1745.0	1922.0
4721^^^^	53880	1.2.840.113681.3232293899.1469688750.5268.6380	2016-07-26	MAM SCREENING WITH TOMO	R MLO	R	mlo	1.2.840.113681.3232293899.1469688750.5268.6380	False	-1.0	True	2561.0	2743.0	2017.0	2199.0
4818^^^^	34305	1.2.840.113681.3232311819.1414748820.5044.19841	2014-11-04	MAM SCREENING WITH TOMO	R CC	R	cc	1.2.840.113681.3232311819.1414748820.5044.19841	False	-1.0	True	1732.0	1892.0	1899.0	2039.0
4818^^^^	34305	1.2.840.113681.3232311819.1414748820.5044.19865	2014-11-04	MAM SCREENING WITH TOMO	R MLO	R	mlo	1.2.840.113681.3232311819.1414748820.5044.19865	False	-1.0	True	1798.0	1940.0	2191.0	2354.0
4650^^^^	36693	1.2.840.113681.3232311819.1419318216.5060.10889	2015-01-21	MAM SCREENING WITH TOMO	R CC	R	cc	1.2.840.113681.3232311819.1419318216.5060.10889	False	-1.0	True	2400.0	2680.0	2020.0	2271.0
4650^^^^	36693	1.2.840.113681.3232311819.1419318216.5060.10913	2015-01-21	MAM SCREENING WITH TOMO	R MLO	R	mlo	1.2.840.113681.3232311819.1419318216.5060.10913	False	-1.0	True	1965.0	2205.0	2144.0	2349.0
16532^^^^	64225	1.2.840.113681.3232311819.1486967044.680.1279	2017-03-25	MAM SCREENING	R MLO	R	mlo	1.2.840.113681.3232311819.1486967044.680.1279	False	-1.0	True	2616.0	2810.0	1771.0	1940.0
16532^^^^	64225	1.2.840.113681.3232311819.1486967044.680.1304	2017-03-25	MAM SCREENING	R MLO	R	mlo	1.2.840.113681.3232311819.1486967044.680.1304	False	-1.0	True	2529.0	2729.0	2010.0	2181.0
16556^^^^	69573	1.2.840.113681.3232293899.1513319264.4204.3565.1	2017-12-20	MAM SCREENING WITH TOMO	L MLO C-View	L	mlo	1.2.840.113681.3232293899.1513319264.4204.3565.1	False	-1.0	False	589.0	685.0	1372.0	1445.0
16316^^^^	63035	1.2.840.113681.3232311819.1487227286.3816.2056	2017-03-18	MAM SCREENING	L CC	L	cc	1.2.840.113681.3232311819.1487227286.3816.2056	False	-1.0	False	231.0	322.0	1067.0	1150.0
16316^^^^	63035	1.2.840.113681.3232311819.1487227286.3816.2068	2017-03-18	MAM SCREENING	L MLO	L	mlo	1.2.840.113681.3232311819.1487227286.3816.2068	False	-1.0	False	226.0	353.0	2113.0	2199.0
16316^^^^	63035	1.2.840.113681.3232311819.1487227286.3816.2124	2017-03-18	MAM SCREENING	L XCCL	L	xccl	1.2.840.113681.3232311819.1487227286.3816.2124	False	-1.0	False	177.0	285.0	1437.0	1530.0
16497^^^^	56334	1.2.840.113681.3232293899.1487572109.2184.3679673	2017-04-16	MAM SCREENING WITH TOMO	L MLO	L	mlo	1.2.840.113681.3232293899.1487572109.2184.3679673	False	-1.0	True	469.0	636.0	2208.0	2367.0
16506^^^^	37247	1.2.840.113681.3232311819.1488263420.4832.3504	2017-01-23	MAM SCREENING WITH TOMO	L CC	L	cc	1.2.840.113681.3232311819.1488263420.4832.3504	False	-1.0	True	1616.0	1879.0	2682.0	2883.0
16506^^^^	37247	1.2.840.113681.3232311819.1488263420.4832.3512.1	2017-01-23	MAM SCREENING WITH TOMO	L CC C-View	L	cc	1.2.840.113681.3232311819.1488263420.4832.3512.1	False	-1.0	True	964.0	1118.0	1615.0	1722.0
16506^^^^	37247	1.2.840.113681.3232311819.1488263420.4832.3520	2017-01-23	MAM SCREENING WITH TOMO	L MLO	L	mlo	1.2.840.113681.3232311819.1488263420.4832.3520	False	-1.0	True	1755.0	1968.0	2724.0	2917.0
16506^^^^	37247	1.2.840.113681.3232311819.1488263420.4832.3528.1	2017-01-23	MAM SCREENING WITH TOMO	L MLO C-View	L	mlo	1.2.840.113681.3232311819.1488263420.4832.3528.1	False	-1.0	True	1057.0	1197.0	1624.0	1752.0
16245^^^^	64085	1.2.840.113681.3232311819.1495693756.4252.206	2017-04-26	MAM SCREENING WITH TOMO	R CC	R	cc	1.2.840.113681.3232311819.1495693756.4252.206	False	-1.0	True	2002.0	2527.0	2035.0	2260.0
16245^^^^	64085	1.2.840.113681.3232311819.1495693756.4252.214.1	2017-04-26	MAM SCREENING WITH TOMO	R CC C-View	R	cc	1.2.840.113681.3232311819.1495693756.4252.214.1	False	-1.0	True	1168.0	1501.0	1207.0	1368.0
16245^^^^	64085	1.2.840.113681.3232311819.1495693756.4252.254	2017-04-26	MAM SCREENING WITH TOMO	R MLO	R	mlo	1.2.840.113681.3232311819.1495693756.4252.254	False	-1.0	True	1713.0	2354.0	2848.0	3299.0
16245^^^^	64085	1.2.840.113681.3232311819.1495693756.4252.262.1	2017-04-26	MAM SCREENING WITH TOMO	R MLO C-View	R	mlo	1.2.840.113681.3232311819.1495693756.4252.262.1	False	-1.0	True	1036.0	1420.0	1708.0	1988.0
16918^^^^	38906	1.2.840.113681.169521952.1494397689.808.7527	2017-05-08	MAM SCREENING WITH TOMO	R CC	R	cc	1.2.840.113681.169521952.1494397689.808.7527	False	-1.0	True	1484.0	1717.0	1241.0	1499.0
16918^^^^	38906	1.2.840.113681.169521952.1494397689.808.7535.1	2017-05-08	MAM SCREENING WITH TOMO	R CC C-View	R	cc	1.2.840.113681.169521952.1494397689.808.7535.1	False	-1.0	True	1102.0	1267.0	904.0	1119.0
16918^^^^	38906	1.2.840.113681.169521952.1494397689.808.7575	2017-05-08	MAM SCREENING WITH TOMO	R MLO	R	mlo	1.2.840.113681.169521952.1494397689.808.7575	False	-1.0	True	1117.0	1350.0	1802.0	2020.0
16918^^^^	38906	1.2.840.113681.169521952.1494397689.808.7583.1	2017-05-08	MAM SCREENING WITH TOMO	R MLO C-View	R	mlo	1.2.840.113681.169521952.1494397689.808.7583.1	False	-1.0	True	834.0	987.0	1323.0	1501.0
16982^^^^	63962	1.2.840.113681.3232311819.1488522163.4760.10658	2017-04-11	MAM SCREEN AND WAIT WITH TOMO	L CC	L	cc	1.2.840.113681.3232311819.1488522163.4760.10658	False	-1.0	True	91.0	345.0	1990.0	2198.0
16982^^^^	63962	1.2.840.113681.3232311819.1488522163.4760.10666.1	2017-04-11	MAM SCREEN AND WAIT WITH TOMO	L CC C-View	L	cc	1.2.840.113681.3232311819.1488522163.4760.10666.1	False	-1.0	True	58.0	260.0	1458.0	1633.0
16982^^^^	63962	1.2.840.113681.3232311819.1488522163.4760.10674	2017-04-11	MAM SCREEN AND WAIT WITH TOMO	L MLO	L	mlo	1.2.840.113681.3232311819.1488522163.4760.10674	False	-1.0	True	125.0	434.0	1317.0	1598.0
16982^^^^	63962	1.2.840.113681.3232311819.1488522163.4760.10682.1	2017-04-11	MAM SCREEN AND WAIT WITH TOMO	L MLO C-View	L	mlo	1.2.840.113681.3232311819.1488522163.4760.10682.1	False	-1.0	True	79.0	331.0	965.0	1165.0
16808^^^^	56500	1.2.840.113681.3232293899.1512714170.4212.4673.1	2018-01-11	MAM SCREENING WITH TOMO	L CC C-View	L	cc	1.2.840.113681.3232293899.1512714170.4212.4673.1	False	-1.0	False	275.0	367.0	533.0	614.0
16808^^^^	56500	1.2.840.113681.3232293899.1512714170.4212.4685.1	2018-01-11	MAM SCREENING WITH TOMO	L MLO C-View	L	mlo	1.2.840.113681.3232293899.1512714170.4212.4685.1	False	-1.0	False	616.0	715.0	909.0	999.0
17299^^^^	54096	1.2.840.113681.3232311819.1460529277.5008.4141	2016-04-16	MAM SCREENING WITH TOMO	L CC	L	cc	1.2.840.113681.3232311819.1460529277.5008.4141	False	-1.0	True	499.0	777.0	2506.0	2837.0
17299^^^^	54096	1.2.840.113681.3232311819.1460529277.5008.4165	2016-04-16	MAM SCREENING WITH TOMO	L MLO	L	mlo	1.2.840.113681.3232311819.1460529277.5008.4165	False	-1.0	True	828.0	1096.0	1567.0	1865.0
17720^^^^	68278	1.2.840.113681.3232311819.1499063099.4804.5502.1	2017-05-10	MAM SCREENING WITH TOMO	L CC C-View	L	cc	1.2.840.113681.3232311819.1499063099.4804.5502.1	False	-1.0	False	564.0	632.0	1213.0	1277.0
17720^^^^	68278	1.2.840.113681.3232311819.1499063099.4804.5514.1	2017-05-10	MAM SCREENING WITH TOMO	L MLO C-View	L	mlo	1.2.840.113681.3232311819.1499063099.4804.5514.1	False	-1.0	False	672.0	751.0	1382.0	1435.0
17900^^^^	69222	1.2.840.113681.3232311819.1501828370.4676.6235.1	2017-06-22	MAM SCREENING WITH TOMO	R CC C-View	R	cc	1.2.840.113681.3232311819.1501828370.4676.6235.1	False	-1.0	False	1138.0	1358.0	574.0	743.0
18139^^^^	66377	1.2.840.113681.3232293899.1503555727.4452.624.1	2017-09-15	MAM SCREENING WITH TOMO	L CC C-View	L	cc	1.2.840.113681.3232293899.1503555727.4452.624.1	False	-1.0	False	311.0	391.0	850.0	896.0
18139^^^^	66377	1.2.840.113681.3232293899.1503555727.4452.636.1	2017-09-15	MAM SCREENING WITH TOMO	L MLO C-View	L	mlo	1.2.840.113681.3232293899.1503555727.4452.636.1	False	-1.0	False	165.0	251.0	1271.0	1345.0
17717^^^^	63389	1.2.840.113681.3232293899.1498630828.3524.14016.1	2017-05-21	MAM SCREENING WITH TOMO	L CC C-View	L	cc	1.2.840.113681.3232293899.1498630828.3524.14016.1	False	-1.0	False	478.0	572.0	1092.0	1186.0
17717^^^^	63389	1.2.840.113681.3232293899.1498630828.3524.14028.1	2017-05-21	MAM SCREENING WITH TOMO	L MLO C-View	L	mlo	1.2.840.113681.3232293899.1498630828.3524.14028.1	False	-1.0	False	616.0	751.0	1364.0	1522.0
17583^^^^	64202	1.2.840.113681.3232293899.1488263353.3112.2312	2017-02-22	MAM SCREEN AND WAIT	R CC	R	cc	1.2.840.113681.3232293899.1488263353.3112.2312	False	-1.0	True	2518.0	3229.0	1375.0	1949.0
17583^^^^	64202	1.2.840.113681.3232293899.1488263353.3112.2324	2017-02-22	MAM SCREEN AND WAIT	R MLO	R	mlo	1.2.840.113681.3232293899.1488263353.3112.2324	False	-1.0	True	2243.0	2943.0	1651.0	2156.0
18259^^^^	61125	1.2.840.113681.3232293899.1482474793.3380.881170	2017-01-27	MAM SCREENING	R CC	R	cc	1.2.840.113681.3232293899.1482474793.3380.881170	False	-1.0	False	2774.0	2854.0	995.0	1068.0
18259^^^^	61125	1.2.840.113681.3232293899.1482474793.3380.881182	2017-01-27	MAM SCREENING	R MLO	R	mlo	1.2.840.113681.3232293899.1482474793.3380.881182	False	-1.0	False	2881.0	2972.0	1743.0	1829.0
18259^^^^	61125	1.2.840.113681.3232293899.1482474793.3380.881200	2017-01-27	MAM SCREENING	R MLO	R	mlo	1.2.840.113681.3232293899.1482474793.3380.881200	False	-1.0	False	2961.0	3058.0	1599.0	1670.0
18930^^^^	70794	1.2.840.113681.3232293899.1507875724.5084.12273.1	2017-11-26	MAM SCREENING WITH TOMO	R CC C-View	R	cc	1.2.840.113681.3232293899.1507875724.5084.12273.1	False	-1.0	False	1185.0	1526.0	1211.0	1457.0
18930^^^^	70794	1.2.840.113681.3232293899.1507875724.5084.12309.1	2017-11-26	MAM SCREENING WITH TOMO	R MLO C-View	R	mlo	1.2.840.113681.3232293899.1507875724.5084.12309.1	False	-1.0	False	1132.0	1435.0	1012.0	1328.0
18759^^^^	63951	1.2.840.113681.3232293899.1491978417.4376.4709	2017-06-02	MAM SCREENING	R CC	R	cc	1.2.840.113681.3232293899.1491978417.4376.4709	False	-1.0	False	1042.0	1042.0	3600.0	3601.0
18759^^^^	63951	1.2.840.113681.3232293899.1491978417.4376.4709	2017-06-02	MAM SCREENING	R CC	R	cc	1.2.840.113681.3232293899.1491978417.4376.4709	False	-1.0	False	1721.0	2043.0	1926.0	2192.0
18759^^^^	63951	1.2.840.113681.3232293899.1491978417.4376.4782	2017-06-02	MAM SCREENING	R MLO	R	mlo	1.2.840.113681.3232293899.1491978417.4376.4782	False	-1.0	False	920.0	1209.0	2394.0	2597.0
18896^^^^	47370	1.2.840.113681.169521952.1512714790.3776.8476.1	2017-12-06	MAM SCREENING WITH TOMO	L CC C-View	L	cc	1.2.840.113681.169521952.1512714790.3776.8476.1	False	-1.0	True	780.0	1020.0	1448.0	1636.0
18896^^^^	47370	1.2.840.113681.169521952.1512714790.3776.8488.1	2017-12-06	MAM SCREENING WITH TOMO	L MLO C-View	L	mlo	1.2.840.113681.169521952.1512714790.3776.8488.1	False	-1.0	True	695.0	896.0	1904.0	2065.0
20342^^^^	61770	1.2.840.113681.3232293899.1490596072.4144.662	2017-04-18	MAM SCREENING WITH TOMO	L MLO	L	mlo	1.2.840.113681.3232293899.1490596072.4144.662	False	-1.0	False	858.0	959.0	1540.0	1644.0
20342^^^^	61770	1.2.840.113681.3232293899.1490596072.4144.646	2017-04-18	MAM SCREENING WITH TOMO	L CC	L	cc	1.2.840.113681.3232293899.1490596072.4144.646	False	-1.0	False	473.0	572.0	1207.0	1290.0
20342^^^^	61770	1.2.840.113681.3232293899.1490596072.4144.670.1	2017-04-18	MAM SCREENING WITH TOMO	L MLO C-View	L	mlo	1.2.840.113681.3232293899.1490596072.4144.670.1	False	-1.0	False	623.0	711.0	1131.0	1207.0
4930^^^^	34294	1.2.840.113681.3232293899.1428993309.5496.3052	2015-03-06	MAM SCREENING WITH TOMO	R CC	R	cc	1.2.840.113681.3232293899.1428993309.5496.3052	False	-1.0	False	1739.0	1895.0	1801.0	1928.0
4930^^^^	34294	1.2.840.113681.3232293899.1428993309.5496.3076	2015-03-06	MAM SCREENING WITH TOMO	R MLO	R	mlo	1.2.840.113681.3232293899.1428993309.5496.3076	False	-1.0	False	1465.0	1602.0	1816.0	1923.0
5132^^^^	50187	1.2.840.113681.3232293899.1483511514.3616.187490	2017-01-17	MAM SCREENING WITH TOMO	R CC	R	cc	1.2.840.113681.3232293899.1483511514.3616.187490	False	-1.0	False	1137.0	1419.0	1845.0	2248.0
5132^^^^	50187	1.2.840.113681.3232293899.1483511514.3616.187514	2017-01-17	MAM SCREENING WITH TOMO	R MLO	R	mlo	1.2.840.113681.3232293899.1483511514.3616.187514	False	-1.0	False	1220.0	1429.0	2588.0	2845.0
5094^^^^	24423	1.2.840.113681.3232293899.1466490423.5388.3307	2016-05-10	MAM SCREENING WITH IMPLANT	L CC	L	cc	1.2.840.113681.3232293899.1466490423.5388.3307	False	-1.0	True	885.0	1263.0	1777.0	2124.0
5088^^^^	33715	1.2.840.113681.3232311819.1433399617.4972.1458	2015-06-20	MAM SCREENING WITH TOMO	R CC	R	cc	1.2.840.113681.3232311819.1433399617.4972.1458	False	-1.0	True	1787.0	1954.0	1363.0	1508.0
5088^^^^	33715	1.2.840.113681.3232311819.1433399617.4972.1482	2015-06-20	MAM SCREENING WITH TOMO	R MLO	R	mlo	1.2.840.113681.3232311819.1433399617.4972.1482	False	-1.0	True	1617.0	1801.0	1804.0	1990.0
5088^^^^	33715	1.2.840.113681.3232311819.1433399617.4972.1562	2015-06-20	MAM SCREENING WITH TOMO	R CC	R	cc	1.2.840.113681.3232311819.1433399617.4972.1562	False	-1.0	True	1818.0	1988.0	1013.0	1153.0
5248^^^^	64544	1.2.840.113681.3232311819.1489472966.2708.11801	2017-04-03	MAM SCREENING WITH TOMO	L MLO	L	mlo	1.2.840.113681.3232311819.1489472966.2708.11801	False	-1.0	False	803.0	956.0	1523.0	1715.0
5248^^^^	64544	1.2.840.113681.3232311819.1489472966.2708.11809.1	2017-04-03	MAM SCREENING WITH TOMO	L MLO C-View	L	mlo	1.2.840.113681.3232311819.1489472966.2708.11809.1	False	-1.0	False	500.0	564.0	942.0	1023.0
5248^^^^	64544	1.2.840.113681.3232311819.1489472966.2708.11933	2017-04-03	MAM SCREENING WITH TOMO	L CC	L	cc	1.2.840.113681.3232311819.1489472966.2708.11933	False	-1.0	False	631.0	765.0	1850.0	1923.0
5248^^^^	64544	1.2.840.113681.3232311819.1489472966.2708.11941.1	2017-04-03	MAM SCREENING WITH TOMO	L CC C-View	L	cc	1.2.840.113681.3232311819.1489472966.2708.11941.1	False	-1.0	False	399.0	454.0	1117.0	1158.0
5248^^^^	64544	1.2.840.113681.3232311819.1489472966.2708.11941.1	2017-04-03	MAM SCREENING WITH TOMO	L CC C-View	L	cc	1.2.840.113681.3232311819.1489472966.2708.11941.1	False	-1.0	False	389.0	562.0	1270.0	1378.0
5012^^^^	46888	1.2.840.113681.3232311819.1492583555.4908.5937	2017-03-20	MAM SCREENING WITH TOMO	L MLO	L	mlo	1.2.840.113681.3232311819.1492583555.4908.5937	False	-1.0	True	321.0	454.0	1174.0	1309.0
5012^^^^	46888	1.2.840.113681.3232311819.1492583555.4908.5921	2017-03-20	MAM SCREENING WITH TOMO	L CC	L	cc	1.2.840.113681.3232311819.1492583555.4908.5921	False	-1.0	True	22.0	169.0	1503.0	1656.0
5012^^^^	46888	1.2.840.113681.3232311819.1492583555.4908.5929.1	2017-03-20	MAM SCREENING WITH TOMO	L CC C-View	L	cc	1.2.840.113681.3232311819.1492583555.4908.5929.1	False	-1.0	True	9.0	128.0	1098.0	1224.0
5363^^^^	41698	1.2.840.113681.3232311819.1444717755.5076.3489	2015-12-02	MAM SCREENING WITH TOMO	L MLO	L	mlo	1.2.840.113681.3232311819.1444717755.5076.3489	False	-1.0	False	1272.0	1423.0	2300.0	2408.0
5590^^^^	27666	1.2.840.113681.3232311819.1412319157.5096.5181	2014-09-22	MAM SCREENING WITH TOMO	L CC	L	cc	1.2.840.113681.3232311819.1412319157.5096.5181	False	-1.0	True	959.0	1525.0	1841.0	2392.0
5590^^^^	27666	1.2.840.113681.3232311819.1412319157.5096.5205	2014-09-22	MAM SCREENING WITH TOMO	L MLO	L	mlo	1.2.840.113681.3232311819.1412319157.5096.5205	False	-1.0	True	939.0	1536.0	2350.0	3054.0
5402^^^^	62321	1.2.840.113681.3232293899.1481611100.4812.1592383	2016-12-09	MAM SCREENING WITH TOMO	L MLO	L	mlo	1.2.840.113681.3232293899.1481611100.4812.1592383	False	-1.0	True	88.0	390.0	262.0	531.0
5402^^^^	27931	1.2.840.113681.3232311819.1406011277.4372.2813	2014-07-18	MAM SCREENING WITH TOMO	L MLO	L	mlo	1.2.840.113681.3232311819.1406011277.4372.2813	False	-1.0	True	-12.0	267.0	449.0	724.0
5188^^^^	8066	1.2.840.113681.3232293899.1421130809.5504.6229	2015-02-15	MAM SCREENING WITH TOMO	R CC	R	cc	1.2.840.113681.3232293899.1421130809.5504.6229	False	-1.0	True	2749.0	3137.0	1755.0	2053.0
5188^^^^	8066	1.2.840.113681.3232293899.1421130809.5504.6253	2015-02-15	MAM SCREENING WITH TOMO	R MLO	R	mlo	1.2.840.113681.3232293899.1421130809.5504.6253	False	-1.0	True	2567.0	2969.0	2051.0	2345.0
5188^^^^	8066	1.2.840.113681.3232293899.1421130809.5504.6265	2015-02-15	MAM SCREENING WITH TOMO	L MLO	L	mlo	1.2.840.113681.3232293899.1421130809.5504.6265	False	-1.0	False	267.0	894.0	1442.0	1890.0
5188^^^^	8066	1.2.840.113681.3232293899.1421130809.5504.6289	2015-02-15	MAM SCREENING WITH TOMO	L XCCL	L	xccl	1.2.840.113681.3232293899.1421130809.5504.6289	False	-1.0	False	398.0	1215.0	934.0	1521.0
5188^^^^	8066	1.2.840.113681.3232293899.1421130809.5504.6295	2015-02-15	MAM SCREENING WITH TOMO	R XCCL	R	xccl	1.2.840.113681.3232293899.1421130809.5504.6295	False	-1.0	True	2547.0	2866.0	2529.0	2751.0
5188^^^^	8065	1.2.840.113619.2.66.2218493508.2993140107132528.195	2014-02-09	MAM SCREENING	MAM SCREENING	L	cc	1.2.840.113619.2.66.2218493508.2993140107132528.195	False	-1.0	False	61.0	434.0	597.0	888.0
5188^^^^	8065	1.2.840.113619.2.66.2218493508.2993140107132643.203	2014-02-09	MAM SCREENING	MAM SCREENING	L	mlo	1.2.840.113619.2.66.2218493508.2993140107132643.203	False	-1.0	False	179.0	480.0	1076.0	1316.0
5158^^^^	23061	1.2.840.113681.3232293899.1395902247.5380.11941	2014-03-19	MAM SCREEN AND WAIT	L MLO	L	mlo	1.2.840.113681.3232293899.1395902247.5380.11941	False	-1.0	False	558.0	1089.0	1546.0	1994.0
5732^^^^	52529	1.2.840.113681.3232293899.1456726737.5444.2765	2016-01-11	MAM SCREENING WITH TOMO	R MLO	R	mlo	1.2.840.113681.3232293899.1456726737.5444.2765	False	-1.0	True	2290.0	2470.0	1145.0	1305.0
5732^^^^	52529	1.2.840.113681.3232293899.1456726737.5444.2857	2016-01-11	MAM SCREENING WITH TOMO	R CC	R	cc	1.2.840.113681.3232293899.1456726737.5444.2857	False	-1.0	True	2952.0	3135.0	1185.0	1360.0
5732^^^^	52529	1.2.840.113681.3232293899.1456813112.5440.4485	2016-01-11	MAM SCREENING WITH TOMO	R CC	R	cc	1.2.840.113681.3232293899.1456813112.5440.4485	False	-1.0	True	1814.0	2023.0	1202.0	1408.0
5991^^^^	40419	1.2.840.113681.3232293899.1462861325.5448.5621	2016-03-25	MAM SCREENING WITH TOMO	L CC	L	cc	1.2.840.113681.3232293899.1462861325.5448.5621	False	-1.0	True	63.0	294.0	2140.0	2327.0
5991^^^^	40419	1.2.840.113681.3232293899.1462861325.5448.5645	2016-03-25	MAM SCREENING WITH TOMO	L MLO	L	mlo	1.2.840.113681.3232293899.1462861325.5448.5645	False	-1.0	True	342.0	540.0	1599.0	1801.0
5708^^^^	33066	1.2.840.113681.3232293899.1445840394.5448.19542	2015-08-29	MAM SCREENING	L CC	L	cc	1.2.840.113681.3232293899.1445840394.5448.19542	False	-1.0	True	1206.0	1484.0	2247.0	2618.0
5708^^^^	33066	1.2.840.113681.3232293899.1445840394.5448.19554	2015-08-29	MAM SCREENING	L MLO	L	mlo	1.2.840.113681.3232293899.1445840394.5448.19554	False	-1.0	True	1127.0	1433.0	1624.0	1894.0
6531^^^^	22058	1.2.840.113681.3232311819.1398753216.4992.1715	2014-03-04	MAM SCREENING	R CC	R	cc	1.2.840.113681.3232311819.1398753216.4992.1715	False	-1.0	False	2705.0	2895.0	1260.0	1432.0
6531^^^^	22058	1.2.840.113681.3232311819.1398753216.4992.1727	2014-03-04	MAM SCREENING	R MLO	R	mlo	1.2.840.113681.3232311819.1398753216.4992.1727	False	-1.0	False	2499.0	2658.0	1887.0	2028.0
6491^^^^	47268	1.2.840.113681.3232311819.1471588958.1656.1410159	2016-07-15	MAM SCREENING WITH TOMO	L CC	L	cc	1.2.840.113681.3232311819.1471588958.1656.1410159	False	-1.0	False	660.0	777.0	2116.0	2201.0
6491^^^^	47268	1.2.840.113681.3232311819.1471588958.1656.1410257	2016-07-15	MAM SCREENING WITH TOMO	L MLO	L	mlo	1.2.840.113681.3232311819.1471588958.1656.1410257	False	-1.0	False	1136.0	1296.0	1455.0	1586.0
6039^^^^	31450	1.2.840.113681.3232293899.1409638584.5468.1214	2014-09-18	MAM SCREENING WITH TOMO	R CC	R	cc	1.2.840.113681.3232293899.1409638584.5468.1214	False	-1.0	False	1797.0	1982.0	2088.0	2216.0
6039^^^^	31450	1.2.840.113681.3232293899.1409638584.5468.1238	2014-09-18	MAM SCREENING WITH TOMO	R MLO	R	mlo	1.2.840.113681.3232293899.1409638584.5468.1238	False	-1.0	False	1638.0	1830.0	2183.0	2336.0
6057^^^^	60725	1.2.840.113681.3232311819.1498545141.3468.672.1	2017-06-18	MAM SCREENING WITH TOMO	R MLO C-View	R	mlo	1.2.840.113681.3232311819.1498545141.3468.672.1	False	-1.0	False	1500.0	1648.0	836.0	962.0
6057^^^^	60725	1.2.840.113681.3232311819.1498545141.3468.794.1	2017-06-18	MAM SCREENING WITH TOMO	R XCCL C-View	R	xccl	1.2.840.113681.3232311819.1498545141.3468.794.1	False	-1.0	False	1556.0	1694.0	359.0	466.0
6306^^^^	45160	1.2.840.113681.3232311819.1460961252.5100.11852	2016-05-16	MAM SCREENING WITH TOMO	L CC	L	cc	1.2.840.113681.3232311819.1460961252.5100.11852	False	-1.0	False	356.0	1119.0	1428.0	2052.0
6306^^^^	45160	1.2.840.113681.3232311819.1460961252.5100.11876	2016-05-16	MAM SCREENING WITH TOMO	L MLO	L	mlo	1.2.840.113681.3232311819.1460961252.5100.11876	False	-1.0	False	585.0	1229.0	1086.0	1865.0
5876^^^^	23505	1.2.840.113681.3232293899.1397197998.5380.5082	2014-02-28	MAM Screening with Tomo	L CC	L	cc	1.2.840.113681.3232293899.1397197998.5380.5082	False	-1.0	True	470.0	675.0	1727.0	1908.0
5876^^^^	23505	1.2.840.113681.3232293899.1397197998.5380.5106	2014-02-28	MAM Screening with Tomo	L MLO	L	mlo	1.2.840.113681.3232293899.1397197998.5380.5106	False	-1.0	True	494.0	814.0	2067.0	2304.0
6227^^^^	29204	1.2.840.113681.3232293899.1428906318.5440.3796	2015-02-26	MAM SCREENING WITH TOMO	R CC	R	cc	1.2.840.113681.3232293899.1428906318.5440.3796	False	-1.0	True	1526.0	1804.0	1129.0	1371.0
6227^^^^	29204	1.2.840.113681.3232293899.1428906318.5440.3820	2015-02-26	MAM SCREENING WITH TOMO	R MLO	R	mlo	1.2.840.113681.3232293899.1428906318.5440.3820	False	-1.0	True	1528.0	1774.0	1618.0	1858.0
5756^^^^	34401	1.2.840.113681.3232311819.1414477588.5064.35940	2014-10-04	MAM SCREENING WITH TOMO	L CC	L	cc	1.2.840.113681.3232311819.1414477588.5064.35940	False	-1.0	True	1097.0	1415.0	1160.0	1509.0
5756^^^^	34401	1.2.840.113681.3232311819.1414477588.5064.35964	2014-10-04	MAM SCREENING WITH TOMO	L MLO	L	mlo	1.2.840.113681.3232311819.1414477588.5064.35964	False	-1.0	True	1551.0	1705.0	1576.0	1765.0
5744^^^^	51346	1.2.840.113681.3232293899.1453788991.5468.7957	2016-01-08	MAM Screening with Tomo	R CC	R	cc	1.2.840.113681.3232293899.1453788991.5468.7957	False	-1.0	False	2118.0	2352.0	1685.0	1851.0
5744^^^^	51346	1.2.840.113681.3232293899.1453788991.5468.7981	2016-01-08	MAM Screening with Tomo	R MLO	R	mlo	1.2.840.113681.3232293899.1453788991.5468.7981	False	-1.0	False	2102.0	2392.0	2070.0	2207.0
6731^^^^	42923	1.2.840.113681.169521952.1508739788.4880.11621	2017-09-01	MAM SCREEN AND WAIT	R CC	R	cc	1.2.840.113681.169521952.1508739788.4880.11621	False	-1.0	False	2012.0	2187.0	1404.0	1693.0
6731^^^^	42923	1.2.840.113681.169521952.1508739788.4880.11633	2017-09-01	MAM SCREEN AND WAIT	R MLO	R	mlo	1.2.840.113681.169521952.1508739788.4880.11633	False	-1.0	False	2084.0	2247.0	2094.0	2282.0
6731^^^^	42923	1.2.840.113681.169521952.1508739788.4880.11718	2017-09-01	MAM SCREEN AND WAIT	R XCCL	R	xccl	1.2.840.113681.169521952.1508739788.4880.11718	False	-1.0	False	2023.0	2199.0	2198.0	2468.0
6577^^^^	67997	1.2.840.113681.3232293899.1507619685.4140.8754.1	2017-11-24	MAM SCREENING WITH TOMO	L CC C-View	L	cc	1.2.840.113681.3232293899.1507619685.4140.8754.1	False	-1.0	True	1.0	143.0	1167.0	1316.0
6577^^^^	67997	1.2.840.113681.3232293899.1507619685.4140.8766.1	2017-11-24	MAM SCREENING WITH TOMO	L MLO C-View	L	mlo	1.2.840.113681.3232293899.1507619685.4140.8766.1	False	-1.0	True	-5.0	144.0	1424.0	1589.0
6295^^^^	65996	1.2.840.113681.3232311819.1493274762.4796.658	2017-05-17	MAM SCREENING WITH TOMO	R CC	R	cc	1.2.840.113681.3232311819.1493274762.4796.658	False	-1.0	True	2138.0	2476.0	1638.0	1924.0
6295^^^^	65996	1.2.840.113681.3232311819.1493274762.4796.666.1	2017-05-17	MAM SCREENING WITH TOMO	R CC C-View	R	cc	1.2.840.113681.3232311819.1493274762.4796.666.1	False	-1.0	True	1277.0	1477.0	968.0	1156.0
6295^^^^	65996	1.2.840.113681.3232311819.1493274762.4796.844	2017-05-17	MAM SCREENING WITH TOMO	R MLO	R	mlo	1.2.840.113681.3232311819.1493274762.4796.844	False	-1.0	True	1834.0	2294.0	1672.0	2079.0
6295^^^^	65996	1.2.840.113681.3232311819.1493274762.4796.852.1	2017-05-17	MAM SCREENING WITH TOMO	R MLO C-View	R	mlo	1.2.840.113681.3232311819.1493274762.4796.852.1	False	-1.0	True	1109.0	1367.0	1005.0	1220.0
6597^^^^	40109	1.2.840.113681.3232293899.1463984356.5428.4023	2016-06-19	MAM SCREENING WITH TOMO	R CC	R	cc	1.2.840.113681.3232293899.1463984356.5428.4023	False	-1.0	True	2359.0	2601.0	2089.0	2316.0
6597^^^^	40109	1.2.840.113681.3232293899.1463984356.5428.4047	2016-06-19	MAM SCREENING WITH TOMO	R MLO	R	mlo	1.2.840.113681.3232293899.1463984356.5428.4047	False	-1.0	True	2201.0	2442.0	1988.0	2230.0
5699^^^^	28380	1.2.840.113681.3232311819.1404889362.4228.1221	2014-08-18	MAM SCREEN AND WAIT	R CC	R	cc	1.2.840.113681.3232311819.1404889362.4228.1221	False	-1.0	True	1745.0	2053.0	1427.0	1642.0
5963^^^^	23514	1.2.840.113681.3232293899.1397479000.2644.1821	2014-03-13	MAM Screening with Tomo	R CC	R	cc	1.2.840.113681.3232293899.1397479000.2644.1821	False	-1.0	True	2193.0	2322.0	1915.0	2046.0
7849^^^^	38687	1.2.840.113681.3232311819.1459319807.5028.15049	2016-02-24	MAM SCREENING WITH TOMO	L MLO	L	mlo	1.2.840.113681.3232311819.1459319807.5028.15049	False	-1.0	False	375.0	481.0	2264.0	2370.0
7879^^^^	69117	1.2.840.113681.3232293899.1511331651.824.684.1	2017-10-02	MAM SCREEN AND WAIT WITH TOMO	L CC C-View	L	cc	1.2.840.113681.3232293899.1511331651.824.684.1	False	-1.0	True	226.0	515.0	856.0	1123.0
7879^^^^	69117	1.2.840.113681.3232293899.1511331651.824.811.1	2017-10-02	MAM SCREEN AND WAIT WITH TOMO	L MLO C-View	L	mlo	1.2.840.113681.3232293899.1511331651.824.811.1	False	-1.0	True	388.0	638.0	1452.0	1663.0
6751^^^^	67673	1.2.840.113681.3232311819.1496732006.4512.2125	2017-05-26	MAM SCREENING WITH TOMO	R CC	R	cc	1.2.840.113681.3232311819.1496732006.4512.2125	False	-1.0	True	1896.0	2500.0	979.0	1375.0
6751^^^^	67673	1.2.840.113681.3232311819.1496732006.4512.2133.1	2017-05-26	MAM SCREENING WITH TOMO	R CC C-View	R	cc	1.2.840.113681.3232311819.1496732006.4512.2133.1	False	-1.0	True	1138.0	1476.0	584.0	818.0
6751^^^^	67673	1.2.840.113681.3232311819.1496732006.4512.2173	2017-05-26	MAM SCREENING WITH TOMO	R MLO	R	mlo	1.2.840.113681.3232311819.1496732006.4512.2173	False	-1.0	True	1381.0	2037.0	1463.0	1969.0
6751^^^^	67673	1.2.840.113681.3232311819.1496732006.4512.2181.1	2017-05-26	MAM SCREENING WITH TOMO	R MLO C-View	R	mlo	1.2.840.113681.3232311819.1496732006.4512.2181.1	False	-1.0	True	813.0	1194.0	862.0	1179.0
7741^^^^	63752	1.2.840.113681.3232293899.1492151556.3864.663	2017-04-27	MAM SCREENING WITH TOMO	R CC	R	cc	1.2.840.113681.3232293899.1492151556.3864.663	False	-1.0	True	1577.0	1770.0	1359.0	1542.0
7741^^^^	63752	1.2.840.113681.3232293899.1492151556.3864.671.1	2017-04-27	MAM SCREENING WITH TOMO	R CC C-View	R	cc	1.2.840.113681.3232293899.1492151556.3864.671.1	False	-1.0	True	1161.0	1307.0	988.0	1137.0
7741^^^^	63752	1.2.840.113681.3232293899.1492151556.3864.711	2017-04-27	MAM SCREENING WITH TOMO	R MLO	R	mlo	1.2.840.113681.3232293899.1492151556.3864.711	False	-1.0	True	1535.0	1762.0	2404.0	2603.0
7741^^^^	63752	1.2.840.113681.3232293899.1492151556.3864.719.1	2017-04-27	MAM SCREENING WITH TOMO	R MLO C-View	R	mlo	1.2.840.113681.3232293899.1492151556.3864.719.1	False	-1.0	True	1135.0	1288.0	1778.0	1908.0
7818^^^^	41539	1.2.840.113681.3232293899.1474007304.5132.208154	2016-09-12	MAM SCREENING WITH TOMO	L CC	L	cc	1.2.840.113681.3232293899.1474007304.5132.208154	False	-1.0	True	523.0	765.0	1933.0	2161.0
7818^^^^	41539	1.2.840.113681.3232293899.1474007304.5132.208178	2016-09-12	MAM SCREENING WITH TOMO	L MLO	L	mlo	1.2.840.113681.3232293899.1474007304.5132.208178	False	-1.0	True	805.0	1023.0	2110.0	2334.0
7803^^^^	24090	1.2.840.113681.3232293899.1398926214.5432.1113	2014-04-06	MAM SCREEN AND WAIT	R CC	R	cc	1.2.840.113681.3232293899.1398926214.5432.1113	False	-1.0	True	1983.0	2161.0	2536.0	2672.0
7663^^^^	62348	1.2.840.113681.3232311819.1486103352.4260.2188	2017-02-07	MAM SCREENING WITH TOMO	R CC	R	cc	1.2.840.113681.3232311819.1486103352.4260.2188	False	-1.0	True	2597.0	3164.0	1073.0	1519.0
7663^^^^	62348	1.2.840.113681.3232311819.1486103352.4260.2212	2017-02-07	MAM SCREENING WITH TOMO	R MLO	R	mlo	1.2.840.113681.3232311819.1486103352.4260.2212	False	-1.0	True	2147.0	2555.0	1674.0	2160.0
7751^^^^	36932	1.2.840.113681.3232311819.1420180426.3464.2058	2014-11-20	MAM SCREENING WITH TOMO	R CC	R	cc	1.2.840.113681.3232311819.1420180426.3464.2058	False	-1.0	True	2325.0	2734.0	2464.0	2809.0
7751^^^^	36932	1.2.840.113681.3232311819.1420180426.3464.2082	2014-11-20	MAM SCREENING WITH TOMO	R MLO	R	mlo	1.2.840.113681.3232311819.1420180426.3464.2082	False	-1.0	True	2181.0	2546.0	2105.0	2401.0
8973^^^^	35754	1.2.826.0.1.3680043.2.103.20160113.133206.956.096	2014-10-21	MAM SCREENING WITH TOMO	R CC	R	cc	1.2.826.0.1.3680043.2.103.20160113.133206.956.096	False	-1.0	True	2313.0	2518.0	2018.0	2239.0
8973^^^^	35754	1.2.826.0.1.3680043.2.103.20160113.133241.867.087	2014-10-21	MAM SCREENING WITH TOMO	R MLO	R	mlo	1.2.826.0.1.3680043.2.103.20160113.133241.867.087	False	-1.0	True	2232.0	2521.0	2213.0	2452.0
8605^^^^	57348	1.2.840.113681.3232311819.1489645737.4796.3064	2017-02-22	MAM SCREENING WITH TOMO	R CC	R	cc	1.2.840.113681.3232311819.1489645737.4796.3064	False	-1.0	True	1816.0	2080.0	1797.0	2015.0
8605^^^^	57348	1.2.840.113681.3232311819.1489645737.4796.3072.1	2017-02-22	MAM SCREENING WITH TOMO	R CC C-View	R	cc	1.2.840.113681.3232311819.1489645737.4796.3072.1	False	-1.0	True	1116.0	1248.0	1090.0	1202.0
8605^^^^	57348	1.2.840.113681.3232311819.1489645737.4796.3120.1	2017-02-22	MAM SCREENING WITH TOMO	R MLO C-View	R	mlo	1.2.840.113681.3232311819.1489645737.4796.3120.1	False	-1.0	True	1066.0	1289.0	1696.0	1835.0
8024^^^^	58109	1.2.840.113681.3232311819.1471588958.1656.962036	2016-07-01	MAM SCREENING WITH TOMO	L CC	L	cc	1.2.840.113681.3232311819.1471588958.1656.962036	False	-1.0	True	657.0	928.0	2170.0	2579.0
8024^^^^	58109	1.2.840.113681.3232311819.1471588958.1656.962060	2016-07-01	MAM SCREENING WITH TOMO	L MLO	L	mlo	1.2.840.113681.3232311819.1471588958.1656.962060	False	-1.0	True	461.0	744.0	2508.0	2773.0
8729^^^^	51605	1.2.840.113681.3232293899.1486103219.1624.2044977	2017-02-12	MAM SCREENING WITH TOMO	R CC	R	cc	1.2.840.113681.3232293899.1486103219.1624.2044977	False	-1.0	True	1514.0	1845.0	1111.0	1378.0
8729^^^^	51605	1.2.840.113681.3232293899.1486103219.1624.2045001	2017-02-12	MAM SCREENING WITH TOMO	R MLO	R	mlo	1.2.840.113681.3232293899.1486103219.1624.2045001	False	-1.0	True	1683.0	2052.0	1809.0	2149.0
8988^^^^	59481	1.2.840.113681.169521952.1486967154.4144.1987	2017-04-08	MAM SCREENING	L CC	L	cc	1.2.840.113681.169521952.1486967154.4144.1987	False	-1.0	True	932.0	1893.0	835.0	1455.0
8988^^^^	59481	1.2.840.113681.169521952.1486967154.4144.1999	2017-04-08	MAM SCREENING	L MLO	L	mlo	1.2.840.113681.169521952.1486967154.4144.1999	False	-1.0	True	1125.0	1957.0	1557.0	1954.0
8765^^^^	68760	1.2.840.113681.3232311819.1500359596.4624.484	2017-07-28	MAM SCREENING	R CC	R	cc	1.2.840.113681.3232311819.1500359596.4624.484	False	-1.0	False	2297.0	2473.0	2206.0	2347.0
8765^^^^	68760	1.2.840.113681.3232311819.1500359596.4624.490	2017-07-28	MAM SCREENING	L CC	L	cc	1.2.840.113681.3232311819.1500359596.4624.490	False	-1.0	False	691.0	806.0	2684.0	2781.0
8765^^^^	68760	1.2.840.113681.3232311819.1500359596.4624.496	2017-07-28	MAM SCREENING	R MLO	R	mlo	1.2.840.113681.3232311819.1500359596.4624.496	False	-1.0	False	1977.0	2093.0	1969.0	2082.0
8765^^^^	68760	1.2.840.113681.3232311819.1500359596.4624.502	2017-07-28	MAM SCREENING	L MLO	L	mlo	1.2.840.113681.3232311819.1500359596.4624.502	False	-1.0	False	717.0	875.0	2255.0	2397.0
8801^^^^	65775	1.2.840.113681.3232293899.1492756169.868.2048	2017-06-04	MAM SCREEN AND WAIT WITH TOMO	R CC	R	cc	1.2.840.113681.3232293899.1492756169.868.2048	False	-1.0	False	2126.0	2390.0	2036.0	2289.0
8801^^^^	65775	1.2.840.113681.3232293899.1492756169.868.2056.1	2017-06-04	MAM SCREEN AND WAIT WITH TOMO	R CC C-View	R	cc	1.2.840.113681.3232293899.1492756169.868.2056.1	False	-1.0	False	1546.0	1740.0	1516.0	1669.0
8801^^^^	65775	1.2.840.113681.3232293899.1492756169.868.2104.1	2017-06-04	MAM SCREEN AND WAIT WITH TOMO	R MLO C-View	R	mlo	1.2.840.113681.3232293899.1492756169.868.2104.1	False	-1.0	False	1578.0	1763.0	1242.0	1400.0
8998^^^^	54516	1.2.840.113681.3232311819.1481696824.5100.921388	2016-10-28	MAM SCREENING WITH TOMO	L MLO	L	mlo	1.2.840.113681.3232311819.1481696824.5100.921388	False	-1.0	False	273.0	378.0	1145.0	1225.0
9021^^^^	61129	1.2.840.113681.3232293899.1487053900.3128.1535438	2017-04-07	MAM SCREENING	L CC	L	cc	1.2.840.113681.3232293899.1487053900.3128.1535438	False	-1.0	False	726.0	918.0	1657.0	1780.0
8012^^^^	41714	1.2.840.113681.3232293899.1458540928.5424.6643	2016-05-14	MAM SCREENING WITH TOMO	R CC	R	cc	1.2.840.113681.3232293899.1458540928.5424.6643	False	-1.0	True	2430.0	2749.0	1915.0	2242.0
8012^^^^	41714	1.2.840.113681.3232293899.1458540928.5424.6667	2016-05-14	MAM SCREENING WITH TOMO	R MLO	R	mlo	1.2.840.113681.3232293899.1458540928.5424.6667	False	-1.0	True	2585.0	2962.0	2844.0	3181.0
8012^^^^	41714	1.2.840.113681.3232293899.1458540928.5424.6747	2016-05-14	MAM SCREENING WITH TOMO	R MLO	R	mlo	1.2.840.113681.3232293899.1458540928.5424.6747	False	-1.0	True	2468.0	2774.0	2132.0	2441.0
8824^^^^	34579	1.2.840.113681.3232293899.1432880637.5444.15477	2015-07-19	MAM SCREENING WITH TOMO	R MLO	R	mlo	1.2.840.113681.3232293899.1432880637.5444.15477	False	-1.0	True	2284.0	2787.0	1269.0	1678.0
8824^^^^	34579	1.2.840.113681.3232293899.1432880637.5444.15477	2015-07-19	MAM SCREENING WITH TOMO	R MLO	R	mlo	1.2.840.113681.3232293899.1432880637.5444.15477	False	-1.0	False	2931.0	3083.0	1893.0	1999.0
8835^^^^	44856	1.2.840.113681.3232311819.1453876518.4996.5142	2016-01-18	MAM Screening with Tomo	R CC	R	cc	1.2.840.113681.3232311819.1453876518.4996.5142	False	-1.0	False	1823.0	1911.0	1730.0	1816.0
8835^^^^	44856	1.2.840.113681.3232311819.1453876518.4996.5166	2016-01-18	MAM Screening with Tomo	R MLO	R	mlo	1.2.840.113681.3232311819.1453876518.4996.5166	False	-1.0	False	1793.0	1920.0	2022.0	2143.0
8643^^^^	26711	1.2.840.113681.3232311819.1403851111.5080.2271	2014-06-02	MAM SCREENING	L CC	L	cc	1.2.840.113681.3232311819.1403851111.5080.2271	False	-1.0	False	1329.0	1796.0	2230.0	2745.0
8643^^^^	26711	1.2.840.113681.3232311819.1403851111.5080.2283	2014-06-02	MAM SCREENING	L MLO	L	mlo	1.2.840.113681.3232311819.1403851111.5080.2283	False	-1.0	False	1945.0	2241.0	1914.0	2355.0
9063^^^^	44257	1.2.840.113681.3232293899.1439879376.5420.3415	2015-09-11	MAM SCREENING	L CC	L	cc	1.2.840.113681.3232293899.1439879376.5420.3415	False	-1.0	True	190.0	312.0	1339.0	1472.0
8690^^^^	26431	1.2.840.113681.3232311819.1402987226.5088.2205	2014-07-24	MAM SCREENING WITH TOMO	R CC	R	cc	1.2.840.113681.3232311819.1402987226.5088.2205	False	-1.0	True	1169.0	1557.0	2270.0	2558.0
8690^^^^	26431	1.2.840.113681.3232311819.1402987226.5088.2229	2014-07-24	MAM SCREENING WITH TOMO	R MLO	R	mlo	1.2.840.113681.3232311819.1402987226.5088.2229	False	-1.0	True	1164.0	1573.0	2639.0	2904.0
8733^^^^	19652	1.2.840.113681.3232311819.1401171910.3588.4873	2014-05-14	MAM SCREENING WITH TOMO	R MLO	R	mlo	1.2.840.113681.3232311819.1401171910.3588.4873	False	-1.0	True	1695.0	2051.0	980.0	1292.0
21201^^^^	63969	1.2.840.113681.3232293899.1500532029.3804.3992.1	2017-07-23	mam screening with tomo	L CC C-View	L	cc	1.2.840.113681.3232293899.1500532029.3804.3992.1	False	-1.0	True	147.0	244.0	1341.0	1449.0
21201^^^^	63969	1.2.840.113681.3232293899.1500532029.3804.4004.1	2017-07-23	mam screening with tomo	L MLO C-View	L	mlo	1.2.840.113681.3232293899.1500532029.3804.4004.1	False	-1.0	True	266.0	345.0	1118.0	1218.0
21297^^^^	58003	1.2.840.113681.3232293899.1501655161.4116.382	2017-07-13	mam screening	R CC	R	cc	1.2.840.113681.3232293899.1501655161.4116.382	False	-1.0	True	2557.0	3067.0	1474.0	2021.0
21297^^^^	58003	1.2.840.113681.3232293899.1501655161.4116.394	2017-07-13	mam screening	R MLO	R	mlo	1.2.840.113681.3232293899.1501655161.4116.394	False	-1.0	True	2181.0	2755.0	1944.0	2487.0
21657^^^^	71524	1.2.840.113681.3232311819.1511332234.4796.6174.1	2017-11-07	mam screening with tomo	R CC C-View	R	cc	1.2.840.113681.3232311819.1511332234.4796.6174.1	False	-1.0	True	1081.0	1326.0	1053.0	1300.0
21657^^^^	71524	1.2.840.113681.3232311819.1511332234.4796.6210.1	2017-11-07	mam screening with tomo	R MLO C-View	R	mlo	1.2.840.113681.3232311819.1511332234.4796.6210.1	False	-1.0	True	961.0	1242.0	1733.0	1994.0
20866^^^^	69193	1.2.840.113681.3232293899.1502174011.5040.5924.1	2017-09-06	mam screening with tomo	R MLO C-View	R	mlo	1.2.840.113681.3232293899.1502174011.5040.5924.1	False	-1.0	True	1441.0	1634.0	1324.0	1499.0
